tests/FIFO/fifo_mem.vcd
$date
	Mon Apr 20 18:27:38 2020
$end
$version
	Icarus Verilog
$end
$timescale
	1ps
$end
$scope module fifo_mem_bench $end
$scope module fifo_mem_ $end
$var wire 1 ! clk $end
$var wire 8 " data_in [7:0] $end
$var wire 1 # rd $end
$var wire 1 $ rst_n $end
$var wire 1 % wr $end
$var wire 5 & wptr [4:0] $end
$var wire 5 ' rptr [4:0] $end
$var wire 1 ( fifo_we $end
$var wire 1 ) fifo_underflow $end
$var wire 1 * fifo_threshold $end
$var wire 1 + fifo_rd $end
$var wire 1 , fifo_overflow $end
$var wire 1 - fifo_full $end
$var wire 1 . fifo_empty $end
$var wire 8 / data_out [7:0] $end
$scope module top1 $end
$var wire 1 ! clk $end
$var wire 1 ( fifo_we $end
$var wire 1 $ rst_n $end
$var wire 1 % wr $end
$var wire 1 - fifo_full $end
$var reg 5 0 wptr [4:0] $end
$upscope $end
$scope module top2 $end
$var wire 1 ! clk $end
$var wire 1 + fifo_rd $end
$var wire 1 # rd $end
$var wire 1 $ rst_n $end
$var wire 1 . fifo_empty $end
$var reg 5 1 rptr [4:0] $end
$upscope $end
$scope module top3 $end
$var wire 1 ! clk $end
$var wire 8 2 data_in [7:0] $end
$var wire 8 3 data_out [7:0] $end
$var wire 1 ( fifo_we $end
$var wire 5 4 rptr [4:0] $end
$var wire 5 5 wptr [4:0] $end
$upscope $end
$scope module top4 $end
$var wire 1 ! clk $end
$var wire 1 6 fbit_comp $end
$var wire 1 + fifo_rd $end
$var wire 1 ( fifo_we $end
$var wire 1 7 overflow_set $end
$var wire 1 # rd $end
$var wire 5 8 rptr [4:0] $end
$var wire 1 $ rst_n $end
$var wire 1 9 underflow_set $end
$var wire 5 : wptr [4:0] $end
$var wire 1 % wr $end
$var wire 5 ; pointer_result [4:0] $end
$var wire 1 < pointer_equal $end
$var reg 1 . fifo_empty $end
$var reg 1 - fifo_full $end
$var reg 1 , fifo_overflow $end
$var reg 1 * fifo_threshold $end
$var reg 1 ) fifo_underflow $end
$upscope $end
$upscope $end
$upscope $end
$enddefinitions $end
#0
$dumpvars
x<
bx ;
bx :
x9
bx 8
x7
x6
bx 5
bx 4
bx 3
bx 2
bx 1
bx 0
bx /
x.
x-
x,
x+
x*
x)
x(
bx '
bx &
x%
1$
x#
bx "
1!
$end
#24000
0+
09
1%
b10000001 "
b10000001 2
0#
#25000
0!
#26000
1(
1.
07
1<
0-
06
0*
0)
0,
b0 ;
b0 '
b0 1
b0 4
b0 8
b0 &
b0 0
b0 5
b0 :
0$
#50000
b10000001 /
b10000001 3
1!
#74000
19
b1101 "
b1101 2
1#
#75000
0!
#100000
b1101 /
b1101 3
1!
#124000
b10010 "
b10010 2
#125000
0!
#150000
b10010 /
b10010 3
1!
#174000
b1110110 "
b1110110 2
#175000
0!
#200000
b1110110 /
b1110110 3
1!
#224000
b10001100 "
b10001100 2
#225000
0!
#250000
b10001100 /
b10001100 3
1!
#274000
0(
09
0%
b11000101 "
b11000101 2
0#
#275000
0!
#300000
1!
#324000
19
b1110111 "
b1110111 2
1#
#325000
0!
#350000
1!
#374000
b11110010 "
b11110010 2
#375000
0!
#400000
1!
#424000
09
b11000101 "
b11000101 2
0#
#425000
0!
#450000
1!
#474000
1(
19
1%
b101101 "
b101101 2
1#
#475000
0!
#500000
b101101 /
b101101 3
1!
#524000
0(
0%
b1010 "
b1010 2
#525000
0!
#550000
1!
#574000
1(
09
1%
b10101010 "
b10101010 2
0#
#575000
0!
#600000
b10101010 /
b10101010 3
1!
#624000
b10011 "
b10011 2
#625000
0!
#650000
b10011 /
b10011 3
1!
#674000
19
b1101011 "
b1101011 2
1#
#675000
0!
#700000
b1101011 /
b1101011 3
1!
#724000
09
b10101110 "
b10101110 2
0#
#725000
0!
#750000
b10101110 /
b10101110 3
1!
#774000
0(
19
0%
b100011 "
b100011 2
1#
#775000
0!
#800000
1!
#824000
09
b111100 "
b111100 2
0#
#825000
0!
#850000
1!
#874000
b1000001 "
b1000001 2
#875000
0!
#900000
1!
#924000
1(
1%
b10001001 "
b10001001 2
#925000
0!
#950000
b10001001 /
b10001001 3
1!
#974000
0(
0%
b11000110 "
b11000110 2
#975000
0!
#1000000
1!
#1024000
1(
1%
b101010 "
b101010 2
#1025000
0!
#1050000
b101010 /
b101010 3
1!
#1074000
19
b10000101 "
b10000101 2
1#
#1075000
0!
#1100000
b10000101 /
b10000101 3
1!
#1124000
0(
0%
b111010 "
b111010 2
#1125000
0!
#1150000
1!
#1174000
1(
1%
b11110001 "
b11110001 2
#1175000
0!
#1200000
b11110001 /
b11110001 3
1!
#1224000
09
b1001100 "
b1001100 2
0#
#1225000
0!
#1250000
b1001100 /
b1001100 3
1!
#1274000
19
b11111000 "
b11111000 2
1#
#1275000
0!
#1300000
b11111000 /
b11111000 3
1!
#1324000
b1011100 "
b1011100 2
#1325000
0!
#1350000
b1011100 /
b1011100 3
1!
#1374000
0(
0%
b1001001 "
b1001001 2
#1375000
0!
#1400000
1!
#1424000
b1010001 "
b1010001 2
#1425000
0!
#1450000
1!
#1474000
09
b11000010 "
b11000010 2
0#
#1475000
0!
#1500000
1!
#1524000
19
b111101 "
b111101 2
1#
#1525000
0!
#1550000
1!
#1574000
1(
09
1%
b1101101 "
b1101101 2
0#
#1575000
0!
#1600000
b1101101 /
b1101101 3
1!
#1624000
19
b11010011 "
b11010011 2
1#
#1625000
0!
#1650000
b11010011 /
b11010011 3
1!
#1674000
09
b1011011 "
b1011011 2
0#
#1675000
0!
#1700000
b1011011 /
b1011011 3
1!
#1724000
0(
19
0%
b101010 "
b101010 2
1#
#1725000
0!
#1750000
1!
#1774000
09
b10001110 "
b10001110 2
0#
#1775000
0!
#1800000
1!
#1824000
1(
1%
b100110 "
b100110 2
#1825000
0!
#1850000
b100110 /
b100110 3
1!
#1874000
19
b101111 "
b101111 2
1#
#1875000
0!
#1900000
b101111 /
b101111 3
1!
#1924000
b1000100 "
b1000100 2
#1925000
0!
#1950000
b1000100 /
b1000100 3
1!
#1974000
0(
0%
b11100110 "
b11100110 2
#1975000
0!
#2000000
1!
#2024000
b11101101 "
b11101101 2
#2025000
0!
#2050000
1!
#2074000
1(
1%
b10110101 "
b10110101 2
#2075000
0!
#2100000
b10110101 /
b10110101 3
1!
#2124000
0(
0%
b1000100 "
b1000100 2
#2125000
0!
#2150000
1!
#2174000
09
b10101011 "
b10101011 2
0#
#2175000
0!
#2200000
1!
#2224000
1(
1%
b10011010 "
b10011010 2
#2225000
0!
#2250000
b10011010 /
b10011010 3
1!
#2274000
0(
19
0%
b1010110 "
b1010110 2
1#
#2275000
0!
#2300000
1!
#2324000
b1010 "
b1010 2
#2325000
0!
#2350000
1!
#2374000
09
b1111001 "
b1111001 2
0#
#2375000
0!
#2400000
1!
#2424000
b10010011 "
b10010011 2
#2425000
0!
#2450000
1!
#2474000
1(
19
1%
b11011011 "
b11011011 2
1#
#2475000
0!
#2500000
b11011011 /
b11011011 3
1!
#2524000
0(
0%
b1101101 "
b1101101 2
#2525000
0!
#2550000
1!
#2574000
1(
09
1%
b10110110 "
b10110110 2
0#
#2575000
0!
#2600000
b10110110 /
b10110110 3
1!
#2624000
b100 "
b100 2
#2625000
0!
#2650000
b100 /
b100 3
1!
#2674000
0(
19
0%
b10110100 "
b10110100 2
1#
#2675000
0!
#2700000
1!
#2724000
1(
09
1%
b101101 "
b101101 2
0#
#2725000
0!
#2750000
b101101 /
b101101 3
1!
#2774000
0(
0%
b1000 "
b1000 2
#2775000
0!
#2800000
1!
#2824000
19
b101001 "
b101001 2
1#
#2825000
0!
#2850000
1!
#2874000
1(
09
1%
b11011010 "
b11011010 2
0#
#2875000
0!
#2900000
b11011010 /
b11011010 3
1!
#2924000
b1110000 "
b1110000 2
#2925000
0!
#2950000
b1110000 /
b1110000 3
1!
#2974000
0(
0%
b1011110 "
b1011110 2
#2975000
0!
#3000000
1!
#3024000
1(
19
1%
b11010 "
b11010 2
1#
#3025000
0!
#3050000
b11010 /
b11010 3
1!
#3074000
0(
0%
b10010110 "
b10010110 2
#3075000
0!
#3100000
1!
#3124000
1(
09
1%
b10110110 "
b10110110 2
0#
#3125000
0!
#3150000
b10110110 /
b10110110 3
1!
#3174000
0(
0%
b10000110 "
b10000110 2
#3175000
0!
#3200000
1!
#3224000
1(
1%
b11011011 "
b11011011 2
#3225000
0!
#3250000
b11011011 /
b11011011 3
1!
#3274000
19
b11111010 "
b11111010 2
1#
#3275000
0!
#3300000
b11111010 /
b11111010 3
1!
#3324000
0(
0%
b10100001 "
b10100001 2
#3325000
0!
#3350000
1!
#3374000
1(
09
1%
b11110101 "
b11110101 2
0#
#3375000
0!
#3400000
b11110101 /
b11110101 3
1!
#3424000
19
b11000001 "
b11000001 2
1#
#3425000
0!
#3450000
b11000001 /
b11000001 3
1!
#3474000
09
b1001011 "
b1001011 2
0#
#3475000
0!
#3500000
b1001011 /
b1001011 3
1!
#3524000
0(
0%
b10001010 "
b10001010 2
#3525000
0!
#3550000
1!
#3574000
1(
1%
b10101001 "
b10101001 2
#3575000
0!
#3600000
b10101001 /
b10101001 3
1!
#3624000
b11100110 "
b11100110 2
#3625000
0!
#3650000
b11100110 /
b11100110 3
1!
#3674000
b101010 "
b101010 2
#3675000
0!
#3700000
b101010 /
b101010 3
1!
#3724000
b111000 "
b111000 2
#3725000
0!
#3750000
b111000 /
b111000 3
1!
#3774000
b11001010 "
b11001010 2
#3775000
0!
#3800000
b11001010 /
b11001010 3
1!
#3824000
0(
19
0%
b11000111 "
b11000111 2
1#
#3825000
0!
#3850000
1!
#3874000
1(
09
1%
b11000100 "
b11000100 2
0#
#3875000
0!
#3900000
b11000100 /
b11000100 3
1!
#3924000
b10110100 "
b10110100 2
#3925000
0!
#3950000
b10110100 /
b10110100 3
1!
#3974000
0(
0%
b11111010 "
b11111010 2
#3975000
0!
#4000000
1!
#4024000
b10111101 "
b10111101 2
#4025000
0!
#4050000
1!
#4074000
1(
1%
b11001010 "
b11001010 2
#4075000
0!
#4100000
b11001010 /
b11001010 3
1!
#4124000
19
b10001110 "
b10001110 2
1#
#4125000
0!
#4150000
b10001110 /
b10001110 3
1!
#4174000
b11101111 "
b11101111 2
#4175000
0!
#4200000
b11101111 /
b11101111 3
1!
#4224000
09
b1110101 "
b1110101 2
0#
#4225000
0!
#4250000
b1110101 /
b1110101 3
1!
#4274000
0(
19
0%
b10001000 "
b10001000 2
1#
#4275000
0!
#4300000
1!
#4324000
b10010010 "
b10010010 2
#4325000
0!
#4350000
1!
#4374000
b1001011 "
b1001011 2
#4375000
0!
#4400000
1!
#4424000
09
b1101 "
b1101 2
0#
#4425000
0!
#4450000
1!
#4474000
b11010001 "
b11010001 2
#4475000
0!
#4500000
1!
#4524000
19
b111011 "
b111011 2
1#
#4525000
0!
#4550000
1!
#4574000
1(
1%
b1010110 "
b1010110 2
#4575000
0!
#4600000
b1010110 /
b1010110 3
1!
#4624000
09
b100 "
b100 2
0#
#4625000
0!
#4650000
b100 /
b100 3
1!
#4674000
0(
0%
b10010 "
b10010 2
#4675000
0!
#4700000
1!
#4724000
1(
19
1%
b11100101 "
b11100101 2
1#
#4725000
0!
#4750000
b11100101 /
b11100101 3
1!
#4774000
0(
0%
b10000001 "
b10000001 2
#4775000
0!
#4800000
1!
#4824000
1(
1%
b10100001 "
b10100001 2
#4825000
0!
#4850000
b10100001 /
b10100001 3
1!
#4874000
0(
09
0%
b1011000 "
b1011000 2
0#
#4875000
0!
#4900000
1!
#4924000
b10010 "
b10010 2
#4925000
0!
#4950000
1!
#4974000
1(
19
1%
b1010101 "
b1010101 2
1#
#4975000
0!
#5000000
b1010101 /
b1010101 3
1!
#5024000
b11110101 "
b11110101 2
#5025000
0!
#5050000
b11110101 /
b11110101 3
1!
#5074000
b10000100 "
b10000100 2
#5075000
0!
#5100000
b10000100 /
b10000100 3
1!
#5124000
b10111001 "
b10111001 2
#5125000
0!
#5150000
b10111001 /
b10111001 3
1!
#5174000
b11001001 "
b11001001 2
#5175000
0!
#5200000
b11001001 /
b11001001 3
1!
#5224000
0(
0%
b101010 "
b101010 2
#5225000
0!
#5250000
1!
#5274000
b10000011 "
b10000011 2
#5275000
0!
#5300000
1!
#5324000
09
b11111110 "
b11111110 2
0#
#5325000
0!
#5350000
1!
#5374000
19
b10000110 "
b10000110 2
1#
#5375000
0!
#5400000
1!
#5424000
09
b1000000 "
b1000000 2
0#
#5425000
0!
#5450000
1!
#5474000
b11000101 "
b11000101 2
#5475000
0!
#5500000
1!
#5524000
b111001 "
b111001 2
#5525000
0!
#5550000
1!
#5574000
b101010 "
b101010 2
#5575000
0!
#5600000
1!
#5624000
1(
19
1%
b11100001 "
b11100001 2
1#
#5625000
0!
#5650000
b11100001 /
b11100001 3
1!
#5674000
0(
0%
b11001001 "
b11001001 2
#5675000
0!
#5700000
1!
#5724000
1(
1%
b11000001 "
b11000001 2
#5725000
0!
#5750000
b11000001 /
b11000001 3
1!
#5774000
0(
09
0%
b111 "
b111 2
0#
#5775000
0!
#5800000
1!
#5824000
1(
1%
b1110001 "
b1110001 2
#5825000
0!
#5850000
b1110001 /
b1110001 3
1!
#5874000
0(
0%
b11110111 "
b11110111 2
#5875000
0!
#5900000
1!
#5924000
b1010101 "
b1010101 2
#5925000
0!
#5950000
1!
#5974000
b1110010 "
b1110010 2
#5975000
0!
#6000000
1!
#6024000
1(
19
1%
b1101 "
b1101 2
1#
#6025000
0!
#6050000
b1101 /
b1101 3
1!
#6074000
b10011110 "
b10011110 2
#6075000
0!
#6100000
b10011110 /
b10011110 3
1!
#6124000
b10001111 "
b10001111 2
#6125000
0!
#6150000
b10001111 /
b10001111 3
1!
#6174000
b11101 "
b11101 2
#6175000
0!
#6200000
b11101 /
b11101 3
1!
#6224000
0(
09
0%
b10010101 "
b10010101 2
0#
#6225000
0!
#6250000
1!
#6274000
19
b1010010 "
b1010010 2
1#
#6275000
0!
#6300000
1!
#6325000
0!
#6350000
1!
#6374000
09
b10001100 "
b10001100 2
0#
#6375000
0!
#6400000
1!
#6424000
19
b1101010 "
b1101010 2
1#
#6425000
0!
#6450000
1!
#6474000
09
b1111100 "
b1111100 2
0#
#6475000
0!
#6500000
1!
#6524000
b10001011 "
b10001011 2
#6525000
0!
#6550000
1!
#6574000
19
b110010 "
b110010 2
1#
#6575000
0!
#6600000
1!
#6624000
1(
1%
b10100 "
b10100 2
#6625000
0!
#6650000
b10100 /
b10100 3
1!
#6674000
b1011100 "
b1011100 2
#6675000
0!
#6700000
b1011100 /
b1011100 3
1!
#6724000
0(
09
0%
b111001 "
b111001 2
0#
#6725000
0!
#6750000
1!
#6774000
b101100 "
b101100 2
#6775000
0!
#6800000
1!
#6824000
1(
19
1%
b1101010 "
b1101010 2
1#
#6825000
0!
#6850000
b1101010 /
b1101010 3
1!
#6874000
09
b1001011 "
b1001011 2
0#
#6875000
0!
#6900000
b1001011 /
b1001011 3
1!
#6924000
0(
0%
b100011 "
b100011 2
#6925000
0!
#6950000
1!
#6974000
1(
19
1%
b111001 "
b111001 2
1#
#6975000
0!
#7000000
b111001 /
b111001 3
1!
#7024000
09
b1100111 "
b1100111 2
0#
#7025000
0!
#7050000
b1100111 /
b1100111 3
1!
#7074000
b10000010 "
b10000010 2
#7075000
0!
#7100000
b10000010 /
b10000010 3
1!
#7124000
0(
19
0%
b100000 "
b100000 2
1#
#7125000
0!
#7150000
1!
#7174000
b11100011 "
b11100011 2
#7175000
0!
#7200000
1!
#7224000
09
b1011101 "
b1011101 2
0#
#7225000
0!
#7250000
1!
#7274000
1(
1%
b101011 "
b101011 2
#7275000
0!
#7300000
b101011 /
b101011 3
1!
#7324000
b1010010 "
b1010010 2
#7325000
0!
#7350000
b1010010 /
b1010010 3
1!
#7374000
b1101110 "
b1101110 2
#7375000
0!
#7400000
b1101110 /
b1101110 3
1!
#7424000
19
b10100110 "
b10100110 2
1#
#7425000
0!
#7450000
b10100110 /
b10100110 3
1!
#7474000
09
b1111 "
b1111 2
0#
#7475000
0!
#7500000
b1111 /
b1111 3
1!
#7524000
b1011001 "
b1011001 2
#7525000
0!
#7550000
b1011001 /
b1011001 3
1!
#7574000
19
b10010000 "
b10010000 2
1#
#7575000
0!
#7600000
b10010000 /
b10010000 3
1!
#7624000
0(
0%
b1110111 "
b1110111 2
#7625000
0!
#7650000
1!
#7674000
09
b10011011 "
b10011011 2
0#
#7675000
0!
#7700000
1!
#7724000
b10110111 "
b10110111 2
#7725000
0!
#7750000
1!
#7774000
1(
1%
b1110111 "
b1110111 2
#7775000
0!
#7800000
b1110111 /
b1110111 3
1!
#7824000
0(
0%
b111 "
b111 2
#7825000
0!
#7850000
1!
#7874000
1(
19
1%
b10001011 "
b10001011 2
1#
#7875000
0!
#7900000
b10001011 /
b10001011 3
1!
#7924000
0(
0%
b10000000 "
b10000000 2
#7925000
0!
#7950000
1!
#7974000
1(
1%
b110000 "
b110000 2
#7975000
0!
#8000000
b110000 /
b110000 3
1!
#8024000
09
b10101111 "
b10101111 2
0#
#8025000
0!
#8050000
b10101111 /
b10101111 3
1!
#8074000
b110 "
b110 2
#8075000
0!
#8100000
b110 /
b110 3
1!
#8124000
0(
19
0%
b10010101 "
b10010101 2
1#
#8125000
0!
#8150000
1!
#8174000
09
b11100101 "
b11100101 2
0#
#8175000
0!
#8200000
1!
#8224000
1(
1%
b101001 "
b101001 2
#8225000
0!
#8250000
b101001 /
b101001 3
1!
#8274000
19
b1101110 "
b1101110 2
1#
#8275000
0!
#8300000
b1101110 /
b1101110 3
1!
#8324000
0(
0%
b1101000 "
b1101000 2
#8325000
0!
#8350000
1!
#8374000
1(
09
1%
b1111 "
b1111 2
0#
#8375000
0!
#8400000
b1111 /
b1111 3
1!
#8424000
0(
19
0%
b10001110 "
b10001110 2
1#
#8425000
0!
#8450000
1!
#8474000
1(
09
1%
b10101001 "
b10101001 2
0#
#8475000
0!
#8500000
b10101001 /
b10101001 3
1!
#8524000
0(
19
0%
b10101111 "
b10101111 2
1#
#8525000
0!
#8550000
1!
#8574000
1(
1%
b10011 "
b10011 2
#8575000
0!
#8600000
b10011 /
b10011 3
1!
#8624000
b1010001 "
b1010001 2
#8625000
0!
#8650000
b1010001 /
b1010001 3
1!
#8674000
b111010 "
b111010 2
#8675000
0!
#8700000
b111010 /
b111010 3
1!
#8724000
0(
09
0%
b11100100 "
b11100100 2
0#
#8725000
0!
#8750000
1!
#8774000
1(
19
1%
b1011001 "
b1011001 2
1#
#8775000
0!
#8800000
b1011001 /
b1011001 3
1!
#8824000
b11001001 "
b11001001 2
#8825000
0!
#8850000
b11001001 /
b11001001 3
1!
#8874000
b11011011 "
b11011011 2
#8875000
0!
#8900000
b11011011 /
b11011011 3
1!
#8924000
0(
09
0%
b110 "
b110 2
0#
#8925000
0!
#8950000
1!
#8974000
19
b1101010 "
b1101010 2
1#
#8975000
0!
#9000000
1!
#9024000
1(
09
1%
b1111011 "
b1111011 2
0#
#9025000
0!
#9050000
b1111011 /
b1111011 3
1!
#9074000
0(
0%
b11110110 "
b11110110 2
#9075000
0!
#9100000
1!
#9124000
19
b1111001 "
b1111001 2
1#
#9125000
0!
#9150000
1!
#9174000
1(
1%
b1110 "
b1110 2
#9175000
0!
#9200000
b1110 /
b1110 3
1!
#9224000
0(
09
0%
b11001110 "
b11001110 2
0#
#9225000
0!
#9250000
1!
#9274000
1(
19
1%
b10111001 "
b10111001 2
1#
#9275000
0!
#9300000
b10111001 /
b10111001 3
1!
#9324000
0(
09
0%
b1110101 "
b1110101 2
0#
#9325000
0!
#9350000
1!
#9374000
1(
19
1%
b10 "
b10 2
1#
#9375000
0!
#9400000
b10 /
b10 3
1!
#9424000
0(
0%
b1001110 "
b1001110 2
#9425000
0!
#9450000
1!
#9474000
1(
09
1%
b1000 "
b1000 2
0#
#9475000
0!
#9500000
b1000 /
b1000 3
1!
#9524000
0(
19
0%
b11101000 "
b11101000 2
1#
#9525000
0!
#9550000
1!
#9574000
1(
1%
b1001100 "
b1001100 2
#9575000
0!
#9600000
b1001100 /
b1001100 3
1!
#9624000
09
b100101 "
b100101 2
0#
#9625000
0!
#9650000
b100101 /
b100101 3
1!
#9674000
b101101 "
b101101 2
#9675000
0!
#9700000
b101101 /
b101101 3
1!
#9724000
0(
0%
b110000 "
b110000 2
#9725000
0!
#9750000
1!
#9774000
1(
1%
b10100001 "
b10100001 2
#9775000
0!
#9800000
b10100001 /
b10100001 3
1!
#9824000
19
b11110101 "
b11110101 2
1#
#9825000
0!
#9850000
b11110101 /
b11110101 3
1!
#9874000
0(
09
0%
b1101010 "
b1101010 2
0#
#9875000
0!
#9900000
1!
#9924000
b10011110 "
b10011110 2
#9925000
0!
#9950000
1!
#9974000
1(
1%
b111 "
b111 2
#9975000
0!
#10000000
b111 /
b111 3
1!
#10024000
19
b10110111 "
b10110111 2
1#
#10025000
0!
#10050000
b10110111 /
b10110111 3
1!
#10074000
0(
0%
b1011001 "
b1011001 2
#10075000
0!
#10100000
1!
#10124000
09
b11110 "
b11110 2
0#
#10125000
0!
#10150000
1!
#10174000
1(
1%
b11100 "
b11100 2
#10175000
0!
#10200000
b11100 /
b11100 3
1!
#10224000
19
b11010000 "
b11010000 2
1#
#10225000
0!
#10250000
b11010000 /
b11010000 3
1!
#10274000
09
b1000101 "
b1000101 2
0#
#10275000
0!
#10300000
b1000101 /
b1000101 3
1!
#10324000
0(
19
0%
b11111100 "
b11111100 2
1#
#10325000
0!
#10350000
1!
#10374000
1(
09
1%
b11001 "
b11001 2
0#
#10375000
0!
#10400000
b11001 /
b11001 3
1!
#10424000
0(
0%
b11110011 "
b11110011 2
#10425000
0!
#10450000
1!
#10474000
b1011100 "
b1011100 2
#10475000
0!
#10500000
1!
#10524000
1(
1%
b11000 "
b11000 2
#10525000
0!
#10550000
b11000 /
b11000 3
1!
#10574000
b11010 "
b11010 2
#10575000
0!
#10600000
b11010 /
b11010 3
1!
#10624000
b1100 "
b1100 2
#10625000
0!
#10650000
b1100 /
b1100 3
1!
#10674000
0(
19
0%
b11101011 "
b11101011 2
1#
#10675000
0!
#10700000
1!
#10724000
1(
09
1%
b10001001 "
b10001001 2
0#
#10725000
0!
#10750000
b10001001 /
b10001001 3
1!
#10774000
0(
19
0%
b10101101 "
b10101101 2
1#
#10775000
0!
#10800000
1!
#10824000
1(
1%
b11001111 "
b11001111 2
#10825000
0!
#10850000
b11001111 /
b11001111 3
1!
#10874000
b10000000 "
b10000000 2
#10875000
0!
#10900000
b10000000 /
b10000000 3
1!
#10924000
09
b100 "
b100 2
0#
#10925000
0!
#10950000
b100 /
b100 3
1!
#10974000
b110010 "
b110010 2
#10975000
0!
#11000000
b110010 /
b110010 3
1!
#11024000
0(
0%
b10110 "
b10110 2
#11025000
0!
#11050000
1!
#11074000
b101110 "
b101110 2
#11075000
0!
#11100000
1!
#11124000
19
b11111011 "
b11111011 2
1#
#11125000
0!
#11150000
1!
#11174000
1(
09
1%
b10111 "
b10111 2
0#
#11175000
0!
#11200000
b10111 /
b10111 3
1!
#11224000
19
b10110101 "
b10110101 2
1#
#11225000
0!
#11250000
b10110101 /
b10110101 3
1!
#11274000
0(
0%
b10111111 "
b10111111 2
#11275000
0!
#11300000
1!
#11324000
b11010110 "
b11010110 2
#11325000
0!
#11350000
1!
#11374000
1(
09
1%
b1110001 "
b1110001 2
0#
#11375000
0!
#11400000
b1110001 /
b1110001 3
1!
#11424000
b11110001 "
b11110001 2
#11425000
0!
#11450000
b11110001 /
b11110001 3
1!
#11474000
0(
19
0%
b11100 "
b11100 2
1#
#11475000
0!
#11500000
1!
#11524000
1(
09
1%
b101010 "
b101010 2
0#
#11525000
0!
#11550000
b101010 /
b101010 3
1!
#11574000
0(
19
0%
b11 "
b11 2
1#
#11575000
0!
#11600000
1!
#11624000
b111110 "
b111110 2
#11625000
0!
#11650000
1!
#11674000
09
b10110000 "
b10110000 2
0#
#11675000
0!
#11700000
1!
#11724000
1(
1%
b1101000 "
b1101000 2
#11725000
0!
#11750000
b1101000 /
b1101000 3
1!
#11774000
b110110 "
b110110 2
#11775000
0!
#11800000
b110110 /
b110110 3
1!
#11824000
19
b1101011 "
b1101011 2
1#
#11825000
0!
#11850000
b1101011 /
b1101011 3
1!
#11874000
0(
0%
b10100 "
b10100 2
#11875000
0!
#11900000
1!
#11924000
1(
09
1%
b11010100 "
b11010100 2
0#
#11925000
0!
#11950000
b11010100 /
b11010100 3
1!
#11974000
0(
19
0%
b100 "
b100 2
1#
#11975000
0!
#12000000
1!
#12024000
1(
1%
b11100001 "
b11100001 2
#12025000
0!
#12050000
b11100001 /
b11100001 3
1!
#12074000
0(
0%
b11001001 "
b11001001 2
#12075000
0!
#12100000
1!
#12124000
1(
09
1%
b111100 "
b111100 2
0#
#12125000
0!
#12150000
b111100 /
b111100 3
1!
#12174000
0(
0%
b1110011 "
b1110011 2
#12175000
0!
#12200000
1!
#12224000
b110000 "
b110000 2
#12225000
0!
#12250000
1!
#12274000
b1000011 "
b1000011 2
#12275000
0!
#12300000
1!
#12324000
19
b1010011 "
b1010011 2
1#
#12325000
0!
#12350000
1!
#12374000
b10000111 "
b10000111 2
#12375000
0!
#12400000
1!
#12424000
1(
1%
b1110000 "
b1110000 2
#12425000
0!
#12450000
b1110000 /
b1110000 3
1!
#12474000
0(
0%
b10010 "
b10010 2
#12475000
0!
#12500000
1!
#12524000
b10101 "
b10101 2
#12525000
0!
#12550000
1!
#12574000
09
b1010100 "
b1010100 2
0#
#12575000
0!
#12600000
1!
#12624000
1(
19
1%
b11000011 "
b11000011 2
1#
#12625000
0!
#12650000
b11000011 /
b11000011 3
1!
#12674000
09
b1111000 "
b1111000 2
0#
#12675000
0!
#12700000
b1111000 /
b1111000 3
1!
#12724000
19
b100011 "
b100011 2
1#
#12725000
0!
#12750000
b100011 /
b100011 3
1!
#12774000
09
b100010 "
b100010 2
0#
#12775000
0!
#12800000
b100010 /
b100010 3
1!
#12824000
0(
19
0%
b10000010 "
b10000010 2
1#
#12825000
0!
#12850000
1!
#12874000
1(
1%
b100100 "
b100100 2
#12875000
0!
#12900000
b100100 /
b100100 3
1!
#12924000
09
b1110101 "
b1110101 2
0#
#12925000
0!
#12950000
b1110101 /
b1110101 3
1!
#12974000
0(
0%
b111000 "
b111000 2
#12975000
0!
#13000000
1!
#13024000
1(
1%
b1010000 "
b1010000 2
#13025000
0!
#13050000
b1010000 /
b1010000 3
1!
#13074000
0(
0%
b1100101 "
b1100101 2
#13075000
0!
#13100000
1!
#13124000
1(
1%
b1010100 "
b1010100 2
#13125000
0!
#13150000
b1010100 /
b1010100 3
1!
#13174000
b1001000 "
b1001000 2
#13175000
0!
#13200000
b1001000 /
b1001000 3
1!
#13224000
b10110101 "
b10110101 2
#13225000
0!
#13250000
b10110101 /
b10110101 3
1!
#13274000
19
b10011011 "
b10011011 2
1#
#13275000
0!
#13300000
b10011011 /
b10011011 3
1!
#13324000
09
b11111011 "
b11111011 2
0#
#13325000
0!
#13350000
b11111011 /
b11111011 3
1!
#13374000
b11000 "
b11000 2
#13375000
0!
#13400000
b11000 /
b11000 3
1!
#13424000
b1100001 "
b1100001 2
#13425000
0!
#13450000
b1100001 /
b1100001 3
1!
#13474000
19
b101111 "
b101111 2
1#
#13475000
0!
#13500000
b101111 /
b101111 3
1!
#13524000
0(
09
0%
b11010011 "
b11010011 2
0#
#13525000
0!
#13550000
1!
#13574000
1(
19
1%
b1011000 "
b1011000 2
1#
#13575000
0!
#13600000
b1011000 /
b1011000 3
1!
#13624000
0(
0%
b11010100 "
b11010100 2
#13625000
0!
#13650000
1!
#13674000
1(
09
1%
b11010110 "
b11010110 2
0#
#13675000
0!
#13700000
b11010110 /
b11010110 3
1!
#13724000
0(
19
0%
b10100000 "
b10100000 2
1#
#13725000
0!
#13750000
1!
#13774000
1(
1%
b1000101 "
b1000101 2
#13775000
0!
#13800000
b1000101 /
b1000101 3
1!
#13824000
0(
0%
b1110101 "
b1110101 2
#13825000
0!
#13850000
1!
#13874000
09
b1101100 "
b1101100 2
0#
#13875000
0!
#13900000
1!
#13924000
19
b10011100 "
b10011100 2
1#
#13925000
0!
#13950000
1!
#13974000
1(
1%
b1110 "
b1110 2
#13975000
0!
#14000000
b1110 /
b1110 3
1!
#14024000
09
b11011110 "
b11011110 2
0#
#14025000
0!
#14050000
b11011110 /
b11011110 3
1!
#14074000
0(
0%
b101000 "
b101000 2
#14075000
0!
#14100000
1!
#14124000
b11010011 "
b11010011 2
#14125000
0!
#14150000
1!
#14174000
19
b10001011 "
b10001011 2
1#
#14175000
0!
#14200000
1!
#14224000
09
b1110001 "
b1110001 2
0#
#14225000
0!
#14250000
1!
#14274000
1(
19
1%
b1111011 "
b1111011 2
1#
#14275000
0!
#14300000
b1111011 /
b1111011 3
1!
#14324000
b11000000 "
b11000000 2
#14325000
0!
#14350000
b11000000 /
b11000000 3
1!
#14374000
09
b1010100 "
b1010100 2
0#
#14375000
0!
#14400000
b1010100 /
b1010100 3
1!
#14424000
0(
19
0%
b11100111 "
b11100111 2
1#
#14425000
0!
#14450000
1!
#14474000
1(
1%
b1011011 "
b1011011 2
#14475000
0!
#14500000
b1011011 /
b1011011 3
1!
#14524000
b1110111 "
b1110111 2
#14525000
0!
#14550000
b1110111 /
b1110111 3
1!
#14574000
0(
09
0%
b10101111 "
b10101111 2
0#
#14575000
0!
#14600000
1!
#14624000
1(
1%
b11111100 "
b11111100 2
#14625000
0!
#14650000
b11111100 /
b11111100 3
1!
#14674000
0(
0%
b111111 "
b111111 2
#14675000
0!
#14700000
1!
#14724000
19
b1011010 "
b1011010 2
1#
#14725000
0!
#14750000
1!
