tests/machine/machine.vcd
$date
	Sun Oct 11 11:42:44 2020
$end
$version
	Icarus Verilog
$end
$timescale
	1ps
$end
$scope module machine_bench $end
$scope module machine_ $end
$var wire 1 ! clk $end
$var wire 1 " diet $end
$var wire 1 # dime $end
$var wire 1 $ nickel $end
$var wire 1 % quarter $end
$var wire 1 & reset $end
$var wire 1 ' soda $end
$var reg 3 ( change_count [2:0] $end
$var reg 4 ) current_state [3:0] $end
$var reg 1 * give_diet $end
$var reg 1 + give_soda $end
$var reg 4 , next_state [3:0] $end
$upscope $end
$upscope $end
$enddefinitions $end
#0
$dumpvars
bx ,
x+
x*
b0 )
bx (
x'
1&
x%
x$
x#
x"
1!
$end
#24000
b10 ,
0+
0*
b0 (
1"
1%
1'
1#
0$
#25000
0!
#26000
0&
#50000
b10 )
1!
#74000
b11 ,
0'
1$
#75000
0!
#100000
b11 )
1!
#124000
b101 ,
0%
1'
0$
#125000
0!
#150000
b101 )
1!
#174000
b111 ,
1%
0'
#175000
0!
#200000
b111 )
1!
#224000
b1000 ,
0"
0%
#225000
0!
#250000
b1000 )
1!
#274000
1+
b0 ,
1"
1%
1'
0#
1$
#275000
0!
#300000
b0 )
1!
#324000
b1 ,
0+
0"
0%
0'
#325000
0!
#350000
b1 )
1!
#374000
b10 ,
1"
1%
1'
#375000
0!
#400000
b10 )
1!
#424000
b11 ,
0%
0'
1#
#425000
0!
#450000
b11 )
1!
#474000
0"
#475000
0!
#500000
1!
#524000
1'
0#
0$
#525000
0!
#550000
1!
#574000
b100 ,
0'
1#
1$
#575000
0!
#600000
b100 )
1!
#624000
1+
b0 ,
1"
1%
1'
0#
0$
#625000
0!
#650000
b0 )
1!
#674000
b1 ,
0+
0%
0'
1#
1$
#675000
0!
#700000
b1 )
1!
#725000
0!
#750000
1!
#774000
b10 ,
0"
1%
1'
0#
#775000
0!
#800000
b10 )
1!
#824000
b11 ,
1"
0%
1#
#825000
0!
#850000
b11 )
1!
#874000
b100 ,
0"
0'
0#
#875000
0!
#900000
b100 )
1!
#924000
b101 ,
1"
1#
#925000
0!
#950000
b101 )
1!
#974000
b110 ,
0"
1%
1'
#975000
0!
#1000000
b110 )
1!
#1024000
b111 ,
0%
#1025000
0!
#1050000
b111 )
1!
#1074000
0'
0#
0$
#1075000
0!
#1100000
1!
#1124000
b1000 ,
1"
1%
1'
1#
1$
#1125000
0!
#1150000
b1000 )
1!
#1174000
1+
b1 (
b0 ,
0"
0%
0$
#1175000
0!
#1200000
b0 )
1!
#1224000
b1 ,
0+
b0 (
1"
1%
0'
1$
#1225000
0!
#1250000
b1 )
1!
#1274000
b10 ,
0"
0%
#1275000
0!
#1300000
b10 )
1!
#1324000
b11 ,
1"
0#
#1325000
0!
#1350000
b11 )
1!
#1374000
b100 ,
0"
1%
#1375000
0!
#1400000
b100 )
1!
#1424000
0%
1'
0$
#1425000
0!
#1450000
1!
#1474000
b101 ,
1"
1%
1$
#1475000
0!
#1500000
b101 )
1!
#1524000
b110 ,
0"
0%
0'
1#
#1525000
0!
#1550000
b110 )
1!
#1574000
b111 ,
1"
1%
0#
#1575000
0!
#1600000
b111 )
1!
#1624000
1*
b10 (
b0 ,
0$
#1625000
0!
#1650000
b0 )
1!
#1675000
0!
#1700000
1!
#1724000
0"
#1725000
0!
#1750000
1!
#1774000
b10 ,
0*
b0 (
0%
1#
#1775000
0!
#1800000
b10 )
1!
#1824000
b11 ,
1%
1'
0#
1$
#1825000
0!
#1850000
b11 )
1!
#1874000
b1000 ,
0'
0$
#1875000
0!
#1900000
b1000 )
1!
#1924000
1"
#1925000
0!
#1950000
1!
#1974000
1+
b0 ,
1'
1$
#1975000
0!
#2000000
b0 )
1!
#2024000
b101 ,
0+
0$
#2025000
0!
#2050000
b101 )
1!
#2074000
b110 ,
0'
1#
1$
#2075000
0!
#2100000
b110 )
1!
#2124000
0%
0#
0$
#2125000
0!
#2150000
1!
#2174000
b111 ,
0"
1%
1$
#2175000
0!
#2200000
b111 )
1!
#2224000
b1000 ,
1"
0%
1#
0$
#2225000
0!
#2250000
b1000 )
1!
#2274000
1+
b100 (
b0 ,
1%
1'
0#
#2275000
0!
#2300000
b0 )
1!
#2324000
0"
0'
#2325000
0!
#2350000
1!
#2374000
b10 ,
0+
b0 (
0%
1#
#2375000
0!
#2400000
b10 )
1!
#2425000
0!
#2450000
1!
#2474000
b11 ,
1"
1%
1$
#2475000
0!
#2500000
b11 )
1!
#2525000
0!
#2550000
1!
#2574000
b100 ,
0"
0#
#2575000
0!
#2600000
b100 )
1!
#2624000
b110 ,
0%
1'
1#
0$
#2625000
0!
#2650000
b110 )
1!
#2674000
b111 ,
1%
0'
0#
1$
#2675000
0!
#2700000
b111 )
1!
#2724000
b1000 ,
1#
#2725000
0!
#2750000
b1000 )
1!
#2774000
b0 ,
0#
#2775000
0!
#2800000
b0 )
1!
#2824000
b101 ,
1"
1'
0$
#2825000
0!
#2850000
b101 )
1!
#2874000
b110 ,
0'
1#
1$
#2875000
0!
#2900000
b110 )
1!
#2924000
b111 ,
0"
0%
0#
#2925000
0!
#2950000
b111 )
1!
#2974000
1+
b10 (
b0 ,
1"
1%
1'
0$
#2975000
0!
#3000000
b0 )
1!
#3024000
b1 ,
0+
b0 (
0"
1#
1$
#3025000
0!
#3050000
b1 )
1!
#3074000
1"
#3075000
0!
#3100000
1!
#3124000
b10 ,
0"
0%
#3125000
0!
#3150000
b10 )
1!
#3174000
0'
#3175000
0!
#3200000
1!
#3224000
b100 ,
0$
#3225000
0!
#3250000
b100 )
1!
#3274000
b0 ,
1%
0#
#3275000
0!
#3300000
b0 )
1!
#3324000
b10 ,
0%
1#
#3325000
0!
#3350000
b10 )
1!
#3374000
b100 ,
1"
1%
1'
#3375000
0!
#3400000
b100 )
1!
#3424000
b101 ,
0#
1$
#3425000
0!
#3450000
b101 )
1!
#3474000
b111 ,
0%
0'
1#
0$
#3475000
0!
#3500000
b111 )
1!
#3524000
b1000 ,
0"
1'
0#
1$
#3525000
0!
#3550000
b1000 )
1!
#3574000
0'
#3575000
0!
#3600000
1!
#3624000
1+
b0 ,
1%
1'
1#
#3625000
0!
#3650000
b0 )
1!
#3674000
1"
#3675000
0!
#3700000
1!
#3724000
0"
0'
#3725000
0!
#3750000
1!
#3774000
b1 ,
0+
0#
#3775000
0!
#3800000
b1 )
1!
#3824000
1"
0%
0$
#3825000
0!
#3850000
1!
#3874000
0"
#3875000
0!
#3900000
1!
#3924000
b11 ,
1%
1#
#3925000
0!
#3950000
b11 )
1!
#3974000
1"
#3975000
0!
#4000000
1!
#4024000
0"
#4025000
0!
#4050000
1!
#4074000
b1000 ,
0#
#4075000
0!
#4100000
b1000 )
1!
#4124000
1+
b0 ,
1'
1$
#4125000
0!
#4150000
b0 )
1!
#4174000
1"
#4175000
0!
#4200000
1!
#4224000
b10 ,
0+
0"
0%
1#
0$
#4225000
0!
#4250000
b10 )
1!
#4274000
b11 ,
1"
0'
1$
#4275000
0!
#4300000
b11 )
1!
#4324000
b100 ,
0"
1%
0#
#4325000
0!
#4350000
b100 )
1!
#4374000
b110 ,
0%
1'
1#
0$
#4375000
0!
#4400000
b110 )
1!
#4424000
b111 ,
1"
1%
0'
0#
1$
#4425000
0!
#4450000
b111 )
1!
#4474000
b1000 ,
1#
0$
#4475000
0!
#4500000
b1000 )
1!
#4524000
0"
1'
#4525000
0!
#4550000
1!
#4574000
1+
b0 ,
0%
1$
#4575000
0!
#4600000
b0 )
1!
#4624000
b1 ,
0+
1%
0'
0#
#4625000
0!
#4650000
b1 )
1!
#4674000
b11 ,
1"
0%
1'
1#
0$
#4675000
0!
#4700000
b11 )
1!
#4724000
b101 ,
1%
#4725000
0!
#4750000
b101 )
1!
#4774000
0%
0#
#4775000
0!
#4800000
1!
#4824000
b111 ,
0"
1#
#4825000
0!
#4850000
b111 )
1!
#4874000
b1000 ,
1$
#4875000
0!
#4900000
b1000 )
1!
#4924000
1*
b0 ,
1"
1%
0'
0#
#4925000
0!
#4950000
b0 )
1!
#4974000
0"
1'
#4975000
0!
#5000000
1!
#5024000
b101 ,
0*
1"
0$
#5025000
0!
#5050000
b101 )
1!
#5074000
0'
#5075000
0!
#5100000
1!
#5124000
b110 ,
1#
1$
#5125000
0!
#5150000
b110 )
1!
#5174000
1'
#5175000
0!
#5200000
1!
#5224000
b1000 ,
0"
0%
0'
0$
#5225000
0!
#5250000
b1000 )
1!
#5274000
1+
b0 ,
1"
1%
1'
1$
#5275000
0!
#5300000
b0 )
1!
#5324000
0"
#5325000
0!
#5350000
1!
#5374000
0+
0%
0#
0$
#5375000
0!
#5400000
1!
#5424000
b10 ,
1#
#5425000
0!
#5450000
b10 )
1!
#5474000
1"
#5475000
0!
#5500000
1!
#5524000
0"
0'
#5525000
0!
#5550000
1!
#5574000
b11 ,
1"
1'
1$
#5575000
0!
#5600000
b11 )
1!
#5624000
b101 ,
1%
0'
0$
#5625000
0!
#5650000
b101 )
1!
#5674000
0%
0#
#5675000
0!
#5700000
1!
#5724000
b110 ,
0"
1%
1$
#5725000
0!
#5750000
b110 )
1!
#5774000
1'
#5775000
0!
#5800000
1!
#5824000
b111 ,
0%
0'
1#
#5825000
0!
#5850000
b111 )
1!
#5874000
b1000 ,
1"
1%
1'
0$
#5875000
0!
#5900000
b1000 )
1!
#5924000
b0 ,
0"
0%
0'
0#
1$
#5925000
0!
#5950000
b0 )
1!
#5974000
b101 ,
1"
1%
0$
#5975000
0!
#6000000
b101 )
1!
#6024000
b110 ,
1'
1#
1$
#6025000
0!
#6050000
b110 )
1!
#6074000
0"
0%
0'
0#
0$
#6075000
0!
#6100000
1!
#6124000
b1000 ,
1"
1'
1#
#6125000
0!
#6150000
b1000 )
1!
#6174000
1+
b1 (
b0 ,
0"
1%
#6175000
0!
#6200000
b0 )
1!
#6224000
b101 ,
0+
b0 (
0#
#6225000
0!
#6250000
b101 )
1!
#6274000
b110 ,
0%
0'
1$
#6275000
0!
#6300000
b110 )
1!
#6324000
1'
0$
#6325000
0!
#6350000
1!
#6374000
b111 ,
1"
1%
0'
1$
#6375000
0!
#6400000
b111 )
1!
#6425000
0!
#6450000
1!
#6474000
b1000 ,
1#
#6475000
0!
#6500000
b1000 )
1!
#6524000
0"
#6525000
0!
#6550000
1!
#6574000
1*
b1 (
b0 ,
1"
0%
0$
#6575000
0!
#6600000
b0 )
1!
#6624000
0*
b0 (
0"
0#
#6625000
0!
#6650000
1!
#6674000
b10 ,
1'
1#
#6675000
0!
#6700000
b10 )
1!
#6724000
b11 ,
1"
1%
1$
#6725000
0!
#6750000
b11 )
1!
#6774000
0"
0'
#6775000
0!
#6800000
1!
#6824000
b1000 ,
1'
0#
0$
#6825000
0!
#6850000
b1000 )
1!
#6874000
1+
b0 ,
0%
1#
1$
#6875000
0!
#6900000
b0 )
1!
#6924000
b101 ,
0+
1"
1%
0#
0$
#6925000
0!
#6950000
b101 )
1!
#6974000
b111 ,
0"
0%
0'
1#
#6975000
0!
#7000000
b111 )
1!
#7024000
1"
0#
#7025000
0!
#7050000
1!
#7074000
1+
b10 (
b0 ,
1%
1'
#7075000
0!
#7100000
b0 )
1!
#7124000
b1 ,
0+
b0 (
0"
0%
0'
1#
1$
#7125000
0!
#7150000
b1 )
1!
#7174000
b11 ,
1'
0$
#7175000
0!
#7200000
b11 )
1!
#7224000
b100 ,
1"
1%
1$
#7225000
0!
#7250000
b100 )
1!
#7274000
b0 ,
0"
0'
0#
0$
#7275000
0!
#7300000
b0 )
1!
#7324000
b1 ,
0%
1$
#7325000
0!
#7350000
b1 )
1!
#7374000
b11 ,
1"
1%
1#
0$
#7375000
0!
#7400000
b11 )
1!
#7424000
b101 ,
0%
1'
#7425000
0!
#7450000
b101 )
1!
#7474000
0"
#7475000
0!
#7500000
1!
#7524000
b110 ,
0'
1$
#7525000
0!
#7550000
b110 )
1!
#7574000
b1000 ,
1%
1'
0$
#7575000
0!
#7600000
b1000 )
1!
#7624000
1"
#7625000
0!
#7650000
1!
#7674000
1+
b100 (
b0 ,
0"
0#
#7675000
0!
#7700000
b0 )
1!
#7724000
b10 ,
0+
b0 (
0'
1#
#7725000
0!
#7750000
b10 )
1!
#7774000
b11 ,
0%
1$
#7775000
0!
#7800000
b11 )
1!
#7824000
1"
1'
0#
0$
#7825000
0!
#7850000
1!
#7874000
b1000 ,
0"
1%
0'
#7875000
0!
#7900000
b1000 )
1!
#7924000
1*
b1 (
b0 ,
1"
1#
#7925000
0!
#7950000
b0 )
1!
#7974000
b1 ,
0*
b0 (
0%
1'
1$
#7975000
0!
#8000000
b1 )
1!
#8024000
b10 ,
0"
1%
0'
0#
#8025000
0!
#8050000
b10 )
1!
#8074000
b11 ,
1"
1'
1#
#8075000
0!
#8100000
b11 )
1!
#8124000
b101 ,
0"
0'
0$
#8125000
0!
#8150000
b101 )
1!
#8174000
b110 ,
0%
1$
#8175000
0!
#8200000
b110 )
1!
#8224000
b1000 ,
1'
0$
#8225000
0!
#8250000
b1000 )
1!
#8274000
1+
b0 ,
1"
1%
1$
#8275000
0!
#8300000
b0 )
1!
#8324000
0+
0%
0'
0#
0$
#8325000
0!
#8350000
1!
#8374000
1'
#8375000
0!
#8400000
1!
#8424000
0"
#8425000
0!
#8450000
1!
#8474000
1"
#8475000
0!
#8500000
1!
#8524000
b1 ,
0"
1%
0'
1$
#8525000
0!
#8550000
b1 )
1!
#8574000
b10 ,
1'
1#
#8575000
0!
#8600000
b10 )
1!
#8624000
b11 ,
1"
0'
0#
#8625000
0!
#8650000
b11 )
1!
#8674000
1'
#8675000
0!
#8700000
1!
#8724000
b100 ,
0%
1#
#8725000
0!
#8750000
b100 )
1!
#8774000
b0 ,
0"
1%
0'
0#
0$
#8775000
0!
#8800000
b0 )
1!
#8824000
b1 ,
0%
1'
1$
#8825000
0!
#8850000
b1 )
1!
#8874000
0$
#8875000
0!
#8900000
1!
#8924000
b10 ,
1$
#8925000
0!
#8950000
b10 )
1!
#8974000
b11 ,
1"
0'
1#
#8975000
0!
#9000000
b11 )
1!
#9024000
b100 ,
1%
1'
0#
#9025000
0!
#9050000
b100 )
1!
#9074000
b101 ,
0"
0%
#9075000
0!
#9100000
b101 )
1!
#9124000
b110 ,
1"
1%
0'
1#
#9125000
0!
#9150000
b110 )
1!
#9174000
b1000 ,
0"
1'
0$
#9175000
0!
#9200000
b1000 )
1!
#9224000
1+
b0 ,
0%
0#
1$
#9225000
0!
#9250000
b0 )
1!
#9274000
0+
0'
0$
#9275000
0!
#9300000
1!
#9324000
b101 ,
1"
1%
1'
#9325000
0!
#9350000
b101 )
1!
#9374000
0'
#9375000
0!
#9400000
1!
#9424000
b111 ,
0"
1'
1#
#9425000
0!
#9450000
b111 )
1!
#9474000
b1000 ,
0%
#9475000
0!
#9500000
b1000 )
1!
#9524000
1"
0#
#9525000
0!
#9550000
1!
#9574000
1+
b0 ,
1$
#9575000
0!
#9600000
b0 )
1!
#9624000
b1 ,
0+
1%
#9625000
0!
#9650000
b1 )
1!
#9674000
b10 ,
0%
#9675000
0!
#9700000
b10 )
1!
#9724000
0'
0$
#9725000
0!
#9750000
1!
#9774000
b100 ,
1#
#9775000
0!
#9800000
b100 )
1!
#9824000
b101 ,
1'
1$
#9825000
0!
#9850000
b101 )
1!
#9874000
0'
#9875000
0!
#9900000
1!
#9924000
b110 ,
1%
#9925000
0!
#9950000
b110 )
1!
#9974000
0"
0%
1'
0#
0$
#9975000
0!
#10000000
1!
#10024000
b111 ,
1"
0'
1#
1$
#10025000
0!
#10050000
b111 )
1!
#10074000
1*
b10 (
b0 ,
1%
0#
0$
#10075000
0!
#10100000
b0 )
1!
#10124000
b1 ,
0*
b0 (
0"
1'
1#
1$
#10125000
0!
#10150000
b1 )
1!
#10174000
b10 ,
1"
0%
0#
#10175000
0!
#10200000
b10 )
1!
#10224000
b100 ,
0"
1%
0'
1#
0$
#10225000
0!
#10250000
b100 )
1!
#10274000
b101 ,
0%
1'
0#
1$
#10275000
0!
#10300000
b101 )
1!
#10324000
b111 ,
1"
0'
1#
0$
#10325000
0!
#10350000
b111 )
1!
#10374000
b1000 ,
0"
1%
1'
1$
#10375000
0!
#10400000
b1000 )
1!
#10424000
0'
#10425000
0!
#10450000
1!
#10474000
1"
1'
#10475000
0!
#10500000
1!
#10524000
1*
b1 (
b0 ,
0'
0$
#10525000
0!
#10550000
b0 )
1!
#10574000
b1 ,
0*
b0 (
1$
#10575000
0!
#10600000
b1 )
1!
#10624000
b10 ,
0"
0%
#10625000
0!
#10650000
b10 )
1!
#10675000
0!
#10700000
1!
#10724000
1'
#10725000
0!
#10750000
1!
#10774000
b11 ,
0'
0#
#10775000
0!
#10800000
b11 )
1!
#10824000
b1000 ,
1%
1'
0$
#10825000
0!
#10850000
b1000 )
1!
#10874000
1"
0%
0'
#10875000
0!
#10900000
1!
#10924000
1+
b0 ,
0"
1%
1'
1#
1$
#10925000
0!
#10950000
b0 )
1!
#10974000
b101 ,
0+
1"
0'
0#
0$
#10975000
0!
#11000000
b101 )
1!
#11024000
b110 ,
0"
0%
1'
1#
1$
#11025000
0!
#11050000
b110 )
1!
#11074000
b1000 ,
0'
0$
#11075000
0!
#11100000
b1000 )
1!
#11124000
1+
b0 ,
1"
1%
1'
0#
1$
#11125000
0!
#11150000
b0 )
1!
#11174000
b1 ,
0+
0%
0'
#11175000
0!
#11200000
b1 )
1!
#11224000
b10 ,
0"
1#
#11225000
0!
#11250000
b10 )
1!
#11274000
b111 ,
1"
1%
1'
0#
0$
#11275000
0!
#11300000
b111 )
1!
#11324000
0"
0'
#11325000
0!
#11350000
1!
#11374000
b1000 ,
1"
1'
1$
#11375000
0!
#11400000
b1000 )
1!
#11424000
0"
#11425000
0!
#11450000
1!
#11474000
b1 (
b0 ,
0%
0'
1#
0$
#11475000
0!
#11500000
b0 )
1!
#11524000
b1 ,
b0 (
1%
0#
1$
#11525000
0!
#11550000
b1 )
1!
#11574000
b10 ,
1"
0%
1'
1#
#11575000
0!
#11600000
b10 )
1!
#11624000
b100 ,
0"
1%
0$
#11625000
0!
#11650000
b100 )
1!
#11674000
0%
0'
0#
#11675000
0!
#11700000
1!
#11724000
b110 ,
1"
1%
1'
1#
#11725000
0!
#11750000
b110 )
1!
#11774000
b111 ,
0"
0%
1$
#11775000
0!
#11800000
b111 )
1!
#11824000
1"
#11825000
0!
#11850000
1!
#11874000
b1000 ,
0#
#11875000
0!
#11900000
b1000 )
1!
#11924000
b0 ,
0"
1%
0'
1#
#11925000
0!
#11950000
b0 )
1!
#11974000
b1 ,
0%
#11975000
0!
#12000000
b1 )
1!
#12024000
b10 ,
0#
#12025000
0!
#12050000
b10 )
1!
#12074000
b100 ,
1#
0$
#12075000
0!
#12100000
b100 )
1!
#12124000
b101 ,
1%
1'
0#
1$
#12125000
0!
#12150000
b101 )
1!
#12174000
b110 ,
0%
0'
#12175000
0!
#12200000
b110 )
1!
#12224000
b111 ,
1%
1'
1#
#12225000
0!
#12250000
b111 )
1!
#12274000
b1000 ,
1"
0'
0$
#12275000
0!
#12300000
b1000 )
1!
#12324000
1+
b0 ,
0"
1'
0#
1$
#12325000
0!
#12350000
b0 )
1!
#12374000
b1 ,
0+
1#
#12375000
0!
#12400000
b1 )
1!
#12424000
b110 ,
1"
0#
0$
#12425000
0!
#12450000
b110 )
1!
#12474000
b1000 ,
0%
0'
1#
#12475000
0!
#12500000
b1000 )
1!
#12524000
b0 ,
0"
1%
0#
1$
#12525000
0!
#12550000
b0 )
1!
#12574000
1'
#12575000
0!
#12600000
1!
#12624000
b1 ,
0%
1#
#12625000
0!
#12650000
b1 )
1!
#12674000
b11 ,
1"
0'
0$
#12675000
0!
#12700000
b11 )
1!
#12724000
0"
1'
0#
#12725000
0!
#12750000
1!
#12774000
b100 ,
0'
1#
1$
#12775000
0!
#12800000
b100 )
1!
#12824000
b101 ,
1"
1%
#12825000
0!
#12850000
b101 )
1!
#12874000
b111 ,
0$
#12875000
0!
#12900000
b111 )
1!
#12924000
b1000 ,
0"
1'
0#
1$
#12925000
0!
#12950000
b1000 )
1!
#12974000
1+
b0 ,
0%
#12975000
0!
#13000000
b0 )
1!
#13024000
b1 ,
0+
1%
1#
#13025000
0!
#13050000
b1 )
1!
#13074000
b11 ,
0$
#13075000
0!
#13100000
b11 )
1!
#13124000
b101 ,
1"
0%
#13125000
0!
#13150000
b101 )
1!
#13174000
b110 ,
1$
#13175000
0!
#13200000
b110 )
1!
#13224000
b10 (
b0 ,
0"
1%
0'
0#
0$
#13225000
0!
#13250000
b0 )
1!
#13274000
b10 ,
b0 (
1#
#13275000
0!
#13300000
b10 )
1!
#13324000
0%
1'
0#
#13325000
0!
#13350000
1!
#13374000
b100 ,
1"
1#
#13375000
0!
#13400000
b100 )
1!
#13424000
b101 ,
0'
0#
1$
#13425000
0!
#13450000
b101 )
1!
#13474000
b111 ,
1'
1#
0$
#13475000
0!
#13500000
b111 )
1!
#13524000
b1000 ,
0"
1%
0'
#13525000
0!
#13550000
b1000 )
1!
#13574000
1*
b0 ,
1"
1$
#13575000
0!
#13600000
b0 )
1!
#13624000
b10 ,
0*
0"
0$
#13625000
0!
#13650000
b10 )
1!
#13674000
b100 ,
0%
#13675000
0!
#13700000
b100 )
1!
#13724000
b101 ,
0#
1$
#13725000
0!
#13750000
b101 )
1!
#13774000
1*
b1 (
b0 ,
1"
1%
0$
#13775000
0!
#13800000
b0 )
1!
#13824000
b1 ,
0*
b0 (
0"
1$
#13825000
0!
#13850000
b1 )
1!
#13874000
b10 ,
1"
1'
1#
#13875000
0!
#13900000
b10 )
1!
#13924000
0"
0%
0'
0#
0$
#13925000
0!
#13950000
1!
#13974000
b11 ,
1%
1'
1#
1$
#13975000
0!
#14000000
b11 )
1!
#14024000
b1000 ,
1"
0#
0$
#14025000
0!
#14050000
b1000 )
1!
#14074000
b1 (
b0 ,
0"
0'
1#
#14075000
0!
#14100000
b0 )
1!
#14124000
b0 (
0%
0#
#14125000
0!
#14150000
1!
#14174000
1"
#14175000
0!
#14200000
1!
#14224000
b1 ,
0"
1%
1'
1#
1$
#14225000
0!
#14250000
b1 )
1!
#14274000
b11 ,
1"
0%
0$
#14275000
0!
#14300000
b11 )
1!
#14324000
0"
0'
#14325000
0!
#14350000
1!
#14374000
b101 ,
1%
1'
#14375000
0!
#14400000
b101 )
1!
#14424000
b110 ,
0'
1$
#14425000
0!
#14450000
b110 )
1!
#14474000
1+
b10 (
b0 ,
1'
0#
0$
#14475000
0!
#14500000
b0 )
1!
#14524000
b10 ,
0+
b0 (
1"
1#
#14525000
0!
#14550000
b10 )
1!
#14574000
b11 ,
0%
0'
0#
1$
#14575000
0!
#14600000
b11 )
1!
#14624000
1'
#14625000
0!
#14650000
1!
#14674000
b100 ,
0"
1%
0'
1#
#14675000
0!
#14700000
b100 )
1!
#14724000
b0 ,
0#
0$
#14725000
0!
#14750000
b0 )
1!
#14774000
b1 ,
0%
1#
1$
#14775000
0!
#14800000
b1 )
1!
#14824000
b10 ,
1%
#14825000
0!
#14850000
b10 )
1!
#14874000
1"
#14875000
0!
#14900000
1!
#14924000
b11 ,
1'
0#
#14925000
0!
#14950000
b11 )
1!
#14975000
0!
#15000000
1!
#15024000
b100 ,
0'
1#
#15025000
0!
#15050000
b100 )
1!
#15074000
b101 ,
0%
1'
0#
#15075000
0!
#15100000
b101 )
1!
#15124000
0"
#15125000
0!
#15150000
1!
#15174000
1"
0$
#15175000
0!
#15200000
1!
#15224000
b111 ,
0"
1#
#15225000
0!
#15250000
b111 )
1!
#15274000
b1000 ,
1"
1%
0#
1$
#15275000
0!
#15300000
b1000 )
1!
#15324000
0"
#15325000
0!
#15350000
1!
#15375000
0!
#15400000
1!
#15424000
1*
b0 ,
1"
0%
0'
1#
#15425000
0!
#15450000
b0 )
1!
#15474000
0*
0#
0$
#15475000
0!
#15500000
1!
#15524000
b1 ,
1#
1$
#15525000
0!
#15550000
b1 )
1!
#15574000
b110 ,
0"
1%
0#
0$
#15575000
0!
#15600000
b110 )
1!
#15624000
b1000 ,
0%
1#
#15625000
0!
#15650000
b1000 )
1!
#15674000
1+
b0 ,
1"
1%
1'
0#
1$
#15675000
0!
#15700000
b0 )
1!
#15724000
0'
#15725000
0!
#15750000
1!
#15774000
b10 ,
0+
0%
1#
0$
#15775000
0!
#15800000
b10 )
1!
#15824000
b100 ,
1%
1'
#15825000
0!
#15850000
b100 )
1!
#15874000
b101 ,
0"
0'
1$
#15875000
0!
#15900000
b101 )
1!
#15924000
b110 ,
1"
0%
1'
0#
#15925000
0!
#15950000
b110 )
1!
#15974000
b111 ,
0"
1%
0'
1#
#15975000
0!
#16000000
b111 )
1!
#16024000
b1000 ,
1"
0%
0#
#16025000
0!
#16050000
b1000 )
1!
#16074000
b0 ,
0"
1%
1#
#16075000
0!
#16100000
b0 )
1!
#16124000
b10 ,
0%
1'
0$
#16125000
0!
#16150000
b10 )
1!
#16174000
b11 ,
0#
1$
#16175000
0!
#16200000
b11 )
1!
#16224000
b100 ,
1"
1%
1#
#16225000
0!
#16250000
b100 )
1!
#16274000
b110 ,
0%
0'
0$
#16275000
0!
#16300000
b110 )
1!
#16324000
1+
b10 (
b0 ,
0"
1%
1'
0#
#16325000
0!
#16350000
b0 )
1!
#16374000
0+
b0 (
1"
0%
#16375000
0!
#16400000
1!
#16424000
b1 ,
0"
1%
1$
#16425000
0!
#16450000
b1 )
1!
#16474000
b10 ,
0%
1#
#16475000
0!
#16500000
b10 )
1!
#16524000
b11 ,
1%
0'
#16525000
0!
#16550000
b11 )
1!
#16574000
1'
#16575000
0!
#16600000
1!
#16624000
b1000 ,
1"
0#
0$
#16625000
0!
#16650000
b1000 )
1!
#16674000
b0 ,
0"
0%
0'
1#
1$
#16675000
0!
#16700000
b0 )
1!
#16724000
b10 ,
1"
0$
#16725000
0!
#16750000
b10 )
1!
#16774000
b111 ,
0"
1%
1'
0#
#16775000
0!
#16800000
b111 )
1!
#16824000
b1000 ,
1"
0%
1$
#16825000
0!
#16850000
b1000 )
1!
#16874000
0"
0'
0$
#16875000
0!
#16900000
1!
#16924000
b1 (
b0 ,
1%
1#
#16925000
0!
#16950000
b0 )
1!
#16974000
b10 ,
b0 (
1"
0%
#16975000
0!
#17000000
b10 )
1!
#17024000
b11 ,
0"
1%
0#
1$
#17025000
0!
#17050000
b11 )
1!
#17074000
0%
1'
0$
#17075000
0!
#17100000
1!
#17124000
b1000 ,
1"
1%
0'
#17125000
0!
#17150000
b1000 )
1!
#17174000
1+
b1 (
b0 ,
0"
0%
1'
1#
#17175000
0!
#17200000
b0 )
1!
#17224000
0+
b0 (
0'
0#
#17225000
0!
#17250000
1!
#17274000
b1 ,
1"
1#
1$
#17275000
0!
#17300000
b1 )
1!
#17324000
0"
1'
#17325000
0!
#17350000
1!
#17374000
1"
0#
0$
#17375000
0!
#17400000
1!
#17424000
b11 ,
1%
1#
#17425000
0!
#17450000
b11 )
1!
#17474000
b100 ,
0%
0#
1$
#17475000
0!
#17500000
b100 )
1!
#17524000
b101 ,
0'
1#
#17525000
0!
#17550000
b101 )
1!
#17574000
b110 ,
0"
1%
1'
0#
#17575000
0!
#17600000
b110 )
1!
#17624000
b1000 ,
0%
1#
0$
#17625000
0!
#17650000
b1000 )
1!
#17674000
1+
b0 ,
1"
0#
1$
#17675000
0!
#17700000
b0 )
1!
#17724000
b1 ,
0+
1%
#17725000
0!
#17750000
b1 )
1!
#17774000
b10 ,
0"
1#
#17775000
0!
#17800000
b10 )
1!
#17824000
1"
#17825000
0!
#17850000
1!
#17874000
b100 ,
0$
#17875000
0!
#17900000
b100 )
1!
#17924000
1+
b0 ,
0"
0#
#17925000
0!
#17950000
b0 )
1!
#17974000
b1 ,
0+
0'
1#
1$
#17975000
0!
#18000000
b1 )
1!
#18024000
b10 ,
0%
1'
0#
#18025000
0!
#18050000
b10 )
1!
#18074000
0'
0$
#18075000
0!
#18100000
1!
#18124000
b100 ,
1"
1'
1#
#18125000
0!
#18150000
b100 )
1!
#18174000
1+
b0 ,
1%
0#
#18175000
0!
#18200000
b0 )
1!
#18224000
b1 ,
0+
0%
0'
1$
#18225000
0!
#18250000
b1 )
1!
#18274000
b10 ,
0"
1#
#18275000
0!
#18300000
b10 )
1!
#18324000
b11 ,
1"
1'
0#
#18325000
0!
#18350000
b11 )
1!
#18374000
b100 ,
0"
1%
#18375000
0!
#18400000
b100 )
1!
#18424000
b101 ,
0%
0'
1#
#18425000
0!
#18450000
b101 )
1!
#18474000
b111 ,
0$
#18475000
0!
#18500000
b111 )
1!
#18524000
1"
0#
#18525000
0!
#18550000
1!
#18574000
b1000 ,
1%
1#
1$
#18575000
0!
#18600000
b1000 )
1!
#18624000
0"
0%
1'
0#
0$
#18625000
0!
#18650000
1!
#18674000
b100 (
b0 ,
1%
0'
#18675000
0!
#18700000
b0 )
1!
#18724000
1"
1'
#18725000
0!
#18750000
1!
#18774000
b1 ,
b0 (
1#
1$
#18775000
0!
#18800000
b1 )
1!
#18824000
b10 ,
0"
0%
0#
#18825000
0!
#18850000
b10 )
1!
#18874000
b11 ,
1#
#18875000
0!
#18900000
b11 )
1!
#18924000
b100 ,
1%
0'
0#
#18925000
0!
#18950000
b100 )
1!
#18974000
1"
0%
0$
#18975000
0!
#19000000
1!
#19024000
b101 ,
1#
1$
#19025000
0!
#19050000
b101 )
1!
#19074000
b111 ,
0"
1%
1'
0$
#19075000
0!
#19100000
b111 )
1!
#19124000
b1000 ,
0%
0'
0#
1$
#19125000
0!
#19150000
b1000 )
1!
#19174000
1+
b1 (
b0 ,
1"
1%
1'
1#
0$
#19175000
0!
#19200000
b0 )
1!
#19224000
b1 ,
0+
b0 (
0'
0#
1$
#19225000
0!
