tests/due_otto/due_otto.vcd
$date
	Tue Oct  6 17:28:29 2020
$end
$version
	Icarus Verilog
$end
$timescale
	1ps
$end
$scope module due_otto_bench $end
$scope module due_otto_ $end
$var wire 1 ! clk $end
$var wire 1 " in1 $end
$var wire 1 # in2 $end
$var wire 1 $ reset $end
$var reg 4 % current_state [3:0] $end
$var reg 4 & next_state [3:0] $end
$var reg 1 ' out $end
$upscope $end
$upscope $end
$enddefinitions $end
#0
$dumpvars
x'
bx &
b10 %
1$
x#
x"
1!
$end
#24000
b10 &
0'
1#
0"
#25000
0!
#26000
0$
#50000
1!
#74000
b1000 &
1"
#75000
0!
#100000
b1000 %
1!
#125000
0!
#150000
1!
#174000
b10 &
0#
#175000
0!
#200000
b10 %
1!
#224000
b1000 &
1#
#225000
0!
#250000
b1000 %
1!
#274000
1'
0"
#275000
0!
#300000
1!
#324000
b10 &
0#
1"
#325000
0!
#350000
b10 %
1!
#375000
0!
#400000
1!
#425000
0!
#450000
1!
#474000
b1000 &
0'
1#
#475000
0!
#500000
b1000 %
1!
#524000
1'
0"
#525000
0!
#550000
1!
#574000
b10 &
0#
#575000
0!
#600000
b10 %
1!
#624000
0'
1#
#625000
0!
#650000
1!
#675000
0!
#700000
1!
#724000
b1000 &
1"
#725000
0!
#750000
b1000 %
1!
#774000
b10 &
0#
#775000
0!
#800000
b10 %
1!
#824000
0"
#825000
0!
#850000
1!
#874000
1#
#875000
0!
#900000
1!
#925000
0!
#950000
1!
#974000
b1000 &
1"
#975000
0!
#1000000
b1000 %
1!
#1025000
0!
#1050000
1!
#1074000
b10 &
0#
0"
#1075000
0!
#1100000
b10 %
1!
#1124000
b1000 &
1#
1"
#1125000
0!
#1150000
b1000 %
1!
#1174000
b10 &
0#
#1175000
0!
#1200000
b10 %
1!
#1224000
0"
#1225000
0!
#1250000
1!
#1275000
0!
#1300000
1!
#1324000
b1000 &
1"
#1325000
0!
#1350000
b1000 %
1!
#1374000
1'
1#
0"
#1375000
0!
#1400000
1!
#1424000
b10 &
0#
1"
#1425000
0!
#1450000
b10 %
1!
#1474000
0'
0"
#1475000
0!
#1500000
1!
#1525000
0!
#1550000
1!
#1574000
b1000 &
1#
1"
#1575000
0!
#1600000
b1000 %
1!
#1625000
0!
#1650000
1!
#1674000
b10 &
0#
#1675000
0!
#1700000
b10 %
1!
#1724000
1#
0"
#1725000
0!
#1750000
1!
#1774000
b1000 &
1"
#1775000
0!
#1800000
b1000 %
1!
#1824000
b10 &
0#
0"
#1825000
0!
#1850000
b10 %
1!
#1874000
b1000 &
1#
1"
#1875000
0!
#1900000
b1000 %
1!
#1924000
1'
0"
#1925000
0!
#1950000
1!
#1974000
b10 &
0#
1"
#1975000
0!
#2000000
b10 %
1!
#2024000
b1000 &
0'
1#
#2025000
0!
#2050000
b1000 %
1!
#2074000
b10 &
0#
#2075000
0!
#2100000
b10 %
1!
#2124000
b1000 &
1#
#2125000
0!
#2150000
b1000 %
1!
#2174000
b10 &
0#
0"
#2175000
0!
#2200000
b10 %
1!
#2225000
0!
#2250000
1!
#2274000
b1000 &
1#
1"
#2275000
0!
#2300000
b1000 %
1!
#2324000
b10 &
0#
0"
#2325000
0!
#2350000
b10 %
1!
#2374000
b1000 &
1#
1"
#2375000
0!
#2400000
b1000 %
1!
#2425000
0!
#2450000
1!
#2474000
b10 &
0#
#2475000
0!
#2500000
b10 %
1!
#2524000
b1000 &
1#
#2525000
0!
#2550000
b1000 %
1!
#2574000
b10 &
0#
#2575000
0!
#2600000
b10 %
1!
#2624000
0"
#2625000
0!
#2650000
1!
#2675000
0!
#2700000
1!
#2725000
0!
#2750000
1!
#2774000
b1000 &
1#
1"
#2775000
0!
#2800000
b1000 %
1!
#2825000
0!
#2850000
1!
#2874000
b10 &
0#
#2875000
0!
#2900000
b10 %
1!
#2924000
b1000 &
1#
#2925000
0!
#2950000
b1000 %
1!
#2974000
b10 &
0#
0"
#2975000
0!
#3000000
b10 %
1!
#3024000
b1000 &
1#
1"
#3025000
0!
#3050000
b1000 %
1!
#3074000
1'
0"
#3075000
0!
#3100000
1!
#3124000
1"
#3125000
0!
#3150000
1!
#3174000
b10 &
0#
#3175000
0!
#3200000
b10 %
1!
#3224000
0'
0"
#3225000
0!
#3250000
1!
#3274000
b1000 &
1"
#3275000
0!
#3300000
b1000 %
1!
#3324000
b10 &
0"
#3325000
0!
#3350000
b10 %
1!
#3374000
b1000 &
1#
1"
#3375000
0!
#3400000
b1000 %
1!
#3424000
b10 &
0#
0"
#3425000
0!
#3450000
b10 %
1!
#3474000
b1000 &
1"
#3475000
0!
#3500000
b1000 %
1!
#3524000
b10 &
0"
#3525000
0!
#3550000
b10 %
1!
#3574000
b1000 &
1"
#3575000
0!
#3600000
b1000 %
1!
#3624000
1'
1#
0"
#3625000
0!
#3650000
1!
#3675000
0!
#3700000
1!
#3724000
1"
#3725000
0!
#3750000
1!
#3775000
0!
#3800000
1!
#3824000
b10 &
0#
0"
#3825000
0!
#3850000
b10 %
1!
#3874000
0'
1#
#3875000
0!
#3900000
1!
#3924000
0#
#3925000
0!
#3950000
1!
#3974000
b1000 &
1#
1"
#3975000
0!
#4000000
b1000 %
1!
#4024000
b10 &
0#
0"
#4025000
0!
#4050000
b10 %
1!
#4074000
1#
#4075000
0!
#4100000
1!
#4124000
b1000 &
0#
1"
#4125000
0!
#4150000
b1000 %
1!
#4174000
b10 &
0"
#4175000
0!
#4200000
b10 %
1!
#4224000
b1000 &
1#
1"
#4225000
0!
#4250000
b1000 %
1!
#4274000
b10 &
0#
0"
#4275000
0!
#4300000
b10 %
1!
#4324000
1#
#4325000
0!
#4350000
1!
#4374000
0#
#4375000
0!
#4400000
1!
#4424000
b1000 &
1"
#4425000
0!
#4450000
b1000 %
1!
#4474000
b10 &
0"
#4475000
0!
#4500000
b10 %
1!
#4524000
b1000 &
1"
#4525000
0!
#4550000
b1000 %
1!
#4574000
1'
1#
#4575000
0!
#4600000
1!
#4624000
b10 &
0#
0"
#4625000
0!
#4650000
b10 %
1!
#4675000
0!
#4700000
1!
#4724000
b1000 &
0'
1"
#4725000
0!
#4750000
b1000 %
1!
#4774000
b10 &
0"
#4775000
0!
#4800000
b10 %
1!
#4824000
1#
#4825000
0!
#4850000
1!
#4874000
b1000 &
1"
#4875000
0!
#4900000
b1000 %
1!
#4924000
1'
0"
#4925000
0!
#4950000
1!
#4974000
1"
#4975000
0!
#5000000
1!
#5024000
b10 &
0#
0"
#5025000
0!
#5050000
b10 %
1!
#5074000
b1000 &
0'
1#
1"
#5075000
0!
#5100000
b1000 %
1!
#5125000
0!
#5150000
1!
#5174000
b10 &
0#
#5175000
0!
#5200000
b10 %
1!
#5224000
b1000 &
1#
#5225000
0!
#5250000
b1000 %
1!
#5274000
b10 &
0#
0"
#5275000
0!
#5300000
b10 %
1!
#5325000
0!
#5350000
1!
#5374000
b1000 &
1#
1"
#5375000
0!
#5400000
b1000 %
1!
#5424000
b10 &
0#
0"
#5425000
0!
#5450000
b10 %
1!
#5474000
b1000 &
1"
#5475000
0!
#5500000
b1000 %
1!
#5524000
1'
1#
0"
#5525000
0!
#5550000
1!
#5574000
b10 &
0#
#5575000
0!
#5600000
b10 %
1!
#5624000
b1000 &
0'
1"
#5625000
0!
#5650000
b1000 %
1!
#5674000
1'
1#
0"
#5675000
0!
#5700000
1!
#5724000
1"
#5725000
0!
#5750000
1!
#5774000
b10 &
0#
0"
#5775000
0!
#5800000
b10 %
1!
#5824000
0'
1#
#5825000
0!
#5850000
1!
#5874000
0#
#5875000
0!
#5900000
1!
#5924000
b1000 &
1"
#5925000
0!
#5950000
b1000 %
1!
#5974000
b10 &
0"
#5975000
0!
#6000000
b10 %
1!
#6024000
1#
#6025000
0!
#6050000
1!
#6074000
0#
#6075000
0!
#6100000
1!
#6124000
1#
#6125000
0!
#6150000
1!
#6174000
b1000 &
0#
1"
#6175000
0!
#6200000
b1000 %
1!
#6224000
1'
1#
#6225000
0!
#6250000
1!
#6275000
0!
#6300000
1!
#6324000
0"
#6325000
0!
#6350000
1!
#6374000
1"
#6375000
0!
#6400000
1!
#6424000
b10 &
0#
0"
#6425000
0!
#6450000
b10 %
1!
#6474000
b1000 &
0'
1"
#6475000
0!
#6500000
b1000 %
1!
#6524000
1'
1#
0"
#6525000
0!
#6550000
1!
#6574000
b10 &
0#
1"
#6575000
0!
#6600000
b10 %
1!
#6624000
0'
1#
0"
#6625000
0!
#6650000
1!
#6674000
0#
#6675000
0!
#6700000
1!
#6724000
b1000 &
1"
#6725000
0!
#6750000
b1000 %
1!
#6774000
1'
1#
#6775000
0!
#6800000
1!
#6824000
0"
#6825000
0!
#6850000
1!
#6875000
0!
#6900000
1!
#6924000
b10 &
0#
#6925000
0!
#6950000
b10 %
1!
#6974000
b1000 &
0'
1"
#6975000
0!
#7000000
b1000 %
1!
#7024000
b10 &
0"
#7025000
0!
#7050000
b10 %
1!
#7074000
b1000 &
1#
1"
#7075000
0!
#7100000
b1000 %
1!
#7125000
0!
#7150000
1!
#7174000
b10 &
0#
#7175000
0!
#7200000
b10 %
1!
#7224000
b1000 &
1#
#7225000
0!
#7250000
b1000 %
1!
#7274000
b10 &
0#
#7275000
0!
#7300000
b10 %
1!
#7324000
0"
#7325000
0!
#7350000
1!
#7375000
0!
#7400000
1!
#7424000
1#
#7425000
0!
#7450000
1!
#7474000
b1000 &
1"
#7475000
0!
#7500000
b1000 %
1!
#7525000
0!
#7550000
1!
#7575000
0!
#7600000
1!
#7624000
1'
0"
#7625000
0!
#7650000
1!
#7674000
1"
#7675000
0!
#7700000
1!
#7725000
0!
#7750000
1!
#7775000
0!
#7800000
1!
#7824000
b10 &
0#
#7825000
0!
#7850000
b10 %
1!
#7874000
0'
1#
0"
#7875000
0!
#7900000
1!
#7924000
b1000 &
0#
1"
#7925000
0!
#7950000
b1000 %
1!
#7974000
b10 &
0"
#7975000
0!
#8000000
b10 %
1!
#8024000
1#
#8025000
0!
#8050000
1!
#8074000
0#
#8075000
0!
#8100000
1!
#8125000
0!
#8150000
1!
#8175000
0!
#8200000
1!
#8224000
b1000 &
1"
#8225000
0!
#8250000
b1000 %
1!
#8274000
1'
1#
0"
#8275000
0!
#8300000
1!
#8324000
b10 &
0#
#8325000
0!
#8350000
b10 %
1!
#8375000
0!
#8400000
1!
#8424000
b1000 &
0'
1#
1"
#8425000
0!
#8450000
b1000 %
1!
#8475000
0!
#8500000
1!
#8524000
b10 &
0#
#8525000
0!
#8550000
b10 %
1!
#8574000
b1000 &
1#
#8575000
0!
#8600000
b1000 %
1!
#8624000
b10 &
0#
#8625000
0!
#8650000
b10 %
1!
#8675000
0!
#8700000
1!
#8724000
1#
0"
#8725000
0!
#8750000
1!
#8774000
b1000 &
0#
1"
#8775000
0!
#8800000
b1000 %
1!
#8825000
0!
#8850000
1!
#8874000
1'
1#
0"
#8875000
0!
#8900000
1!
#8924000
b10 &
0#
#8925000
0!
#8950000
b10 %
1!
#8975000
0!
#9000000
1!
#9024000
b1000 &
0'
1#
1"
#9025000
0!
#9050000
b1000 %
1!
#9075000
0!
#9100000
1!
#9124000
1'
0"
#9125000
0!
#9150000
1!
#9174000
1"
#9175000
0!
#9200000
1!
#9225000
0!
#9250000
1!
#9275000
0!
#9300000
1!
#9324000
0"
#9325000
0!
#9350000
1!
#9375000
0!
#9400000
1!
#9424000
b10 &
0#
#9425000
0!
#9450000
b10 %
1!
#9474000
b1000 &
0'
1"
#9475000
0!
#9500000
b1000 %
1!
#9524000
b10 &
0"
#9525000
0!
#9550000
b10 %
1!
#9575000
0!
#9600000
1!
#9624000
b1000 &
1"
#9625000
0!
#9650000
b1000 %
1!
#9674000
b10 &
0"
#9675000
0!
#9700000
b10 %
1!
#9725000
0!
#9750000
1!
#9774000
1#
#9775000
0!
#9800000
1!
#9825000
0!
#9850000
1!
#9874000
0#
#9875000
0!
#9900000
1!
#9924000
b1000 &
1"
#9925000
0!
#9950000
b1000 %
1!
#9974000
1'
1#
#9975000
0!
#10000000
1!
#10024000
0"
#10025000
0!
#10050000
1!
#10075000
0!
#10100000
1!
#10124000
b10 &
0#
#10125000
0!
#10150000
b10 %
1!
#10175000
0!
#10200000
1!
#10224000
b1000 &
0'
1"
#10225000
0!
#10250000
b1000 %
1!
#10275000
0!
#10300000
1!
#10324000
1'
1#
#10325000
0!
#10350000
1!
#10374000
0"
#10375000
0!
#10400000
1!
#10425000
0!
#10450000
1!
#10474000
1"
#10475000
0!
#10500000
1!
#10524000
0"
#10525000
0!
#10550000
1!
#10574000
b10 &
0#
1"
#10575000
0!
#10600000
b10 %
1!
#10624000
0'
1#
0"
#10625000
0!
#10650000
1!
#10674000
b1000 &
0#
1"
#10675000
0!
#10700000
b1000 %
1!
#10724000
1'
1#
0"
#10725000
0!
#10750000
1!
#10774000
b10 &
0#
1"
#10775000
0!
#10800000
b10 %
1!
#10824000
0'
1#
0"
#10825000
0!
#10850000
1!
#10874000
0#
#10875000
0!
#10900000
1!
#10924000
b1000 &
1#
1"
#10925000
0!
#10950000
b1000 %
1!
#10974000
b10 &
0#
0"
#10975000
0!
#11000000
b10 %
1!
#11024000
b1000 &
1"
#11025000
0!
#11050000
b1000 %
1!
#11074000
1'
1#
0"
#11075000
0!
#11100000
1!
#11124000
b10 &
0#
1"
#11125000
0!
#11150000
b10 %
1!
#11175000
0!
#11200000
1!
#11224000
b1000 &
0'
1#
#11225000
0!
#11250000
b1000 %
1!
#11274000
1'
0"
#11275000
0!
#11300000
1!
#11324000
1"
#11325000
0!
#11350000
1!
#11374000
0"
#11375000
0!
#11400000
1!
#11424000
1"
#11425000
0!
#11450000
1!
#11474000
b10 &
0#
0"
#11475000
0!
#11500000
b10 %
1!
#11524000
b1000 &
0'
1"
#11525000
0!
#11550000
b1000 %
1!
#11574000
1'
1#
0"
#11575000
0!
#11600000
1!
#11624000
b10 &
0#
#11625000
0!
#11650000
b10 %
1!
#11674000
b1000 &
0'
1#
1"
#11675000
0!
#11700000
b1000 %
1!
#11724000
1'
0"
#11725000
0!
#11750000
1!
#11775000
0!
#11800000
1!
#11824000
1"
#11825000
0!
#11850000
1!
#11874000
b10 &
0#
#11875000
0!
#11900000
b10 %
1!
#11924000
0'
1#
0"
#11925000
0!
#11950000
1!
#11975000
0!
#12000000
1!
#12025000
0!
#12050000
1!
#12074000
b1000 &
0#
1"
#12075000
0!
#12100000
b1000 %
1!
#12124000
1'
1#
0"
#12125000
0!
#12150000
1!
#12174000
1"
#12175000
0!
#12200000
1!
#12224000
b10 &
0#
0"
#12225000
0!
#12250000
b10 %
1!
#12274000
b1000 &
0'
1"
#12275000
0!
#12300000
b1000 %
1!
#12324000
1'
1#
0"
#12325000
0!
#12350000
1!
#12374000
1"
#12375000
0!
#12400000
1!
#12424000
0"
#12425000
0!
#12450000
1!
#12474000
b10 &
0#
1"
#12475000
0!
#12500000
b10 %
1!
#12524000
0'
0"
#12525000
0!
#12550000
1!
#12574000
b1000 &
1#
1"
#12575000
0!
#12600000
b1000 %
1!
#12624000
b10 &
0#
#12625000
0!
#12650000
b10 %
1!
#12674000
0"
#12675000
0!
#12700000
1!
#12724000
b1000 &
1#
1"
#12725000
0!
#12750000
b1000 %
1!
#12775000
0!
#12800000
1!
#12824000
1'
0"
#12825000
0!
#12850000
1!
#12874000
1"
#12875000
0!
#12900000
1!
#12925000
0!
#12950000
1!
#12975000
0!
#13000000
1!
#13024000
0"
#13025000
0!
#13050000
1!
#13074000
b10 &
0#
#13075000
0!
#13100000
b10 %
1!
#13124000
0'
1#
#13125000
0!
#13150000
1!
#13174000
b1000 &
1"
#13175000
0!
#13200000
b1000 %
1!
#13225000
0!
#13250000
1!
#13275000
0!
#13300000
1!
#13325000
0!
#13350000
1!
#13374000
b10 &
0#
0"
#13375000
0!
#13400000
b10 %
1!
#13424000
1#
#13425000
0!
#13450000
1!
#13474000
0#
#13475000
0!
#13500000
1!
#13524000
1#
#13525000
0!
#13550000
1!
#13574000
b1000 &
0#
1"
#13575000
0!
#13600000
b1000 %
1!
#13624000
b10 &
0"
#13625000
0!
#13650000
b10 %
1!
#13674000
b1000 &
1#
1"
#13675000
0!
#13700000
b1000 %
1!
#13724000
1'
0"
#13725000
0!
#13750000
1!
#13775000
0!
#13800000
1!
#13824000
b10 &
0#
#13825000
0!
#13850000
b10 %
1!
#13874000
0'
1#
#13875000
0!
#13900000
1!
#13924000
b1000 &
1"
#13925000
0!
#13950000
b1000 %
1!
#13974000
1'
0"
#13975000
0!
#14000000
1!
#14025000
0!
#14050000
1!
#14075000
0!
#14100000
1!
#14124000
b10 &
0#
1"
#14125000
0!
#14150000
b10 %
1!
#14174000
0'
0"
#14175000
0!
#14200000
1!
#14224000
1#
#14225000
0!
#14250000
1!
#14274000
b1000 &
0#
1"
#14275000
0!
#14300000
b1000 %
1!
#14324000
1'
1#
0"
#14325000
0!
#14350000
1!
#14375000
0!
#14400000
1!
#14425000
0!
#14450000
1!
#14474000
b10 &
0#
1"
#14475000
0!
#14500000
b10 %
1!
#14524000
b1000 &
0'
1#
#14525000
0!
#14550000
b1000 %
1!
#14574000
b10 &
0#
0"
#14575000
0!
#14600000
b10 %
1!
#14625000
0!
#14650000
1!
#14674000
b1000 &
1#
1"
#14675000
0!
#14700000
b1000 %
1!
#14725000
0!
#14750000
1!
#14774000
b10 &
0#
#14775000
0!
#14800000
b10 %
1!
#14824000
0"
#14825000
0!
#14850000
1!
#14875000
0!
#14900000
1!
#14925000
0!
#14950000
1!
#14974000
b1000 &
1#
1"
#14975000
0!
#15000000
b1000 %
1!
#15025000
0!
#15050000
1!
#15075000
0!
#15100000
1!
#15124000
b10 &
0#
#15125000
0!
#15150000
b10 %
1!
#15174000
0"
#15175000
0!
#15200000
1!
#15225000
0!
#15250000
1!
#15274000
1#
#15275000
0!
#15300000
1!
#15324000
b1000 &
0#
1"
#15325000
0!
#15350000
b1000 %
1!
#15375000
0!
#15400000
1!
#15424000
1'
1#
#15425000
0!
#15450000
1!
#15474000
b10 &
0#
#15475000
0!
#15500000
b10 %
1!
#15524000
0'
0"
#15525000
0!
#15550000
1!
#15574000
b1000 &
1#
1"
#15575000
0!
#15600000
b1000 %
1!
#15624000
1'
0"
#15625000
0!
#15650000
1!
#15674000
b10 &
0#
#15675000
0!
#15700000
b10 %
1!
#15725000
0!
#15750000
1!
#15775000
0!
#15800000
1!
#15824000
b1000 &
0'
1"
#15825000
0!
#15850000
b1000 %
1!
#15874000
1'
1#
0"
#15875000
0!
#15900000
1!
#15924000
b10 &
0#
#15925000
0!
#15950000
b10 %
1!
#15974000
b1000 &
0'
1#
1"
#15975000
0!
#16000000
b1000 %
1!
#16024000
b10 &
0#
#16025000
0!
#16050000
b10 %
1!
#16074000
1#
0"
#16075000
0!
#16100000
1!
#16124000
b1000 &
1"
#16125000
0!
#16150000
b1000 %
1!
#16174000
b10 &
0#
#16175000
0!
#16200000
b10 %
1!
#16224000
b1000 &
1#
#16225000
0!
#16250000
b1000 %
1!
#16275000
0!
#16300000
1!
#16324000
1'
0"
#16325000
0!
#16350000
1!
#16374000
b10 &
0#
#16375000
0!
#16400000
b10 %
1!
#16424000
b1000 &
0'
1"
#16425000
0!
#16450000
b1000 %
1!
#16474000
1'
1#
0"
#16475000
0!
#16500000
1!
#16524000
b10 &
0#
#16525000
0!
#16550000
b10 %
1!
#16575000
0!
#16600000
1!
#16625000
0!
#16650000
1!
#16674000
b1000 &
0'
1#
1"
#16675000
0!
#16700000
b1000 %
1!
#16724000
b10 &
0#
0"
#16725000
0!
#16750000
b10 %
1!
#16774000
b1000 &
1#
1"
#16775000
0!
#16800000
b1000 %
1!
#16825000
0!
#16850000
1!
#16875000
0!
#16900000
1!
#16924000
b10 &
0#
#16925000
0!
#16950000
b10 %
1!
#16975000
0!
#17000000
1!
#17024000
0"
#17025000
0!
#17050000
1!
#17074000
b1000 &
1#
1"
#17075000
0!
#17100000
b1000 %
1!
#17124000
1'
0"
#17125000
0!
#17150000
1!
#17174000
1"
#17175000
0!
#17200000
1!
#17224000
b10 &
0#
0"
#17225000
0!
#17250000
b10 %
1!
#17275000
0!
#17300000
1!
#17324000
b1000 &
0'
1#
1"
#17325000
0!
#17350000
b1000 %
1!
#17374000
b10 &
0#
#17375000
0!
#17400000
b10 %
1!
#17425000
0!
#17450000
1!
#17474000
0"
#17475000
0!
#17500000
1!
#17525000
0!
#17550000
1!
#17575000
0!
#17600000
1!
#17624000
b1000 &
1"
#17625000
0!
#17650000
b1000 %
1!
#17674000
1'
1#
0"
#17675000
0!
#17700000
1!
#17724000
1"
#17725000
0!
#17750000
1!
#17775000
0!
#17800000
1!
#17824000
b10 &
0#
0"
#17825000
0!
#17850000
b10 %
1!
#17875000
0!
#17900000
1!
#17924000
b1000 &
0'
1#
1"
#17925000
0!
#17950000
b1000 %
1!
#17974000
b10 &
0#
0"
#17975000
0!
#18000000
b10 %
1!
#18024000
b1000 &
1#
1"
#18025000
0!
#18050000
b1000 %
1!
#18075000
0!
#18100000
1!
#18124000
b10 &
0#
#18125000
0!
#18150000
b10 %
1!
#18174000
0"
#18175000
0!
#18200000
1!
#18224000
b1000 &
1"
#18225000
0!
#18250000
b1000 %
1!
#18275000
0!
#18300000
1!
#18324000
b10 &
0"
#18325000
0!
#18350000
b10 %
1!
#18375000
0!
#18400000
1!
#18424000
b1000 &
1"
#18425000
0!
#18450000
b1000 %
1!
#18474000
1'
1#
#18475000
0!
#18500000
1!
#18524000
0"
#18525000
0!
#18550000
1!
#18574000
b10 &
0#
1"
#18575000
0!
#18600000
b10 %
1!
#18625000
0!
#18650000
1!
#18674000
b1000 &
0'
1#
#18675000
0!
#18700000
b1000 %
1!
#18724000
b10 &
0#
0"
#18725000
0!
#18750000
b10 %
1!
#18774000
b1000 &
1#
1"
#18775000
0!
#18800000
b1000 %
1!
#18824000
b10 &
0#
0"
#18825000
0!
#18850000
b10 %
1!
#18875000
0!
#18900000
1!
#18924000
b1000 &
1#
1"
#18925000
0!
#18950000
b1000 %
1!
#18974000
b10 &
0#
#18975000
0!
#19000000
b10 %
1!
#19024000
1#
0"
#19025000
0!
#19050000
1!
#19074000
b1000 &
1"
#19075000
0!
#19100000
b1000 %
1!
#19124000
b10 &
0#
#19125000
0!
#19150000
b10 %
1!
#19174000
1#
0"
#19175000
0!
#19200000
1!
#19224000
b1000 &
0#
1"
#19225000
0!
#19250000
b1000 %
1!
#19274000
1'
1#
0"
#19275000
0!
#19300000
1!
#19325000
0!
#19350000
1!
#19375000
0!
#19400000
1!
#19424000
b10 &
0#
1"
#19425000
0!
#19450000
b10 %
1!
#19474000
0'
0"
#19475000
0!
#19500000
1!
#19525000
0!
#19550000
1!
#19574000
b1000 &
1"
#19575000
0!
#19600000
b1000 %
1!
#19625000
0!
#19650000
1!
#19674000
b10 &
0"
#19675000
0!
#19700000
b10 %
1!
#19724000
b1000 &
1"
#19725000
0!
#19750000
b1000 %
1!
#19774000
1'
1#
0"
#19775000
0!
#19800000
1!
#19825000
0!
#19850000
1!
#19874000
1"
#19875000
0!
#19900000
1!
#19925000
0!
#19950000
1!
#19974000
0"
#19975000
0!
#20000000
1!
#20024000
b10 &
0#
1"
#20025000
0!
#20050000
b10 %
1!
#20074000
0'
1#
0"
#20075000
0!
#20100000
1!
#20125000
0!
#20150000
1!
#20174000
b1000 &
1"
#20175000
0!
#20200000
b1000 %
1!
#20225000
0!
#20250000
1!
#20274000
1'
0"
#20275000
0!
#20300000
1!
#20325000
0!
#20350000
1!
#20375000
0!
#20400000
1!
#20424000
b10 &
0#
1"
#20425000
0!
#20450000
b10 %
1!
#20474000
0'
0"
#20475000
0!
#20500000
1!
#20524000
1#
#20525000
0!
#20550000
1!
#20574000
b1000 &
0#
1"
#20575000
0!
#20600000
b1000 %
1!
#20624000
1'
1#
0"
#20625000
0!
#20650000
1!
#20674000
1"
#20675000
0!
#20700000
1!
#20725000
0!
#20750000
1!
#20774000
b10 &
0#
0"
#20775000
0!
#20800000
b10 %
1!
#20825000
0!
#20850000
1!
#20874000
b1000 &
0'
1"
#20875000
0!
#20900000
b1000 %
1!
#20924000
1'
1#
0"
#20925000
0!
#20950000
1!
#20975000
0!
#21000000
1!
#21024000
b10 &
0#
#21025000
0!
#21050000
b10 %
1!
#21074000
b1000 &
0'
1"
#21075000
0!
#21100000
b1000 %
1!
#21124000
b10 &
0"
#21125000
0!
#21150000
b10 %
1!
#21174000
1#
#21175000
0!
#21200000
1!
#21225000
0!
#21250000
1!
#21274000
b1000 &
0#
1"
#21275000
0!
#21300000
b1000 %
1!
#21324000
1'
1#
0"
#21325000
0!
#21350000
1!
#21375000
0!
#21400000
1!
#21424000
1"
#21425000
0!
#21450000
1!
#21474000
b10 &
0#
#21475000
0!
#21500000
b10 %
1!
#21525000
0!
#21550000
1!
#21574000
0'
1#
0"
#21575000
0!
#21600000
1!
#21624000
b1000 &
1"
#21625000
0!
#21650000
b1000 %
1!
#21674000
1'
0"
#21675000
0!
#21700000
1!
#21724000
1"
#21725000
0!
#21750000
1!
#21775000
0!
#21800000
1!
#21824000
b10 &
0#
#21825000
0!
#21850000
b10 %
1!
#21875000
0!
#21900000
1!
#21924000
0'
0"
#21925000
0!
#21950000
1!
#21974000
b1000 &
1"
#21975000
0!
#22000000
b1000 %
1!
#22025000
0!
#22050000
1!
#22075000
0!
#22100000
1!
#22124000
b10 &
0"
#22125000
0!
#22150000
b10 %
1!
#22174000
1#
#22175000
0!
#22200000
1!
#22224000
0#
#22225000
0!
#22250000
1!
#22274000
b1000 &
1"
#22275000
0!
#22300000
b1000 %
1!
#22325000
0!
#22350000
1!
#22374000
1'
1#
0"
#22375000
0!
#22400000
1!
#22424000
b10 &
0#
1"
#22425000
0!
#22450000
b10 %
1!
#22474000
0'
1#
0"
#22475000
0!
#22500000
1!
#22524000
b1000 &
0#
1"
#22525000
0!
#22550000
b1000 %
1!
#22574000
1'
1#
#22575000
0!
#22600000
1!
#22625000
0!
#22650000
1!
#22674000
0"
#22675000
0!
#22700000
1!
#22724000
b10 &
0#
#22725000
0!
#22750000
b10 %
1!
#22774000
b1000 &
0'
1#
1"
#22775000
0!
#22800000
b1000 %
1!
#22824000
1'
0"
#22825000
0!
#22850000
1!
#22874000
b10 &
0#
1"
#22875000
0!
#22900000
b10 %
1!
#22924000
b1000 &
0'
1#
#22925000
0!
#22950000
b1000 %
1!
#22974000
b10 &
0#
#22975000
0!
#23000000
b10 %
1!
#23025000
0!
#23050000
1!
#23075000
0!
#23100000
1!
#23124000
0"
#23125000
0!
#23150000
1!
#23175000
0!
#23200000
1!
#23225000
0!
#23250000
1!
#23275000
0!
#23300000
1!
#23324000
b1000 &
1#
1"
#23325000
0!
#23350000
b1000 %
1!
#23374000
b10 &
0#
#23375000
0!
#23400000
b10 %
1!
#23424000
0"
#23425000
0!
#23450000
1!
#23474000
b1000 &
1#
1"
#23475000
0!
#23500000
b1000 %
1!
#23524000
1'
0"
#23525000
0!
#23550000
1!
#23574000
1"
#23575000
0!
#23600000
1!
#23624000
b10 &
0#
0"
#23625000
0!
#23650000
b10 %
1!
#23674000
b1000 &
0'
1#
1"
#23675000
0!
#23700000
b1000 %
1!
#23724000
b10 &
0#
0"
#23725000
0!
#23750000
b10 %
1!
#23775000
0!
#23800000
1!
#23824000
b1000 &
1"
#23825000
0!
#23850000
b1000 %
1!
#23874000
1'
1#
#23875000
0!
#23900000
1!
#23924000
0"
#23925000
0!
#23950000
1!
#23975000
0!
#24000000
1!
#24024000
b10 &
0#
1"
#24025000
0!
#24050000
b10 %
1!
#24074000
b1000 &
0'
1#
#24075000
0!
#24100000
b1000 %
1!
#24125000
0!
#24150000
1!
#24174000
1'
0"
#24175000
0!
#24200000
1!
#24225000
0!
#24250000
1!
#24274000
b10 &
0#
#24275000
0!
#24300000
b10 %
1!
#24325000
0!
#24350000
1!
#24374000
b1000 &
0'
1"
#24375000
0!
#24400000
b1000 %
1!
#24425000
0!
#24450000
1!
#24474000
1'
1#
0"
#24475000
0!
#24500000
1!
#24524000
1"
#24525000
0!
#24550000
1!
#24574000
b10 &
0#
#24575000
0!
#24600000
b10 %
1!
#24624000
b1000 &
0'
1#
#24625000
0!
#24650000
b1000 %
1!
#24674000
b10 &
0#
#24675000
0!
#24700000
b10 %
1!
#24724000
1#
0"
#24725000
0!
#24750000
1!
#24774000
b1000 &
1"
#24775000
0!
#24800000
b1000 %
1!
#24824000
1'
0"
#24825000
0!
#24850000
1!
#24874000
b10 &
0#
1"
#24875000
0!
#24900000
b10 %
1!
#24924000
0'
1#
0"
#24925000
0!
#24950000
1!
#24974000
0#
#24975000
0!
#25000000
1!
#25024000
b1000 &
1#
1"
#25025000
0!
#25050000
b1000 %
1!
#25074000
b10 &
0#
0"
#25075000
0!
#25100000
b10 %
1!
#25124000
b1000 &
1"
#25125000
0!
#25150000
b1000 %
1!
#25174000
b10 &
0"
#25175000
0!
#25200000
b10 %
1!
#25224000
b1000 &
1#
1"
#25225000
0!
#25250000
b1000 %
1!
#25275000
0!
#25300000
1!
#25325000
0!
#25350000
1!
#25374000
1'
0"
#25375000
0!
#25400000
1!
#25425000
0!
#25450000
1!
#25475000
0!
#25500000
1!
#25525000
0!
#25550000
1!
#25575000
0!
#25600000
1!
#25625000
0!
#25650000
1!
#25675000
0!
#25700000
1!
#25724000
b10 &
0#
#25725000
0!
#25750000
b10 %
1!
#25774000
0'
1#
#25775000
0!
#25800000
1!
#25824000
0#
#25825000
0!
#25850000
1!
#25874000
b1000 &
1#
1"
#25875000
0!
#25900000
b1000 %
1!
#25925000
0!
#25950000
1!
#25974000
b10 &
0#
#25975000
0!
#26000000
b10 %
1!
#26024000
b1000 &
1#
#26025000
0!
