tests/lbdr/lbdr.vcd
$date
	Sat Dec  7 18:40:26 2019
$end
$version
	ModelSim Version 2019.4
$end
$timescale
	1ns
$end

$scope module LBDR_tb $end
$var parameter 32 ! CYCLE $end
$var reg 1 " clk $end
$var reg 1 # rst $end
$var reg 1 $ empty $end
$var reg 8 % Rxy_rst [7:0] $end
$var reg 4 & Cx_rst [3:0] $end
$var reg 3 ' flit_id [2:0] $end
$var reg 4 ( dst_addr [3:0] $end
$var reg 4 ) cur_addr_rst [3:0] $end
$var wire 1 * Nport $end
$var wire 1 + Wport $end
$var wire 1 , Eport $end
$var wire 1 - Sport $end
$var wire 1 . Lport $end
$upscope $end
$enddefinitions $end
#0
$dumpvars
0"
1#
x$
bx %
bx &
bx '
bx (
bx )
b1010 !
x*
x+
x,
x-
x.
$end
#5
1"
0.
0-
0+
0,
0*
#10
0"
b111100 %
b1110 &
b1 )
b0 '
1$
#15
1"
#20
0"
#25
1"
#30
0"
0#
#35
1"
#40
0"
b1000 (
b1 '
#45
1"
#50
0"
#55
1"
#60
0"
#65
1"
#70
0"
0$
#75
1"
1+
#80
0"
#85
1"
#90
0"
b100 (
b10 '
#95
1"
#100
0"
#105
1"
#110
0"
b1 (
#115
1"
#120
0"
#125
1"
#130
0"
b1001 (
#135
1"
#140
0"
#145
1"
#150
0"
b11 (
#155
1"
#160
0"
b1101 (
b100 '
#165
1"
#170
0"
1$
#175
1"
0+
#180
0"
1#
#185
1"
#190
0"
b1010 &
b0 )
b0 '
#195
1"
#200
0"
#205
1"
#210
0"
0#
#215
1"
#220
0"
b1000 (
b1 '
#225
1"
#230
0"
#235
1"
#240
0"
#245
1"
#250
0"
0$
#255
1"
1-
#260
0"
#265
1"
#270
0"
b1101 (
b10 '
#275
1"
#280
0"
#285
1"
#290
0"
b101 (
#295
1"
#300
0"
#305
1"
#310
0"
b10 (
#315
1"
#320
0"
#325
1"
#330
0"
b1 (
#335
1"
#340
0"
b1101 (
b100 '
#345
1"
#350
0"
1$
#355
1"
0-
#360
0"
1#
#365
1"
#370
0"
b1011 &
b100 )
b0 '
#375
1"
#380
0"
#385
1"
#390
0"
0#
#395
1"
#400
0"
b1000 (
b1 '
#405
1"
#410
0"
#415
1"
#420
0"
#425
1"
#430
0"
0$
#435
1"
1-
#440
0"
#445
1"
#450
0"
b110 (
b10 '
#455
1"
#460
0"
#465
1"
#470
0"
b1101 (
#475
1"
#480
0"
#485
1"
#490
0"
#495
1"
#500
0"
#505
1"
#510
0"
b1100 (
#515
1"
#520
0"
b1001 (
b100 '
#525
1"
#530
0"
1$
#535
1"
0-
#540
0"
1#
#545
1"
#550
0"
b1000 )
b0 '
#555
1"
#560
0"
#565
1"
#570
0"
0#
#575
1"
#580
0"
b1000 (
b1 '
#585
1"
#590
0"
#595
1"
#600
0"
#605
1"
#610
0"
0$
#615
1"
1.
#620
0"
#625
1"
#630
0"
b110 (
b10 '
#635
1"
#640
0"
#645
1"
#650
0"
b101 (
#655
1"
#660
0"
#665
1"
#670
0"
b1010 (
#675
1"
#680
0"
#685
1"
#690
0"
b101 (
#695
1"
#700
0"
b111 (
b100 '
#705
1"
#710
0"
1$
#715
1"
0.
