tests/traffic/traffic.vcd
$date
	Sun Oct  4 11:56:02 2020
$end
$version
	Icarus Verilog
$end
$timescale
	1ps
$end
$scope module traffic_bench $end
$scope module traffic_ $end
$var wire 1 ! clk $end
$var wire 1 " reset $end
$var reg 4 # curr_state [3:0] $end
$var reg 4 $ next_state [3:0] $end
$var reg 3 % north [2:0] $end
$var reg 3 & south [2:0] $end
$upscope $end
$upscope $end
$enddefinitions $end
#0
$dumpvars
b1 &
b10 %
b10 $
b1 #
1"
1!
$end
#25000
0!
#26000
0"
#50000
b10 #
1!
#75000
0!
#100000
b100 &
b1 %
b100 $
1!
#125000
0!
#150000
b100 #
1!
#175000
0!
#200000
b10 &
b1000 $
1!
#225000
0!
#250000
b1000 #
1!
#275000
0!
#300000
b1 &
b100 %
b1 $
1!
#325000
0!
#350000
b1 #
1!
#375000
0!
#400000
b10 %
b10 $
1!
#425000
0!
#450000
b10 #
1!
#475000
0!
#500000
b100 &
b1 %
b100 $
1!
#525000
0!
#550000
b100 #
1!
#575000
0!
#600000
b10 &
b1000 $
1!
#625000
0!
#650000
b1000 #
1!
#675000
0!
#700000
b1 &
b100 %
b1 $
1!
#725000
0!
#750000
b1 #
1!
#775000
0!
#800000
b10 %
b10 $
1!
#825000
0!
#850000
b10 #
1!
#875000
0!
#900000
b100 &
b1 %
b100 $
1!
#925000
0!
#950000
b100 #
1!
#975000
0!
#1000000
b10 &
b1000 $
1!
#1025000
0!
#1050000
b1000 #
1!
#1075000
0!
#1100000
b1 &
b100 %
b1 $
1!
#1125000
0!
#1150000
b1 #
1!
#1175000
0!
#1200000
b10 %
b10 $
1!
#1225000
0!
#1250000
b10 #
1!
#1275000
0!
#1300000
b100 &
b1 %
b100 $
1!
#1325000
0!
#1350000
b100 #
1!
#1375000
0!
#1400000
b10 &
b1000 $
1!
#1425000
0!
#1450000
b1000 #
1!
#1475000
0!
#1500000
b1 &
b100 %
b1 $
1!
#1525000
0!
#1550000
b1 #
1!
#1575000
0!
#1600000
b10 %
b10 $
1!
#1625000
0!
#1650000
b10 #
1!
#1675000
0!
#1700000
b100 &
b1 %
b100 $
1!
#1725000
0!
#1750000
b100 #
1!
#1775000
0!
#1800000
b10 &
b1000 $
1!
#1825000
0!
#1850000
b1000 #
1!
#1875000
0!
#1900000
b1 &
b100 %
b1 $
1!
#1925000
0!
#1950000
b1 #
1!
#1975000
0!
#2000000
b10 %
b10 $
1!
#2025000
0!
#2050000
b10 #
1!
#2075000
0!
#2100000
b100 &
b1 %
b100 $
1!
#2125000
0!
#2150000
b100 #
1!
#2175000
0!
#2200000
b10 &
b1000 $
1!
#2225000
0!
#2250000
b1000 #
1!
#2275000
0!
#2300000
b1 &
b100 %
b1 $
1!
#2325000
0!
#2350000
b1 #
1!
#2375000
0!
#2400000
b10 %
b10 $
1!
#2425000
0!
#2450000
b10 #
1!
#2475000
0!
#2500000
b100 &
b1 %
b100 $
1!
#2525000
0!
#2550000
b100 #
1!
#2575000
0!
#2600000
b10 &
b1000 $
1!
#2625000
0!
#2650000
b1000 #
1!
#2675000
0!
#2700000
b1 &
b100 %
b1 $
1!
#2725000
0!
#2750000
b1 #
1!
#2775000
0!
#2800000
b10 %
b10 $
1!
#2825000
0!
#2850000
b10 #
1!
#2875000
0!
#2900000
b100 &
b1 %
b100 $
1!
#2925000
0!
#2950000
b100 #
1!
#2975000
0!
#3000000
b10 &
b1000 $
1!
#3025000
0!
#3050000
b1000 #
1!
#3075000
0!
#3100000
b1 &
b100 %
b1 $
1!
#3125000
0!
#3150000
b1 #
1!
#3175000
0!
#3200000
b10 %
b10 $
1!
#3225000
0!
#3250000
b10 #
1!
#3275000
0!
#3300000
b100 &
b1 %
b100 $
1!
#3325000
0!
#3350000
b100 #
1!
#3375000
0!
#3400000
b10 &
b1000 $
1!
#3425000
0!
#3450000
b1000 #
1!
#3475000
0!
#3500000
b1 &
b100 %
b1 $
1!
#3525000
0!
#3550000
b1 #
1!
#3575000
0!
#3600000
b10 %
b10 $
1!
#3625000
0!
#3650000
b10 #
1!
#3675000
0!
#3700000
b100 &
b1 %
b100 $
1!
#3725000
0!
#3750000
b100 #
1!
#3775000
0!
#3800000
b10 &
b1000 $
1!
#3825000
0!
#3850000
b1000 #
1!
#3875000
0!
#3900000
b1 &
b100 %
b1 $
1!
#3925000
0!
#3950000
b1 #
1!
#3975000
0!
#4000000
b10 %
b10 $
1!
#4025000
0!
#4050000
b10 #
1!
#4075000
0!
#4100000
b100 &
b1 %
b100 $
1!
#4125000
0!
#4150000
b100 #
1!
#4175000
0!
#4200000
b10 &
b1000 $
1!
#4225000
0!
#4250000
b1000 #
1!
#4275000
0!
#4300000
b1 &
b100 %
b1 $
1!
#4325000
0!
#4350000
b1 #
1!
#4375000
0!
#4400000
b10 %
b10 $
1!
#4425000
0!
#4450000
b10 #
1!
#4475000
0!
#4500000
b100 &
b1 %
b100 $
1!
#4525000
0!
#4550000
b100 #
1!
#4575000
0!
#4600000
b10 &
b1000 $
1!
#4625000
0!
#4650000
b1000 #
1!
#4675000
0!
#4700000
b1 &
b100 %
b1 $
1!
#4725000
0!
#4750000
b1 #
1!
#4775000
0!
#4800000
b10 %
b10 $
1!
#4825000
0!
#4850000
b10 #
1!
#4875000
0!
#4900000
b100 &
b1 %
b100 $
1!
#4925000
0!
#4950000
b100 #
1!
#4975000
0!
#5000000
b10 &
b1000 $
1!
#5025000
0!
#5050000
b1000 #
1!
#5075000
0!
#5100000
b1 &
b100 %
b1 $
1!
#5125000
0!
#5150000
b1 #
1!
#5175000
0!
#5200000
b10 %
b10 $
1!
#5225000
0!
#5250000
b10 #
1!
#5275000
0!
#5300000
b100 &
b1 %
b100 $
1!
#5325000
0!
#5350000
b100 #
1!
#5375000
0!
#5400000
b10 &
b1000 $
1!
#5425000
0!
#5450000
b1000 #
1!
#5475000
0!
#5500000
b1 &
b100 %
b1 $
1!
#5525000
0!
#5550000
b1 #
1!
#5575000
0!
#5600000
b10 %
b10 $
1!
#5625000
0!
#5650000
b10 #
1!
#5675000
0!
#5700000
b100 &
b1 %
b100 $
1!
#5725000
0!
#5750000
b100 #
1!
#5775000
0!
#5800000
b10 &
b1000 $
1!
#5825000
0!
#5850000
b1000 #
1!
#5875000
0!
#5900000
b1 &
b100 %
b1 $
1!
#5925000
0!
#5950000
b1 #
1!
#5975000
0!
#6000000
b10 %
b10 $
1!
#6025000
0!
#6050000
b10 #
1!
#6075000
0!
#6100000
b100 &
b1 %
b100 $
1!
#6125000
0!
#6150000
b100 #
1!
#6175000
0!
#6200000
b10 &
b1000 $
1!
#6225000
0!
#6250000
b1000 #
1!
#6275000
0!
#6300000
b1 &
b100 %
b1 $
1!
#6325000
0!
#6350000
b1 #
1!
#6375000
0!
#6400000
b10 %
b10 $
1!
#6425000
0!
#6450000
b10 #
1!
#6475000
0!
#6500000
b100 &
b1 %
b100 $
1!
#6525000
0!
#6550000
b100 #
1!
#6575000
0!
#6600000
b10 &
b1000 $
1!
#6625000
0!
#6650000
b1000 #
1!
#6675000
0!
#6700000
b1 &
b100 %
b1 $
1!
#6725000
0!
#6750000
b1 #
1!
#6775000
0!
#6800000
b10 %
b10 $
1!
#6825000
0!
#6850000
b10 #
1!
#6875000
0!
#6900000
b100 &
b1 %
b100 $
1!
#6925000
0!
#6950000
b100 #
1!
#6975000
0!
#7000000
b10 &
b1000 $
1!
#7025000
0!
#7050000
b1000 #
1!
#7075000
0!
#7100000
b1 &
b100 %
b1 $
1!
#7125000
0!
#7150000
b1 #
1!
#7175000
0!
#7200000
b10 %
b10 $
1!
#7225000
0!
#7250000
b10 #
1!
#7275000
0!
#7300000
b100 &
b1 %
b100 $
1!
#7325000
0!
#7350000
b100 #
1!
#7375000
0!
#7400000
b10 &
b1000 $
1!
#7425000
0!
#7450000
b1000 #
1!
#7475000
0!
#7500000
b1 &
b100 %
b1 $
1!
#7525000
0!
#7550000
b1 #
1!
#7575000
0!
#7600000
b10 %
b10 $
1!
#7625000
0!
#7650000
b10 #
1!
#7675000
0!
#7700000
b100 &
b1 %
b100 $
1!
#7725000
0!
#7750000
b100 #
1!
#7775000
0!
#7800000
b10 &
b1000 $
1!
#7825000
0!
#7850000
b1000 #
1!
#7875000
0!
#7900000
b1 &
b100 %
b1 $
1!
#7925000
0!
#7950000
b1 #
1!
#7975000
0!
#8000000
b10 %
b10 $
1!
#8025000
0!
#8050000
b10 #
1!
#8075000
0!
#8100000
b100 &
b1 %
b100 $
1!
#8125000
0!
#8150000
b100 #
1!
#8175000
0!
#8200000
b10 &
b1000 $
1!
#8225000
0!
#8250000
b1000 #
1!
#8275000
0!
#8300000
b1 &
b100 %
b1 $
1!
#8325000
0!
#8350000
b1 #
1!
#8375000
0!
#8400000
b10 %
b10 $
1!
#8425000
0!
#8450000
b10 #
1!
#8475000
0!
#8500000
b100 &
b1 %
b100 $
1!
#8525000
0!
#8550000
b100 #
1!
#8575000
0!
#8600000
b10 &
b1000 $
1!
#8625000
0!
#8650000
b1000 #
1!
#8675000
0!
#8700000
b1 &
b100 %
b1 $
1!
#8725000
0!
#8750000
b1 #
1!
#8775000
0!
#8800000
b10 %
b10 $
1!
#8825000
0!
#8850000
b10 #
1!
#8875000
0!
#8900000
b100 &
b1 %
b100 $
1!
#8925000
0!
#8950000
b100 #
1!
#8975000
0!
#9000000
b10 &
b1000 $
1!
#9025000
0!
#9050000
b1000 #
1!
#9075000
0!
#9100000
b1 &
b100 %
b1 $
1!
#9125000
0!
#9150000
b1 #
1!
#9175000
0!
#9200000
b10 %
b10 $
1!
#9225000
0!
#9250000
b10 #
1!
#9275000
0!
#9300000
b100 &
b1 %
b100 $
1!
#9325000
0!
#9350000
b100 #
1!
#9375000
0!
#9400000
b10 &
b1000 $
1!
#9425000
0!
#9450000
b1000 #
1!
#9475000
0!
#9500000
b1 &
b100 %
b1 $
1!
#9525000
0!
#9550000
b1 #
1!
#9575000
0!
#9600000
b10 %
b10 $
1!
#9625000
0!
#9650000
b10 #
1!
#9675000
0!
#9700000
b100 &
b1 %
b100 $
1!
#9725000
0!
#9750000
b100 #
1!
#9775000
0!
#9800000
b10 &
b1000 $
1!
#9825000
0!
#9850000
b1000 #
1!
#9875000
0!
#9900000
b1 &
b100 %
b1 $
1!
#9925000
0!
#9950000
b1 #
1!
#9975000
0!
#10000000
b10 %
b10 $
1!
#10025000
0!
#10050000
b10 #
1!
#10075000
0!
#10100000
b100 &
b1 %
b100 $
1!
#10125000
0!
#10150000
b100 #
1!
#10175000
0!
#10200000
b10 &
b1000 $
1!
#10225000
0!
#10250000
b1000 #
1!
#10275000
0!
#10300000
b1 &
b100 %
b1 $
1!
#10325000
0!
#10350000
b1 #
1!
#10375000
0!
#10400000
b10 %
b10 $
1!
#10425000
0!
#10450000
b10 #
1!
#10475000
0!
#10500000
b100 &
b1 %
b100 $
1!
#10525000
0!
#10550000
b100 #
1!
#10575000
0!
#10600000
b10 &
b1000 $
1!
#10625000
0!
#10650000
b1000 #
1!
#10675000
0!
#10700000
b1 &
b100 %
b1 $
1!
#10725000
0!
#10750000
b1 #
1!
#10775000
0!
#10800000
b10 %
b10 $
1!
#10825000
0!
#10850000
b10 #
1!
#10875000
0!
#10900000
b100 &
b1 %
b100 $
1!
#10925000
0!
#10950000
b100 #
1!
#10975000
0!
#11000000
b10 &
b1000 $
1!
#11025000
0!
#11050000
b1000 #
1!
#11075000
0!
#11100000
b1 &
b100 %
b1 $
1!
#11125000
0!
#11150000
b1 #
1!
#11175000
0!
#11200000
b10 %
b10 $
1!
#11225000
0!
#11250000
b10 #
1!
#11275000
0!
#11300000
b100 &
b1 %
b100 $
1!
#11325000
0!
#11350000
b100 #
1!
#11375000
0!
#11400000
b10 &
b1000 $
1!
#11425000
0!
#11450000
b1000 #
1!
#11475000
0!
#11500000
b1 &
b100 %
b1 $
1!
#11525000
0!
#11550000
b1 #
1!
#11575000
0!
#11600000
b10 %
b10 $
1!
#11625000
0!
#11650000
b10 #
1!
#11675000
0!
#11700000
b100 &
b1 %
b100 $
1!
#11725000
0!
#11750000
b100 #
1!
#11775000
0!
#11800000
b10 &
b1000 $
1!
#11825000
0!
#11850000
b1000 #
1!
#11875000
0!
#11900000
b1 &
b100 %
b1 $
1!
#11925000
0!
#11950000
b1 #
1!
#11975000
0!
#12000000
b10 %
b10 $
1!
#12025000
0!
#12050000
b10 #
1!
#12075000
0!
#12100000
b100 &
b1 %
b100 $
1!
#12125000
0!
#12150000
b100 #
1!
#12175000
0!
#12200000
b10 &
b1000 $
1!
#12225000
0!
#12250000
b1000 #
1!
#12275000
0!
#12300000
b1 &
b100 %
b1 $
1!
#12325000
0!
#12350000
b1 #
1!
#12375000
0!
#12400000
b10 %
b10 $
1!
#12425000
0!
#12450000
b10 #
1!
#12475000
0!
#12500000
b100 &
b1 %
b100 $
1!
#12525000
0!
#12550000
b100 #
1!
#12575000
0!
#12600000
b10 &
b1000 $
1!
#12625000
0!
#12650000
b1000 #
1!
#12675000
0!
#12700000
b1 &
b100 %
b1 $
1!
#12725000
0!
#12750000
b1 #
1!
#12775000
0!
#12800000
b10 %
b10 $
1!
#12825000
0!
#12850000
b10 #
1!
#12875000
0!
#12900000
b100 &
b1 %
b100 $
1!
#12925000
0!
#12950000
b100 #
1!
#12975000
0!
#13000000
b10 &
b1000 $
1!
#13025000
0!
#13050000
b1000 #
1!
#13075000
0!
#13100000
b1 &
b100 %
b1 $
1!
#13125000
0!
#13150000
b1 #
1!
#13175000
0!
#13200000
b10 %
b10 $
1!
#13225000
0!
#13250000
b10 #
1!
#13275000
0!
#13300000
b100 &
b1 %
b100 $
1!
#13325000
0!
#13350000
b100 #
1!
#13375000
0!
#13400000
b10 &
b1000 $
1!
#13425000
0!
#13450000
b1000 #
1!
#13475000
0!
#13500000
b1 &
b100 %
b1 $
1!
#13525000
0!
#13550000
b1 #
1!
#13575000
0!
#13600000
b10 %
b10 $
1!
#13625000
0!
#13650000
b10 #
1!
#13675000
0!
#13700000
b100 &
b1 %
b100 $
1!
#13725000
0!
#13750000
b100 #
1!
#13775000
0!
#13800000
b10 &
b1000 $
1!
#13825000
0!
#13850000
b1000 #
1!
#13875000
0!
#13900000
b1 &
b100 %
b1 $
1!
#13925000
0!
#13950000
b1 #
1!
#13975000
0!
#14000000
b10 %
b10 $
1!
#14025000
0!
#14050000
b10 #
1!
#14075000
0!
#14100000
b100 &
b1 %
b100 $
1!
#14125000
0!
#14150000
b100 #
1!
#14175000
0!
#14200000
b10 &
b1000 $
1!
#14225000
0!
#14250000
b1000 #
1!
#14275000
0!
#14300000
b1 &
b100 %
b1 $
1!
#14325000
0!
#14350000
b1 #
1!
#14375000
0!
#14400000
b10 %
b10 $
1!
#14425000
0!
#14450000
b10 #
1!
#14475000
0!
#14500000
b100 &
b1 %
b100 $
1!
#14525000
0!
#14550000
b100 #
1!
#14575000
0!
#14600000
b10 &
b1000 $
1!
#14625000
0!
#14650000
b1000 #
1!
#14675000
0!
#14700000
b1 &
b100 %
b1 $
1!
#14725000
0!
#14750000
b1 #
1!
#14775000
0!
#14800000
b10 %
b10 $
1!
#14825000
0!
#14850000
b10 #
1!
#14875000
0!
#14900000
b100 &
b1 %
b100 $
1!
#14925000
0!
#14950000
b100 #
1!
#14975000
0!
#15000000
b10 &
b1000 $
1!
#15025000
0!
#15050000
b1000 #
1!
#15075000
0!
#15100000
b1 &
b100 %
b1 $
1!
#15125000
0!
#15150000
b1 #
1!
#15175000
0!
#15200000
b10 %
b10 $
1!
#15225000
0!
#15250000
b10 #
1!
#15275000
0!
#15300000
b100 &
b1 %
b100 $
1!
#15325000
0!
#15350000
b100 #
1!
#15375000
0!
#15400000
b10 &
b1000 $
1!
#15425000
0!
#15450000
b1000 #
1!
#15475000
0!
#15500000
b1 &
b100 %
b1 $
1!
#15525000
0!
#15550000
b1 #
1!
#15575000
0!
#15600000
b10 %
b10 $
1!
#15625000
0!
#15650000
b10 #
1!
#15675000
0!
#15700000
b100 &
b1 %
b100 $
1!
#15725000
0!
#15750000
b100 #
1!
#15775000
0!
#15800000
b10 &
b1000 $
1!
#15825000
0!
#15850000
b1000 #
1!
#15875000
0!
#15900000
b1 &
b100 %
b1 $
1!
#15925000
0!
#15950000
b1 #
1!
#15975000
0!
#16000000
b10 %
b10 $
1!
#16025000
0!
#16050000
b10 #
1!
#16075000
0!
#16100000
b100 &
b1 %
b100 $
1!
#16125000
0!
#16150000
b100 #
1!
#16175000
0!
#16200000
b10 &
b1000 $
1!
#16225000
0!
#16250000
b1000 #
1!
#16275000
0!
#16300000
b1 &
b100 %
b1 $
1!
#16325000
0!
#16350000
b1 #
1!
#16375000
0!
#16400000
b10 %
b10 $
1!
#16425000
0!
#16450000
b10 #
1!
#16475000
0!
#16500000
b100 &
b1 %
b100 $
1!
#16525000
0!
#16550000
b100 #
1!
#16575000
0!
#16600000
b10 &
b1000 $
1!
#16625000
0!
#16650000
b1000 #
1!
#16675000
0!
#16700000
b1 &
b100 %
b1 $
1!
#16725000
0!
#16750000
b1 #
1!
#16775000
0!
#16800000
b10 %
b10 $
1!
#16825000
0!
#16850000
b10 #
1!
#16875000
0!
#16900000
b100 &
b1 %
b100 $
1!
#16925000
0!
#16950000
b100 #
1!
#16975000
0!
#17000000
b10 &
b1000 $
1!
#17025000
0!
#17050000
b1000 #
1!
#17075000
0!
#17100000
b1 &
b100 %
b1 $
1!
#17125000
0!
#17150000
b1 #
1!
#17175000
0!
#17200000
b10 %
b10 $
1!
#17225000
0!
#17250000
b10 #
1!
#17275000
0!
#17300000
b100 &
b1 %
b100 $
1!
#17325000
0!
#17350000
b100 #
1!
#17375000
0!
#17400000
b10 &
b1000 $
1!
#17425000
0!
#17450000
b1000 #
1!
#17475000
0!
#17500000
b1 &
b100 %
b1 $
1!
#17525000
0!
#17550000
b1 #
1!
#17575000
0!
#17600000
b10 %
b10 $
1!
#17625000
0!
#17650000
b10 #
1!
#17675000
0!
#17700000
b100 &
b1 %
b100 $
1!
#17725000
0!
#17750000
b100 #
1!
#17775000
0!
#17800000
b10 &
b1000 $
1!
#17825000
0!
#17850000
b1000 #
1!
#17875000
0!
#17900000
b1 &
b100 %
b1 $
1!
#17925000
0!
#17950000
b1 #
1!
#17975000
0!
#18000000
b10 %
b10 $
1!
#18025000
0!
#18050000
b10 #
1!
#18075000
0!
#18100000
b100 &
b1 %
b100 $
1!
#18125000
0!
#18150000
b100 #
1!
#18175000
0!
#18200000
b10 &
b1000 $
1!
#18225000
0!
#18250000
b1000 #
1!
#18275000
0!
#18300000
b1 &
b100 %
b1 $
1!
#18325000
0!
#18350000
b1 #
1!
#18375000
0!
#18400000
b10 %
b10 $
1!
#18425000
0!
#18450000
b10 #
1!
#18475000
0!
#18500000
b100 &
b1 %
b100 $
1!
#18525000
0!
#18550000
b100 #
1!
#18575000
0!
#18600000
b10 &
b1000 $
1!
#18625000
0!
#18650000
b1000 #
1!
#18675000
0!
#18700000
b1 &
b100 %
b1 $
1!
#18725000
0!
#18750000
b1 #
1!
#18775000
0!
#18800000
b10 %
b10 $
1!
#18825000
0!
#18850000
b10 #
1!
#18875000
0!
#18900000
b100 &
b1 %
b100 $
1!
#18925000
0!
#18950000
b100 #
1!
#18975000
0!
#19000000
b10 &
b1000 $
1!
#19025000
0!
#19050000
b1000 #
1!
#19075000
0!
#19100000
b1 &
b100 %
b1 $
1!
#19125000
0!
#19150000
b1 #
1!
#19175000
0!
#19200000
b10 %
b10 $
1!
#19225000
0!
#19250000
b10 #
1!
#19275000
0!
#19300000
b100 &
b1 %
b100 $
1!
#19325000
0!
#19350000
b100 #
1!
#19375000
0!
#19400000
b10 &
b1000 $
1!
#19425000
0!
#19450000
b1000 #
1!
#19475000
0!
#19500000
b1 &
b100 %
b1 $
1!
#19525000
0!
#19550000
b1 #
1!
#19575000
0!
#19600000
b10 %
b10 $
1!
#19625000
0!
#19650000
b10 #
1!
#19675000
0!
#19700000
b100 &
b1 %
b100 $
1!
#19725000
0!
#19750000
b100 #
1!
#19775000
0!
#19800000
b10 &
b1000 $
1!
#19825000
0!
#19850000
b1000 #
1!
#19875000
0!
#19900000
b1 &
b100 %
b1 $
1!
#19925000
0!
#19950000
b1 #
1!
#19975000
0!
#20000000
b10 %
b10 $
1!
#20025000
0!
#20050000
b10 #
1!
#20075000
0!
#20100000
b100 &
b1 %
b100 $
1!
#20125000
0!
#20150000
b100 #
1!
#20175000
0!
#20200000
b10 &
b1000 $
1!
#20225000
0!
#20250000
b1000 #
1!
#20275000
0!
#20300000
b1 &
b100 %
b1 $
1!
#20325000
0!
#20350000
b1 #
1!
#20375000
0!
#20400000
b10 %
b10 $
1!
#20425000
0!
#20450000
b10 #
1!
#20475000
0!
#20500000
b100 &
b1 %
b100 $
1!
#20525000
0!
#20550000
b100 #
1!
#20575000
0!
#20600000
b10 &
b1000 $
1!
#20625000
0!
#20650000
b1000 #
1!
#20675000
0!
#20700000
b1 &
b100 %
b1 $
1!
#20725000
0!
#20750000
b1 #
1!
#20775000
0!
#20800000
b10 %
b10 $
1!
#20825000
0!
#20850000
b10 #
1!
#20875000
0!
#20900000
b100 &
b1 %
b100 $
1!
#20925000
0!
#20950000
b100 #
1!
#20975000
0!
#21000000
b10 &
b1000 $
1!
#21025000
0!
#21050000
b1000 #
1!
#21075000
0!
#21100000
b1 &
b100 %
b1 $
1!
#21125000
0!
#21150000
b1 #
1!
#21175000
0!
#21200000
b10 %
b10 $
1!
#21225000
0!
#21250000
b10 #
1!
#21275000
0!
#21300000
b100 &
b1 %
b100 $
1!
#21325000
0!
#21350000
b100 #
1!
#21375000
0!
#21400000
b10 &
b1000 $
1!
#21425000
0!
#21450000
b1000 #
1!
#21475000
0!
#21500000
b1 &
b100 %
b1 $
1!
#21525000
0!
#21550000
b1 #
1!
#21575000
0!
#21600000
b10 %
b10 $
1!
#21625000
0!
#21650000
b10 #
1!
#21675000
0!
#21700000
b100 &
b1 %
b100 $
1!
#21725000
0!
#21750000
b100 #
1!
#21775000
0!
#21800000
b10 &
b1000 $
1!
#21825000
0!
#21850000
b1000 #
1!
#21875000
0!
#21900000
b1 &
b100 %
b1 $
1!
#21925000
0!
#21950000
b1 #
1!
#21975000
0!
#22000000
b10 %
b10 $
1!
#22025000
0!
#22050000
b10 #
1!
#22075000
0!
#22100000
b100 &
b1 %
b100 $
1!
#22125000
0!
#22150000
b100 #
1!
#22175000
0!
#22200000
b10 &
b1000 $
1!
#22225000
0!
#22250000
b1000 #
1!
#22275000
0!
#22300000
b1 &
b100 %
b1 $
1!
#22325000
0!
#22350000
b1 #
1!
#22375000
0!
#22400000
b10 %
b10 $
1!
#22425000
0!
#22450000
b10 #
1!
#22475000
0!
#22500000
b100 &
b1 %
b100 $
1!
#22525000
0!
#22550000
b100 #
1!
#22575000
0!
#22600000
b10 &
b1000 $
1!
#22625000
0!
#22650000
b1000 #
1!
#22675000
0!
#22700000
b1 &
b100 %
b1 $
1!
#22725000
0!
#22750000
b1 #
1!
#22775000
0!
#22800000
b10 %
b10 $
1!
#22825000
0!
#22850000
b10 #
1!
#22875000
0!
#22900000
b100 &
b1 %
b100 $
1!
#22925000
0!
#22950000
b100 #
1!
#22975000
0!
#23000000
b10 &
b1000 $
1!
#23025000
0!
#23050000
b1000 #
1!
#23075000
0!
#23100000
b1 &
b100 %
b1 $
1!
#23125000
0!
#23150000
b1 #
1!
#23175000
0!
#23200000
b10 %
b10 $
1!
#23225000
0!
#23250000
b10 #
1!
#23275000
0!
#23300000
b100 &
b1 %
b100 $
1!
#23325000
0!
#23350000
b100 #
1!
#23375000
0!
#23400000
b10 &
b1000 $
1!
#23425000
0!
#23450000
b1000 #
1!
#23475000
0!
#23500000
b1 &
b100 %
b1 $
1!
#23525000
0!
#23550000
b1 #
1!
#23575000
0!
#23600000
b10 %
b10 $
1!
#23625000
0!
#23650000
b10 #
1!
#23675000
0!
#23700000
b100 &
b1 %
b100 $
1!
#23725000
0!
#23750000
b100 #
1!
#23775000
0!
#23800000
b10 &
b1000 $
1!
#23825000
0!
#23850000
b1000 #
1!
#23875000
0!
#23900000
b1 &
b100 %
b1 $
1!
#23925000
0!
#23950000
b1 #
1!
#23975000
0!
#24000000
b10 %
b10 $
1!
#24025000
0!
#24050000
b10 #
1!
#24075000
0!
#24100000
b100 &
b1 %
b100 $
1!
#24125000
0!
#24150000
b100 #
1!
#24175000
0!
#24200000
b10 &
b1000 $
1!
#24225000
0!
#24250000
b1000 #
1!
#24275000
0!
#24300000
b1 &
b100 %
b1 $
1!
#24325000
0!
#24350000
b1 #
1!
#24375000
0!
#24400000
b10 %
b10 $
1!
#24425000
0!
#24450000
b10 #
1!
#24475000
0!
#24500000
b100 &
b1 %
b100 $
1!
#24525000
0!
#24550000
b100 #
1!
#24575000
0!
#24600000
b10 &
b1000 $
1!
#24625000
0!
#24650000
b1000 #
1!
#24675000
0!
#24700000
b1 &
b100 %
b1 $
1!
#24725000
0!
#24750000
b1 #
1!
#24775000
0!
#24800000
b10 %
b10 $
1!
#24825000
0!
#24850000
b10 #
1!
#24875000
0!
#24900000
b100 &
b1 %
b100 $
1!
#24925000
0!
#24950000
b100 #
1!
#24975000
0!
#25000000
b10 &
b1000 $
1!
#25025000
0!
#25050000
b1000 #
1!
#25075000
0!
#25100000
b1 &
b100 %
b1 $
1!
#25125000
0!
#25150000
b1 #
1!
#25175000
0!
#25200000
b10 %
b10 $
1!
#25225000
0!
#25250000
b10 #
1!
#25275000
0!
#25300000
b100 &
b1 %
b100 $
1!
#25325000
0!
#25350000
b100 #
1!
#25375000
0!
#25400000
b10 &
b1000 $
1!
#25425000
0!
#25450000
b1000 #
1!
#25475000
0!
#25500000
b1 &
b100 %
b1 $
1!
#25525000
0!
#25550000
b1 #
1!
#25575000
0!
#25600000
b10 %
b10 $
1!
#25625000
0!
#25650000
b10 #
1!
#25675000
0!
#25700000
b100 &
b1 %
b100 $
1!
#25725000
0!
#25750000
b100 #
1!
#25775000
0!
#25800000
b10 &
b1000 $
1!
#25825000
0!
#25850000
b1000 #
1!
#25875000
0!
#25900000
b1 &
b100 %
b1 $
1!
#25925000
0!
#25950000
b1 #
1!
#25975000
0!
#26000000
b10 %
b10 $
1!
#26025000
0!
#26050000
b10 #
1!
#26075000
0!
#26100000
b100 &
b1 %
b100 $
1!
#26125000
0!
#26150000
b100 #
1!
#26175000
0!
#26200000
b10 &
b1000 $
1!
#26225000
0!
#26250000
b1000 #
1!
#26275000
0!
#26300000
b1 &
b100 %
b1 $
1!
#26325000
0!
#26350000
b1 #
1!
#26375000
0!
#26400000
b10 %
b10 $
1!
#26425000
0!
#26450000
b10 #
1!
#26475000
0!
#26500000
b100 &
b1 %
b100 $
1!
#26525000
0!
#26550000
b100 #
1!
#26575000
0!
#26600000
b10 &
b1000 $
1!
#26625000
0!
#26650000
b1000 #
1!
#26675000
0!
#26700000
b1 &
b100 %
b1 $
1!
#26725000
0!
#26750000
b1 #
1!
#26775000
0!
#26800000
b10 %
b10 $
1!
#26825000
0!
#26850000
b10 #
1!
#26875000
0!
#26900000
b100 &
b1 %
b100 $
1!
#26925000
0!
#26950000
b100 #
1!
#26975000
0!
#27000000
b10 &
b1000 $
1!
#27025000
0!
#27050000
b1000 #
1!
#27075000
0!
#27100000
b1 &
b100 %
b1 $
1!
#27125000
0!
#27150000
b1 #
1!
#27175000
0!
#27200000
b10 %
b10 $
1!
#27225000
0!
#27250000
b10 #
1!
#27275000
0!
#27300000
b100 &
b1 %
b100 $
1!
#27325000
0!
#27350000
b100 #
1!
#27375000
0!
#27400000
b10 &
b1000 $
1!
#27425000
0!
#27450000
b1000 #
1!
#27475000
0!
#27500000
b1 &
b100 %
b1 $
1!
#27525000
0!
#27550000
b1 #
1!
#27575000
0!
#27600000
b10 %
b10 $
1!
#27625000
0!
#27650000
b10 #
1!
#27675000
0!
#27700000
b100 &
b1 %
b100 $
1!
#27725000
0!
#27750000
b100 #
1!
#27775000
0!
#27800000
b10 &
b1000 $
1!
#27825000
0!
#27850000
b1000 #
1!
#27875000
0!
#27900000
b1 &
b100 %
b1 $
1!
#27925000
0!
#27950000
b1 #
1!
#27975000
0!
#28000000
b10 %
b10 $
1!
#28025000
0!
#28050000
b10 #
1!
#28075000
0!
#28100000
b100 &
b1 %
b100 $
1!
#28125000
0!
#28150000
b100 #
1!
#28175000
0!
#28200000
b10 &
b1000 $
1!
#28225000
0!
#28250000
b1000 #
1!
#28275000
0!
#28300000
b1 &
b100 %
b1 $
1!
#28325000
0!
#28350000
b1 #
1!
#28375000
0!
#28400000
b10 %
b10 $
1!
#28425000
0!
#28450000
b10 #
1!
#28475000
0!
#28500000
b100 &
b1 %
b100 $
1!
#28525000
0!
#28550000
b100 #
1!
#28575000
0!
#28600000
b10 &
b1000 $
1!
#28625000
0!
#28650000
b1000 #
1!
#28675000
0!
#28700000
b1 &
b100 %
b1 $
1!
#28725000
0!
#28750000
b1 #
1!
#28775000
0!
#28800000
b10 %
b10 $
1!
#28825000
0!
#28850000
b10 #
1!
#28875000
0!
#28900000
b100 &
b1 %
b100 $
1!
#28925000
0!
#28950000
b100 #
1!
#28975000
0!
#29000000
b10 &
b1000 $
1!
#29025000
0!
#29050000
b1000 #
1!
#29075000
0!
#29100000
b1 &
b100 %
b1 $
1!
#29125000
0!
#29150000
b1 #
1!
#29175000
0!
#29200000
b10 %
b10 $
1!
#29225000
0!
#29250000
b10 #
1!
#29275000
0!
#29300000
b100 &
b1 %
b100 $
1!
#29325000
0!
#29350000
b100 #
1!
#29375000
0!
#29400000
b10 &
b1000 $
1!
#29425000
0!
#29450000
b1000 #
1!
#29475000
0!
#29500000
b1 &
b100 %
b1 $
1!
#29525000
0!
#29550000
b1 #
1!
