tests/usbf_pa/usbf_pa.vcd
$date
	Mon Apr 27 21:53:02 2020
$end
$version
	Icarus Verilog
$end
$timescale
	1ps
$end
$scope module usbf_pa_bench $end
$scope module usbf_pa_ $end
$var wire 1 ! clk $end
$var wire 1 " crc16_add $end
$var wire 1 # crc16_clr $end
$var wire 2 $ data_pid_sel [1:0] $end
$var wire 1 % rst $end
$var wire 1 & send_data $end
$var wire 1 ' send_token $end
$var wire 1 ( send_zero_length $end
$var wire 2 ) token_pid_sel [1:0] $end
$var wire 8 * tx_data [7:0] $end
$var wire 8 + tx_data_st [7:0] $end
$var wire 1 , tx_first $end
$var wire 1 - tx_ready $end
$var wire 1 . tx_valid $end
$var wire 1 / tx_valid_last $end
$var wire 16 0 crc16_rev [15:0] $end
$var wire 16 1 crc16_next [15:0] $end
$var reg 16 2 crc16 [15:0] $end
$var reg 1 3 crc_sel1 $end
$var reg 1 4 crc_sel2 $end
$var reg 8 5 data_pid [7:0] $end
$var reg 1 6 dsel $end
$var reg 1 7 last $end
$var reg 5 8 next_state [4:0] $end
$var reg 1 9 rd_next $end
$var reg 1 : send_data_r $end
$var reg 1 ; send_data_r2 $end
$var reg 1 < send_token_r $end
$var reg 1 = send_zero_length_r $end
$var reg 5 > state [4:0] $end
$var reg 8 ? token_pid [7:0] $end
$var reg 8 @ tx_data_d [7:0] $end
$var reg 8 A tx_data_data [7:0] $end
$var reg 1 B tx_first_r $end
$var reg 8 C tx_spec_data [7:0] $end
$var reg 1 D tx_valid_d $end
$var reg 1 E tx_valid_r $end
$var reg 1 F tx_valid_r1 $end
$var reg 1 G zero_length_r $end
$scope module u1 $end
$var wire 16 H crc_in [15:0] $end
$var wire 8 I din [7:0] $end
$var wire 16 J crc_out [15:0] $end
$upscope $end
$upscope $end
$upscope $end
$enddefinitions $end
#0
$dumpvars
bx J
bx I
bx H
0G
xF
xE
0D
bx C
xB
bx A
bx @
bx ?
b1 >
x=
0<
x;
x:
09
b1 8
07
06
bx 5
04
03
bx 2
bx 1
bx 0
x/
0.
x-
x,
bx +
bx *
bx )
x(
x'
x&
0%
bx $
x#
x"
1!
$end
#24000
b1011010 *
b1011010 @
b1111 C
b1100101 A
b10100110 I
b1011010 ?
b1111 5
1/
0#
b1100101 +
1(
b1 )
b11 $
1'
1-
0&
#25000
0!
#26000
1%
#50000
0"
0,
0:
1B
1<
0F
1=
1!
#74000
b10000111 C
b10001100 A
b110001 I
b10000111 5
b10001100 +
b10 $
#75000
0!
#100000
0E
0;
1!
#124000
b10000111 A
b1001000 I
1#
16
b10000 8
1.
1D
b10010 +
0-
1&
#125000
0!
#150000
b0 A
b0 C
b0 0
b100 8
13
16
1.
1D
b1111110010110010 1
b1111110010110010 J
0#
b10000 >
b1111111111111111 2
b1111111111111111 H
1:
1F
1G
1!
#174000
b1111111010001100 1
b1111111010001100 J
b10111101 I
b11000011 5
0/
b10111101 +
0(
b0 $
0'
#175000
0!
#200000
13
16
1.
1D
0=
1E
1;
b100 >
1!
#224000
b1111110011111100 1
b1111110011111100 J
b11010010 *
b11010010 @
b1010101 I
b11010010 ?
b10000111 5
1/
b1000 8
14
17
03
16
1.
1D
b10101010 +
b0 )
b10 $
1'
1-
#225000
0!
#250000
b1 8
14
07
16
0.
0D
b1000 >
0G
1!
#274000
b111111011111011 1
b111111011111011 J
b10010110 *
b10010110 @
b10101011 I
b10010110 ?
b1001011 5
17
14
16
b1000 8
b11010101 +
1(
b11 )
b1 $
0-
#275000
0!
#300000
14
17
16
1=
0F
1!
#324000
b1111110011101000 1
b1111110011101000 J
b1010011 I
b1111 5
14
17
16
b11001010 +
0(
b11 $
0&
#325000
0!
#350000
14
17
16
0:
0E
0=
1!
#374000
b111111001100111 1
b111111001100111 J
b11010010 *
b11010010 @
b10010001 I
b11010010 ?
b1001011 5
b10001001 +
b0 )
b1 $
0'
#375000
0!
#400000
0B
0;
1!
#424000
b111111111100001 1
b111111111100001 J
1,
b11010000 I
b10000111 5
1#
14
17
16
b1011 +
b10 $
1&
#425000
0!
#450000
1"
0#
0,
1:
1B
1!
#474000
b111111011110001 1
b111111011110001 J
b11110 *
b11110 @
b10101000 I
b11110 ?
b1111 5
b1 8
14
07
16
b10101 +
b10 )
b11 $
1'
1-
#475000
0!
#500000
0"
b1111 A
b1000000101110000 0
b1111 C
b111001111110111 1
b111001111110111 J
b10 8
1.
1D
04
16
1;
b111111011110001 2
b111111011110001 H
b1 >
1!
#524000
b111000001000101 1
b111000001000101 J
b11000011 A
b10010110 *
b10010110 @
b11000011 C
b11111 I
b10010110 ?
b11000011 5
0/
b11111000 +
1(
b11 )
b0 $
0'
#525000
0!
#550000
b11111000 A
b11111000 *
b11111000 @
06
1.
1D
b10 >
0<
1F
1=
1!
#574000
b111000000111101 1
b111000000111101 J
b11010000 *
b11010000 @
b1111 C
b11010000 A
b1011 I
b1011010 ?
b1111 5
b11010000 +
b1 )
b11 $
#575000
0!
#600000
1"
19
1.
1D
1E
1!
#624000
b1111001001100000 1
b1111001001100000 J
b1110111 *
b1110111 @
b11000011 C
b1110111 A
b11101110 I
b11110 ?
b11000011 5
b1110111 +
0(
b10 )
b0 $
#625000
0!
#650000
b1011000011111001 0
b1110000001001011 1
b1110000001001011 J
19
1.
1D
b1111001001100000 2
b1111001001100000 H
0=
1!
#674000
b110000010010110 1
b110000010010110 J
0"
b11010011 *
b11010011 @
b1001011 C
b11010011 A
b11001011 I
b1011010 ?
b1001011 5
09
1.
1D
b11010011 +
1(
b1 )
b1 $
0-
#675000
0!
#700000
1.
1D
1=
1!
#724000
b110001001110000 1
b110001001110000 J
b1011000 A
b11010 I
b10010110 ?
1/
b10010110 *
b10010110 @
b1011000 +
0(
b11 )
1'
#725000
0!
#750000
1.
1D
1<
0=
1!
#774000
b1110000010110001 1
b1110000010110001 J
b11110 *
b11110 @
b10000111 C
b10100011 A
b11000101 I
b11110 ?
b10000111 5
0/
1.
1D
b10100011 +
1(
b10 )
b10 $
0'
0&
#775000
0!
#800000
1.
1D
1=
0B
0:
1!
#824000
b110001101111110 1
b110001101111110 J
1"
b10010110 *
b10010110 @
b11000011 C
1,
b11100110 A
b1100111 I
b10010110 ?
b11000011 5
1/
1#
19
1.
1D
b11100110 +
b11 )
b0 $
1'
1-
1&
#825000
0!
#850000
b0 0
b111110001010011 1
b111110001010011 J
0#
0,
b1111111111111111 2
b1111111111111111 H
0;
1:
1B
1G
1!
#874000
b111111100011011 1
b111111100011011 J
0"
b1011010 *
b1011010 @
b0 C
b0 A
b11111011 I
b1011010 ?
b10000111 5
b100 8
13
16
19
1.
1D
b11011111 +
b1 )
b10 $
0&
#875000
0!
#900000
b1000 8
14
17
03
09
16
1.
1D
0:
1;
b100 >
1!
#924000
b111110110011011 1
b111110110011011 J
b10010110 *
b10010110 @
b111011 I
b10010110 ?
0/
1#
13
04
07
16
1.
1D
b100 8
b11011100 +
0(
b11 )
0'
0-
1&
#925000
0!
#950000
0#
13
16
1.
1D
0;
1:
0=
1!
#974000
b1111110011100010 1
b1111110011100010 J
b11110 *
b11110 @
b1010000 I
b11110 ?
1/
b1000 8
14
17
03
16
1.
1D
b1010 +
1(
b10 )
1'
1-
0&
#975000
0!
#1000000
b1 8
14
07
16
0.
0D
1=
0G
0:
1;
b1000 >
1!
#1024000
b111110111000001 1
b111110111000001 J
b11010010 *
b11010010 @
b100000 I
b11010010 ?
b11000011 5
17
14
16
b1000 8
b100 +
b0 )
b0 $
0-
#1025000
0!
#1050000
0;
0F
1!
#1074000
b1111110011101000 1
b1111110011101000 J
b1011010 *
b1011010 @
b1010011 I
b1011010 ?
b1001011 5
1#
b1 8
14
07
16
b11001010 +
0(
b1 )
b1 $
1-
1&
#1075000
0!
#1100000
b1001011 A
b1001011 C
0#
b10 8
1.
1D
04
16
0=
1G
0E
1:
b1 >
1!
#1124000
b1111110111101100 1
b1111110111101100 J
b10010110 *
b10010110 @
b11000011 C
b10110100 A
b101101 I
b10010110 ?
b11000011 5
0/
06
0.
0D
b1 8
b10110100 +
1(
b11 )
b0 $
0'
0&
#1125000
0!
#1150000
b10110100 *
b10110100 @
1;
0:
0B
0<
1=
1!
#1174000
b111110110010001 1
b111110110010001 J
b1111 C
1,
b11100 A
b111000 I
b11110 ?
b1111 5
1/
b11110 *
b11110 @
b11100 +
0(
b10 )
b11 $
1'
0-
#1175000
0!
#1200000
0,
0=
1<
1B
0;
1!
#1224000
b1111110001010110 1
b1111110001010110 J
b10000111 C
b10000111 A
b1100110 I
b10000111 5
0/
1#
16
b10 8
1.
1D
b1100110 +
1(
b10 $
0'
1-
1&
#1225000
0!
#1250000
1"
b1100110 A
0#
b1100110 *
b1100110 @
06
1.
1D
b10 >
1:
0<
1F
0G
1=
1!
#1274000
b111110011010001 1
b111110011010001 J
b11010 *
b11010 @
b11010 A
b1011000 I
1.
1D
b11010 +
0&
#1275000
0!
#1300000
b11000001 *
b11000001 @
0"
b11000001 C
b11000001 A
b1100000101110100 0
b100 8
13
16
19
1.
1D
b1101000111011000 1
b1101000111011000 J
1E
0B
0:
1;
b111110011010001 2
b111110011010001 H
1!
#1324000
b101001110001111 1
b101001110001111 J
1"
b1111101 *
b1111101 @
1,
b11000011 C
b1111101 A
b10111110 I
b11000011 5
1#
03
19
06
1.
1D
b10 8
b1111101 +
0(
b0 $
1&
#1325000
0!
#1350000
b0 0
b1111111010000110 1
b1111111010000110 J
0#
0,
19
1.
1D
b1111111111111111 2
b1111111111111111 H
0;
1:
1B
1G
0=
1!
#1374000
b111111001000101 1
b111111001000101 J
0"
b1111001 *
b1111001 @
b10000111 C
b1111001 A
b10011110 I
b10010110 ?
b10000111 5
09
1.
1D
b1111001 +
1(
b11 )
b10 $
0-
0&
#1375000
0!
#1400000
1.
1D
1=
0B
0:
1;
1!
#1424000
b1111111011100000 1
b1111111011100000 J
1,
b0 C
b0 A
b10101111 I
b11110 ?
b1001011 5
1/
b11110 *
b11110 @
b100 8
13
16
19
1.
1D
b11110101 +
0(
b10 )
b1 $
1'
1-
#1425000
0!
#1450000
0,
b1000 8
14
17
03
09
16
1.
1D
b100 >
0;
1B
1<
0=
1!
#1474000
b111111110100101 1
b111111110100101 J
b11010010 *
b11010010 @
b11001110 I
b11010010 ?
1#
14
17
16
1.
1D
b1000 8
b1110011 +
1(
b0 )
1&
#1475000
0!
#1500000
1"
0#
b1 8
14
07
16
0.
0D
1=
0G
1:
b1000 >
1!
#1524000
b111110000100001 1
b111110000100001 J
b1011010 *
b1011010 @
b1110000 I
b1011010 ?
b11000011 5
17
14
16
b1000 8
b1110 +
b1 )
b0 $
0'
0-
0&
#1525000
0!
#1550000
b1111011 A
b1111011 C
0"
b1100000101111011 0
b10000100101000 1
b10000100101000 J
b111110000100001 2
b111110000100001 H
1;
0:
0B
0F
1!
#1574000
b10000001000000 1
b10000001000000 J
0/
b11100 I
b10000111 5
b1 8
14
07
16
b111000 +
0(
b10 $
1-
#1575000
0!
#1600000
b10000111 C
b111000 A
b111000 *
b111000 @
04
06
0=
0E
0<
0;
b1 >
1!
#1624000
b10000101100110 1
b10000101100110 J
b1111 *
b1111 @
b1111 C
1,
b1111 A
b1101101 I
b10010110 ?
b1111 5
1#
16
b10 8
1.
1D
b10110110 +
1(
b11 )
b11 $
0-
1&
#1625000
0!
#1650000
1"
b10110110 *
b10110110 @
b0 0
b10110110 A
b111110001101111 1
b111110001101111 J
0#
0,
06
1.
1D
b10 >
b1111111111111111 2
b1111111111111111 H
1:
1B
1F
1=
1!
#1674000
b111110001000111 1
b111110001000111 J
b10000111 C
b10000110 A
b1100001 I
b11010010 ?
b10000111 5
1/
b11010010 *
b11010010 @
1.
1D
b10000110 +
b0 )
b10 $
1'
0&
#1675000
0!
#1700000
0"
b1100000100011101 0
1.
1D
b100011101001110 1
b100011101001110 J
1E
1<
0:
1;
b111110001000111 2
b111110001000111 H
1!
#1724000
b1100011111100001 1
b1100011111100001 J
b1001011 C
b11001010 A
b1010011 I
b1001011 5
0/
b11001010 +
0(
b1 $
0'
#1725000
0!
#1750000
1.
1D
0;
0B
0=
1!
#1774000
b1100010101100001 1
b1100010101100001 J
1"
b10010110 *
b10010110 @
b1111 C
1,
b11001001 A
b10010011 I
b10010110 ?
b1111 5
1#
19
1.
1D
b11001001 +
1(
b11 )
b11 $
1-
1&
#1775000
0!
#1800000
b0 0
19
1.
1D
b11001001 *
b11001001 @
0,
0#
b1111111001101000 1
b1111111001101000 J
1=
0<
1B
1:
b1111111111111111 2
b1111111111111111 H
1!
#1824000
b111111111010111 1
b111111111010111 J
b0 C
b0 A
b11011001 I
b11010010 ?
1/
b11010010 *
b11010010 @
b100 8
13
16
19
1.
1D
b10011011 +
0(
b0 )
1'
0&
#1825000
0!
#1850000
b10100 A
b10100 C
0"
b100010100 0
b1101010011010100 1
b1101010011010100 J
b1000 8
14
17
03
09
16
1.
1D
b100 >
b111111111010111 2
b111111111010111 H
1;
0:
1<
0=
1!
#1874000
b1101010110100010 1
b1101010110100010 J
b1 A
b11110 *
b11110 @
b1 C
b10110000 I
b11110 ?
13
04
07
16
1.
1D
b100 8
b1101 +
b10 )
0-
#1875000
0!
#1900000
0;
1!
#1924000
b101011001011011 1
b101011001011011 J
b1011010 *
b1011010 @
b11011 I
b1011010 ?
b10000111 5
b11011000 +
1(
b1 )
b10 $
#1925000
0!
#1950000
13
16
1.
1D
1=
1!
#1974000
b11010010 *
b11010010 @
b11010010 ?
1#
13
16
1.
1D
b0 )
1&
#1975000
0!
#2000000
b0 A
b0 C
b0 0
0#
b1111110101011000 1
b1111110101011000 J
1G
1:
b1111111111111111 2
b1111111111111111 H
1!
#2024000
b1111111000000100 1
b1111111000000100 J
b1011010 *
b1011010 @
b10000001 I
b1011010 ?
b1001011 5
13
16
1.
1D
b10000001 +
b1 )
b1 $
0&
#2025000
0!
#2050000
1;
0:
1!
#2074000
b1111110001110100 1
b1111110001110100 J
b11010010 *
b11010010 @
b1101001 I
b11010010 ?
b1111 5
b1000 8
14
17
03
16
1.
1D
b10010110 +
0(
b0 )
b11 $
1-
#2075000
0!
#2100000
b1 8
14
07
16
0.
0D
0=
0G
0;
b1000 >
1!
#2124000
b1111111111111010 1
b1111111111111010 J
b1011010 *
b1011010 @
b11010100 I
b1011010 ?
b1001011 5
17
14
16
b1000 8
b101011 +
1(
b1 )
b1 $
0'
0-
#2125000
0!
#2150000
14
17
16
0B
0F
1=
1!
#2174000
b111111001001111 1
b111111001001111 J
b10010110 *
b10010110 @
1,
b10011101 I
b10010110 ?
b11000011 5
1#
b1 8
14
07
16
b10111001 +
b11 )
b0 $
1'
1-
1&
#2175000
0!
#2200000
b11000011 A
b11000011 C
0,
0#
b10000 8
1.
1D
04
16
1G
0E
1B
1:
b1 >
1!
#2224000
b1111110011000000 1
b1111110011000000 J
b1001011 A
b1011010 *
b1011010 @
b1001011 C
b1011111 I
b1011010 ?
b1001011 5
b11111010 +
0(
b1 )
b1 $
#2225000
0!
#2250000
b0 A
b0 C
b100 8
13
16
1.
1D
b10000 >
1;
1F
0=
1!
#2274000
b1111111100110110 1
b1111111100110110 J
b11110 *
b11110 @
b11110110 I
b11110 ?
b10000111 5
0/
b1101111 +
b10 )
b10 $
0'
#2275000
0!
#2300000
1/
b0 *
b0 @
b1000 8
14
17
03
16
1.
1D
1E
0<
b100 >
1!
#2324000
b1111111011001000 1
b1111111011001000 J
0/
b10100011 I
b11010010 ?
b11000011 5
13
04
07
16
1.
1D
b100 8
b11000101 +
b0 )
b0 $
0-
0&
#2325000
0!
#2350000
0:
0B
1!
#2374000
b111110010010101 1
b111110010010101 J
1,
b1000110 I
1/
b11010010 *
b11010010 @
b1100010 +
1'
#2375000
0!
#2400000
0,
1<
1B
0;
1!
#2424000
b111111011011001 1
b111111011011001 J
b1011010 *
b1011010 @
b10100100 I
b1011010 ?
b1111 5
1#
b1000 8
14
17
03
16
1.
1D
b100101 +
b1 )
b11 $
1-
1&
#2425000
0!
#2450000
1"
b1 8
14
07
16
0.
0D
0#
b1000 >
1:
0G
1!
#2474000
b1111111000100110 1
b1111111000100110 J
b11010010 *
b11010010 @
b10001110 I
b11010010 ?
0/
b1110001 +
b0 )
0'
#2475000
0!
#2500000
0"
b1111 A
b1000000010011011 0
b1111 C
b1111 *
b1111 @
b1010011100100011 1
b1010011100100011 J
b10 8
1.
1D
04
16
0F
0<
1;
b1111111000100110 2
b1111111000100110 H
b1 >
1!
#2524000
b10010000011100 1
b10010000011100 J
b10000111 A
b10000111 C
b100 I
b10000111 5
1/
b11010010 *
b11010010 @
16
1.
1D
b10 8
b100000 +
1(
b10 $
1'
0-
#2525000
0!
#2550000
b100000 A
06
1.
1D
b10 >
1<
0E
1F
1=
1!
#2574000
b10011101000000 1
b10011101000000 J
b1011010 *
b1011010 @
b1001011 C
b1111001 A
b10011110 I
b1011010 ?
b1001011 5
0/
1.
1D
b1111001 +
b1 )
b1 $
0'
0&
#2575000
0!
#2600000
1.
1D
1E
0B
0:
1!
#2624000
b1010011110010111 1
b1010011110010111 J
b10010110 *
b10010110 @
1,
b10000000 C
b10000000 A
b10111000 I
b10010110 ?
b1111 5
1/
b100 8
13
16
19
1.
1D
b11101 +
b11 )
b11 $
1'
1-
#2625000
0!
#2650000
b10011011 A
b10011011 C
b1000 8
14
17
03
09
16
1.
1D
0,
b100 >
0;
1B
1!
#2674000
b10010001000110 1
b10010001000110 J
b10000000 A
b1011010 *
b1011010 @
b10000000 C
b11111 I
b1011010 ?
b11000011 5
1#
13
04
07
16
1.
1D
b100 8
b11111000 +
0(
b1 )
b0 $
0-
1&
#2675000
0!
#2700000
b0 A
b0 C
b0 0
13
16
1.
1D
0#
b111110101000011 1
b111110101000011 J
0=
1G
1:
b1111111111111111 2
b1111111111111111 H
1!
#2724000
b1111111101110010 1
b1111111101110010 J
b11010010 *
b11010010 @
b11101000 I
b11010010 ?
b10000111 5
0/
b10111 +
b0 )
b10 $
0'
#2725000
0!
#2750000
1;
1!
#2774000
b1111111111100100 1
b1111111111100100 J
b11010001 I
b11000011 5
13
16
1.
1D
b10001011 +
b0 $
0&
#2775000
0!
#2800000
0B
0:
1!
#2824000
b111111010001001 1
b111111010001001 J
b1011010 *
b1011010 @
1/
b10111100 I
b1011010 ?
b10000111 5
b1000 8
14
17
03
16
1.
1D
b111101 +
b1 )
b10 $
1-
#2825000
0!
#2850000
0/
b1 8
14
07
16
0.
0D
b0 *
b0 @
b1000 >
0;
0<
0G
1!
#2874000
b111110100111011 1
b111110100111011 J
1,
b1011 I
1/
b1011010 *
b1011010 @
1#
17
14
16
b1000 8
b11010000 +
1'
0-
1&
#2875000
0!
#2900000
1"
0,
0#
0F
1<
1B
1:
1!
#2924000
b1111111111101110 1
b1111111111101110 J
b11010010 I
14
17
16
b1001011 +
0&
#2925000
0!
#2950000
b10001000 A
b10001000 C
0"
b10001000 0
b1110111011101110 1
b1110111011101110 J
14
17
16
b1111111111101110 2
b1111111111101110 H
1;
0:
0E
1!
#2974000
b110111000011011 1
b110111000011011 J
b11111011 I
b11000011 5
1#
14
17
16
b11011111 +
1(
b0 $
1&
#2975000
0!
#3000000
b0 A
1"
b0 C
b0 0
14
17
16
0#
b111111100011011 1
b111111100011011 J
1=
1:
0;
b1111111111111111 2
b1111111111111111 H
1!
#3024000
b111111001011011 1
b111111001011011 J
b11110 *
b11110 @
b10011011 I
b11110 ?
b1 8
14
07
16
b11011001 +
b10 )
1-
0&
#3025000
0!
#3050000
0"
b11000011 C
b11011001 A
b1000000100100101 0
04
06
b1101100101011101 1
b1101100101011101 J
b1 >
b111111001011011 2
b111111001011011 H
1;
0:
1!
#3074000
b1101100110011011 1
b1101100110011011 J
b1111 C
b1011101 A
b10111010 I
b1111 5
b1011101 +
0(
b11 $
0-
#3075000
0!
#3100000
0=
0;
1!
#3124000
b101100101011000 1
b101100101011000 J
b1001011 C
b1011001 A
b10011010 I
b1001011 5
b1011001 +
b1 $
#3125000
0!
#3150000
1!
#3174000
b101101000000100 1
b101101000000100 J
b1111 C
b0 A
b0 I
b1111 5
b0 +
1(
b11 $
#3175000
0!
#3200000
1=
1!
#3224000
b101101000110010 1
b101101000110010 J
b1011010 *
b1011010 @
b1001011 C
b1001011 A
b1001 I
b1011010 ?
b1001011 5
0/
1#
16
b10000 8
1.
1D
b10010000 +
b1 )
b1 $
0'
1-
1&
#3225000
0!
#3250000
b0 A
b0 C
b0 0
b100 8
13
16
1.
1D
b1111110100110100 1
b1111110100110100 J
0#
b0 *
b0 @
b10000 >
b1111111111111111 2
b1111111111111111 H
1:
0<
1F
1G
1!
#3274000
b111110111001011 1
b111110111001011 J
b100011 I
b11010010 ?
b10000111 5
1/
b11010010 *
b11010010 @
b11000100 +
b0 )
b10 $
1'
#3275000
0!
#3300000
b1000 8
14
17
03
16
1.
1D
1E
1<
1;
b100 >
1!
#3324000
b1111110111111000 1
b1111110111111000 J
b10010110 *
b10010110 @
b101011 I
b10010110 ?
b11000011 5
14
17
16
1.
1D
b1000 8
b11010100 +
b11 )
b0 $
0'
0&
#3325000
0!
#3350000
0/
b1 8
14
07
16
0.
0D
b0 *
b0 @
b1000 >
0:
0B
0<
0G
1!
#3374000
b111110100000111 1
b111110100000111 J
1,
b1 I
b1011010 ?
b1111 5
1/
b1011010 *
b1011010 @
1#
17
14
16
b1000 8
b10000000 +
b1 )
b11 $
1'
0-
1&
#3375000
0!
#3400000
1"
0,
0#
0F
1<
1B
1:
0;
1!
#3424000
b111111001110011 1
b111111001110011 J
b11110 *
b11110 @
b10010111 I
b11110 ?
0/
b1 8
14
07
16
b11101001 +
b10 )
0'
1-
0&
#3425000
0!
#3450000
0"
b1000000100110001 0
b1111 C
b11101001 A
b1111000101110101 1
b1111000101110101 J
b11101001 *
b11101001 @
04
06
b1 >
b111111001110011 2
b111111001110011 H
1;
0:
0B
0<
0E
1!
#3474000
b111001000010000 1
b111001000010000 J
b1001011 C
1,
b1100000 A
b110 I
b1011010 ?
b1001011 5
1/
b1011010 *
b1011010 @
b1100000 +
0(
b1 )
b1 $
1'
0-
#3475000
0!
#3500000
0,
0=
1<
1B
0;
1!
#3524000
b1111001100110011 1
b1111001100110011 J
b1001011 A
b1110110 I
0/
1#
16
b10 8
1.
1D
b1101110 +
1(
0'
1&
#3525000
0!
#3550000
1"
b0 0
b1101110 A
b111110000110101 1
b111110000110101 J
0#
06
1.
1D
b10 >
b1111111111111111 2
b1111111111111111 H
1:
1F
1=
1!
#3574000
b111111000100011 1
b111111000100011 J
b11110 *
b11110 @
b11000011 C
b11110001 A
b10001111 I
b11110 ?
b11000011 5
1.
1D
b11110001 +
b10 )
b0 $
1-
#3575000
0!
#3600000
b1000000100111011 0
19
1.
1D
b11110001 *
b11110001 @
b1010000100100101 1
b1010000100100101 J
1E
0<
1;
b111111000100011 2
b111111000100011 H
1!
#3624000
b1010000011011011 1
b1010000011011011 J
0"
b1011011 *
b1011011 @
b1011011 A
b11011010 I
b1011010 ?
09
1.
1D
b1011011 +
b1 )
0-
#3625000
0!
#3650000
1!
#3674000
b1010000100111011 1
b1010000100111011 J
b1111 C
b1010001 A
b10001010 I
b10010110 ?
b1111 5
1/
b10010110 *
b10010110 @
b1010001 +
b11 )
b11 $
1'
#3675000
0!
#3700000
1<
1!
#3724000
b1010001111111111 1
b1010001111111111 J
1"
b11110 *
b11110 @
b1001011 C
b101010 A
b1010100 I
b11110 ?
b1001011 5
0/
19
1.
1D
b101010 +
0(
b10 )
b1 $
0'
1-
#3725000
0!
#3750000
b11101000000000 0
b111110100110001 1
b111110100110001 J
b101010 *
b101010 @
19
1.
1D
b1010001111111111 2
b1010001111111111 H
0<
0=
1!
#3774000
b1111111011110100 1
b1111111011110100 J
b10101111 A
b11110101 I
b1011010 ?
1/
b1011010 *
b1011010 @
b10101111 +
1(
b1 )
1'
#3775000
0!
#3800000
b1000000011010000 0
19
1.
1D
b111010000111001 1
b111010000111001 J
1=
1<
b1111111011110100 2
b1111111011110100 H
1!
#3824000
b111011111110011 1
b111011111110011 J
b11110 *
b11110 @
b10000111 C
b1101010 A
b1010110 I
b11110 ?
b10000111 5
0/
b1101010 +
b10 )
b10 $
0'
#3825000
0!
#3850000
b1000100110000 0
b1111001111000110 1
b1111001111000110 J
b1101010 *
b1101010 @
b111011111110011 2
b111011111110011 H
0<
1!
#3874000
b1111001010101110 1
b1111001010101110 J
0"
b1001011 C
b1011100 A
b111010 I
b11010010 ?
b1001011 5
1/
b11010010 *
b11010010 @
09
1.
1D
b1011100 +
0(
b0 )
b1 $
1'
0-
0&
#3875000
0!
#3900000
1.
1D
0=
1<
0:
1!
#3924000
b1111001010010010 1
b1111001010010010 J
1"
b11110 *
b11110 @
b1111 C
b1100 A
b110000 I
b11110 ?
b1111 5
0/
1#
19
1.
1D
b1100 +
1(
b10 )
b11 $
0'
1-
1&
#3925000
0!
#3950000
b0 0
b1111110110100010 1
b1111110110100010 J
0#
b1100 *
b1100 @
19
1.
1D
b1111111111111111 2
b1111111111111111 H
0;
1:
0<
1=
1!
#3974000
b111111011100101 1
b111111011100101 J
b1001011 C
b1110101 A
b10101110 I
b10010110 ?
b1001011 5
1/
b10010110 *
b10010110 @
09
1.
1D
b1110101 +
0(
b11 )
b1 $
1'
0-
0&
#3975000
0!
#4000000
0"
b1000000101011000 0
1.
1D
b110011111100011 1
b110011111100011 J
0=
1<
0:
1;
b111111011100101 2
b111111011100101 H
1!
#4024000
b110010110000111 1
b110010110000111 J
b1011010 *
b1011010 @
b10000001 C
b10000001 A
b1000000 I
b1011010 ?
0/
b100 8
13
16
19
1.
1D
b10 +
b1 )
0'
1-
#4025000
0!
#4050000
b1011000 A
1/
b1011000 C
b1000 8
14
17
03
09
16
1.
1D
b1011000 *
b1011000 @
b100 >
0;
0B
0<
1!
#4074000
b1110011111100110 1
b1110011111100110 J
b10000001 A
1,
b10000001 C
b10101111 I
b11010010 ?
b1111 5
b11010010 *
b11010010 @
13
04
07
16
1.
1D
b100 8
b11110101 +
b0 )
b11 $
1'
0-
#4075000
0!
#4100000
0,
1<
1B
1!
#4124000
b1110011110111100 1
b1110011110111100 J
b1011000 A
b1011010 *
b1011010 @
b1011000 C
b10110100 I
b1011010 ?
b1001011 5
b1000 8
14
17
03
16
1.
1D
b101101 +
b1 )
b1 $
0'
1-
#4125000
0!
#4150000
0/
b1 8
14
07
16
0.
0D
b1011000 *
b1011000 @
b1000 >
0B
0<
1!
#4174000
b1110011110101000 1
b1110011110101000 J
1,
1/
b10110010 I
b11010010 ?
b11000011 5
1#
17
14
16
b1000 8
b1001101 +
1(
b0 )
b0 $
0-
1&
#4175000
0!
#4200000
b0 *
b0 @
b0 A
1"
b0 C
b0 0
14
17
16
0,
0#
b1111111010101110 1
b1111111010101110 J
1=
0F
1B
1:
b1111111111111111 2
b1111111111111111 H
1!
#4224000
b1111110101001100 1
b1111110101001100 J
b11101 I
b11110 ?
b11110 *
b11110 @
b1 8
14
07
16
b10111000 +
0(
b10 )
1'
1-
#4225000
0!
#4250000
0"
b11000011 A
b100000011001101 0
b11000011 C
b1100111001000011 1
b1100111001000011 J
b10 8
1.
1D
04
16
b1 >
b1111110101001100 2
b1111110101001100 H
1;
1<
0E
0=
1!
#4274000
b1100110001100011 1
b1100110001100011 J
b10010110 *
b10010110 @
b1111 C
b10110111 A
b11101101 I
b10010110 ?
b1111 5
0/
06
0.
0D
b1 8
b10110111 +
1(
b11 )
b11 $
0'
0-
0&
#4275000
0!
#4300000
1=
0B
0:
1!
#4324000
b1100111000111011 1
b1100111000111011 J
b11010010 *
b11010010 @
b10000111 C
1,
b10000111 A
b1001 I
b11010010 ?
b10000111 5
1/
1#
16
b10000 8
1.
1D
b10010000 +
0(
b0 )
b10 $
1'
1-
1&
#4325000
0!
#4350000
b0 A
b0 0
b0 C
b1111110100110100 1
b1111110100110100 J
0#
0,
b100 8
13
16
1.
1D
b10000 >
b1111111111111111 2
b1111111111111111 H
0;
1:
1B
1F
1G
0=
1!
#4374000
b1111110101011000 1
b1111110101011000 J
b11011 I
b1111 5
13
16
1.
1D
b100 8
b11011000 +
1(
b11 $
0-
0&
#4375000
0!
#4400000
13
16
1.
1D
1=
1E
0:
1;
b100 >
1!
#4424000
b111111001010001 1
b111111001010001 J
b10011000 I
b11000011 5
1#
b1000 8
14
17
03
16
1.
1D
b11001 +
0(
b0 $
1-
1&
#4425000
0!
#4450000
1"
0#
b1 8
14
07
16
0.
0D
b1000 >
0;
1:
0G
0=
1!
#4474000
b1111110001000010 1
b1111110001000010 J
b1100000 I
17
14
16
b1000 8
b110 +
0-
#4475000
0!
#4500000
b10111101 A
0"
b10111101 C
b1100000010111101 0
b100000101001000 1
b100000101001000 J
0F
1;
b1111110001000010 2
b1111110001000010 H
1!
#4524000
b100000110100110 1
b100000110100110 J
b11110 *
b11110 @
b1001101 I
b11110 ?
b10000111 5
14
17
16
b10110010 +
1(
b10 )
b10 $
0&
#4525000
0!
#4550000
14
17
16
0:
0E
1=
1!
#4574000
b1100001101101101 1
b1100001101101101 J
b11010010 *
b11010010 @
b10010001 I
b11010010 ?
b1111 5
b1 8
14
07
16
b10001001 +
0(
b0 )
b11 $
1-
#4575000
0!
#4600000
b1111 C
b10001001 A
04
06
0=
0;
b1 >
1!
#4624000
b1100001011110101 1
b1100001011110101 J
b1011010 *
b1011010 @
b11000011 C
b11000011 A
b11010101 I
b1011010 ?
b11000011 5
1#
16
b10 8
1.
1D
b10101011 +
1(
b1 )
b0 $
1&
#4625000
0!
#4650000
1"
b0 0
b10101011 A
b111111111111111 1
b111111111111111 J
0#
06
1.
1D
b10 >
b1111111111111111 2
b1111111111111111 H
1:
1F
1=
1!
