tests/sd_cmd_master/sd_cmd_master.vcd
$date
	Mon Apr 20 23:03:48 2020
$end
$version
	Icarus Verilog
$end
$timescale
	1ps
$end
$scope module sd_cmd_master_bench $end
$scope module sd_cmd_master_ $end
$var wire 32 ! argument_i [31:0] $end
$var wire 1 " busy_i $end
$var wire 14 # command_i [13:0] $end
$var wire 1 $ crc_ok_i $end
$var wire 1 % finish_i $end
$var wire 1 & index_ok_i $end
$var wire 1 ' int_status_rst_i $end
$var wire 120 ( response_i [119:0] $end
$var wire 1 ) rst $end
$var wire 1 * sd_clk $end
$var wire 1 + start_i $end
$var wire 24 , timeout_i [23:0] $end
$var wire 2 - setting_o [1:0] $end
$var wire 5 . int_status_o [4:0] $end
$var reg 1 / busy_check $end
$var reg 40 0 cmd_o [39:0] $end
$var reg 1 1 crc_check $end
$var reg 1 2 expect_response $end
$var reg 1 3 go_idle_o $end
$var reg 1 4 index_check $end
$var reg 5 5 int_status_reg [4:0] $end
$var reg 1 6 long_response $end
$var reg 2 7 next_state [1:0] $end
$var reg 32 8 response_0_o [31:0] $end
$var reg 32 9 response_1_o [31:0] $end
$var reg 32 : response_2_o [31:0] $end
$var reg 32 ; response_3_o [31:0] $end
$var reg 1 < start_xfr_o $end
$var reg 2 = state [1:0] $end
$var reg 24 > timeout_reg [23:0] $end
$var reg 24 ? watchdog [23:0] $end
$scope begin FSM_COMBO $end
$upscope $end
$scope begin FSM_SEQ $end
$upscope $end
$upscope $end
$upscope $end
$enddefinitions $end
#0
$dumpvars
b0 ?
b0 >
b0 =
0<
b0 ;
b0 :
b0 9
b0 8
b0 7
06
b0 5
04
03
02
01
b0 0
0/
b0 .
b0 -
bx ,
x+
1*
1)
bx (
x'
x&
x%
x$
bx #
x"
bx !
$end
#24000
b1 7
1'
1$
b10001001001101110101001000010010 !
b10001100101 #
1%
1&
1+
1"
b100010010101111010000001 ,
b10010000101010011010100100100 (
#25000
0*
#26000
0)
#50000
b10 7
b1 =
1<
b100010010101111010000001 >
b100010010001001001101110101001000010010 0
b1 -
12
1/
1*
#74000
b1 7
b11010101000100111101001010101010 !
b10011000101 #
0%
0+
b100011011100110100111101 ,
b111011001000111111000101110110 (
#75000
0*
#100000
b1 ?
0<
1*
#124000
b10 7
b11011110100011100010100010111101 !
b100101011100 #
1%
0&
0"
b111011001101101110001111 ,
b111111111111111111111111111111111111111111111111111111111111111111111111111111111111111110001001001100101101011000010010 (
#125000
0*
#150000
b0 7
b10 =
b110010110101100001001000000000 ;
b11111111111111111111111110001001 :
b11111111111111111111111111111111 9
b11111111111111111111111111111111 8
b0 5
b10 ?
1*
#174000
b10001001100000111011100000010011 !
b11111010010110 #
b11100111000011100001010 ,
b111111111111111111111111111111111111111111111111111111111111111111111111111111111111111110110001111011110110001001100011 (
#175000
0*
#200000
b0 =
1*
#224000
0'
0$
b101000010010110010100001010 !
b100100100011 #
1&
b101001100010101011010101 ,
b110101100111111101110101101011 (
#225000
0*
#250000
b0 ?
b101001100010101011010101 >
b100100100000101000010010110010100001010 0
b11 -
16
0/
1*
#274000
b1011011000000100110010110110110 !
b110111101011 #
0&
1"
b1011100110000110001010 ,
b1111001011010001011110111110010 (
#275000
0*
#300000
b1011100110000110001010 >
b100110101011011000000100110010110110110 0
11
1*
#324000
b1 7
1'
b11101000001100011001100111010 !
b10000000111011 #
1&
1+
b11111101110100101010 ,
b111111111111111111111111111111111111111111111111111111111111111111111111111111111111111111011110011101010000001010111100 (
#325000
0*
#350000
b0 7
b1 =
1<
b11111101110100101010 >
b110000000011101000001100011001100111010 0
14
1*
#374000
0'
1$
b11011011110011010110000010110111 !
b10100111111000 #
0+
0"
b100111000100101111011001 ,
b1111000110110011001101111110001 (
#375000
0*
#400000
b1 .
b0 =
b11011001100110111111000100000000 ;
b1111000 :
b0 9
b0 8
b1 5
b1 ?
0<
1*
#424000
0$
b110000111010111111100001100 !
b10111110010110 #
1"
b110111100011011110001001 ,
b111111111111111111111111111111111111111111111111111111111111111111111111111111111111111110101101110010111100000001011011 (
#425000
0*
#450000
b0 ?
b110111100011011110001001 >
b110111100000110000111010111111100001100 0
1/
01
1*
#474000
1$
b11101001111010111111011011010011 !
b111100011111 #
0"
b111100101110110100111101 ,
b111111111111111111111111111111111111111111111111111111111111111111111111111111111111111110111011100000100101101001110111 (
#475000
0*
#500000
b111100101110110100111101 >
b100111111101001111010111111011011010011 0
11
1*
#524000
0$
b11001110001011111111001010011100 !
b110010001110 #
0%
0&
1"
b100010110100101101001001 ,
b101101110110100101100101011011 (
#525000
0*
#550000
b100010110100101101001001 >
b100110011001110001011111111001010011100 0
04
1*
#574000
b1 7
b11100101100110110011011011001011 !
b11110111110111 #
1&
1+
b100010111011010010100011 ,
b111001100101100001011101110011 (
#575000
0*
#600000
b0 .
b1 =
b0 5
1<
b100010111011010010100011 >
b111110111100101100110110011011011001011 0
01
14
1*
#624000
b10 7
b100010001100011111111101000100 !
b1100101111001 #
1%
0"
b100000101110001011101101 ,
b10100110011111100000100101001 (
#625000
0*
#650000
b0 7
b10 =
b11001111110000010010100100000000 ;
b10100 :
b1 5
b1 ?
0<
1*
#674000
1$
b100111011110011110100101001110 !
b10110101010110 #
0+
b11011111100111100001110 ,
b1010101111101101010110110101011 (
#675000
0*
#700000
b1 .
b0 =
1*
#724000
1'
b10101100101101111100101001011001 !
b10110000000100 #
0&
1"
b11101000101000111000 ,
b1011011011011111011100110110110 (
#725000
0*
#750000
b0 .
b0 5
b0 ?
b11101000101000111000 >
b110110010101100101101111100101001011001 0
06
b0 -
02
04
1*
#774000
b10011101001001101100000100 !
b1101001000110 #
0"
b101001000010011001101101 ,
b1101100101100001011011111011001 (
#775000
0*
#800000
b101001000010011001101101 >
b101101000000010011101001001101100000100 0
16
b11 -
12
1*
#824000
b1 7
b1110010000010100010100011100 !
b10010000001000 #
0%
1&
1+
b11000110110001000 ,
b111111111111111111111111111111111111111111111111111111111111111111111111111111111111111111011010011011101011101010110100 (
#825000
0*
#850000
b1 =
1<
b11000110110001000 >
b110010000001110010000010100010100011100 0
06
b0 -
02
0/
11
1*
#874000
0'
0$
b1011101011100011001100110111010 !
b10001110011 #
0&
b1101010110011110000110 ,
b111111111111111111111111111111111111111111111111111111111111111111111111111111111111111110001110001101111001000000011100 (
#875000
0*
#900000
b1 ?
0<
1*
#924000
1$
b11011011010001100001101010110110 !
b1111100100110 #
1"
b1001001111011000011010 ,
b1101010100011100000010111010101 (
#925000
0*
#950000
b10 ?
1*
#974000
b0 7
1'
b10110000101111001110111001100001 !
b10010011111010 #
1%
1&
0"
b111111111101111000 ,
b1000011011000010101011110000110 (
#975000
0*
#1000000
b1 7
b0 =
b0 5
b11 ?
1*
#1024000
b11001100000000011011010010011000 !
b11010011000101 #
1"
b11000111001011001010000 ,
b1000011011101111001000110000110 (
#1025000
0*
#1050000
b10 7
b1 =
1<
b0 ?
b11000111001011001010000 >
b111010011001100000000011011010010011000 0
b1 -
12
1/
01
1*
#1074000
0'
b11110011001101000110011011100110 !
b11100100001110 #
0+
0"
b10100000001011010001010 ,
b111111111111111111111111111111111111111111111111111111111111111111111111111111111111111111110110001000101110011011101100 (
#1075000
0*
#1100000
b0 7
b10 =
b100010111001101110110000000000 ;
b11111111111111111111111111110110 :
b11111111111111111111111111111111 9
b11111111111111111111111111111111 8
b1 5
b1 ?
0<
1*
#1124000
1'
b1001111111110100000100010011 !
b10111001010 #
0%
b101101011111010010001101 ,
b10101010110100001110100101010 (
#1125000
0*
#1150000
b0 =
b0 5
1*
#1174000
b1 7
0'
0$
b11000011001100111001000010000110 !
b11101101111111 #
0&
1+
b1011001110110111010 ,
b1011011000010111101110110110110 (
#1175000
0*
#1200000
b1 =
1<
b0 ?
b1011001110110111010 >
b111101111000011001100111001000010000110 0
b11 -
16
11
14
1*
#1224000
b10 7
1'
1$
b1000111011001011010100110001110 !
b10100010100001 #
1%
0+
b110011100101111010111101 ,
b11001010001010010000100110010 (
#1225000
0*
#1250000
b0 7
b10 =
b1000101001000010011001000000000 ;
b11001 :
b0 9
b0 8
b0 5
b1 ?
0<
1*
#1274000
0'
b11010111001111111011010010101110 !
b10011110001000 #
1&
1+
b110010000011110111001001 ,
b111111111111111111111111111111111111111111111111111111111111111111111111111111111111111111110111100000101001000011101111 (
#1275000
0*
#1300000
b1 7
b0 =
1*
#1324000
b0 7
b1100000000111001110100011000 !
b11110111101100 #
0&
0+
1"
b100001001110000000101101 ,
b10100010001001101111100101000 (
#1325000
0*
#1350000
b0 ?
b100001001110000000101101 >
b111110100001100000000111001110100011000 0
06
b0 -
02
04
1*
#1374000
b1 7
b10000010011100111110001000000100 !
b11101011100010 #
1+
0"
b101111110110010000111011 ,
b111111111111111111111111111111111111111111111111111111111111111111111111111111111111111110100000110000000010010001000001 (
#1375000
0*
#1400000
b0 7
b1 =
1<
b101111110110010000111011 >
b111101010000010011100111110001000000100 0
16
b11 -
12
0/
01
1*
#1424000
1'
b1100100000110111000010111001000 !
b1110110000001 #
1&
1"
b110100010010111000 ,
b1001001111100100110100010010 (
#1425000
0*
#1450000
b1 7
b0 =
b111110010011010001001000000000 ;
b1001 :
b0 5
b1 ?
0<
1*
#1474000
b0 7
b11011000101011001110001010110001 !
b11000010010110 #
0%
0&
0+
0"
b1000100011101000000100 ,
b111111111111111111111111111111111111111111111111111111111111111111111111111111111111111110001111100011000110111000011111 (
#1475000
0*
#1500000
b0 ?
b1000100011101000000100 >
b111000011011000101011001110001010110001 0
1/
14
1*
#1524000
b1 7
b11011100111011111001000010111001 !
b10011011100111 #
1%
1+
1"
b101100010001101111110101 ,
b10101100010110010101100101011 (
#1525000
0*
#1550000
b10 7
b1 =
1<
b101100010001101111110101 >
b110011011011100111011111001000010111001 0
04
1*
#1574000
0'
0$
b10111110011101010100001001111100 !
b10110000011 #
0+
b100000111011000101010001 ,
b1100100101110100000111111001001 (
#1575000
0*
#1600000
b10 =
b10111010000011111100100100000000 ;
b1100100 :
b1 5
b1 ?
0<
1*
#1624000
b0 7
1$
b1111011000011011010100111110110 !
b11011000101000 #
0%
0"
b110111111010101001101111 ,
b111111111111111111111111111111111111111111111111111111111111111111111111111111111111111110110100010101011111001001101000 (
#1625000
0*
#1650000
b1 .
b0 =
1*
#1674000
1'
b11110000101100010100111011100001 !
b11010100010101 #
b110111100111000100111001 ,
b111010011000100101111101110100 (
#1675000
0*
#1700000
b0 .
b0 5
b0 ?
b110111100111000100111001 >
b111010111110000101100010100111011100001 0
b1 -
06
14
1*
#1724000
b1 7
0$
b10110010110110111101100101100 !
b10011100000111 #
1&
1+
1"
b1101100000010010000110 ,
b1100100101101011110001111001001 (
#1725000
0*
#1750000
b1 =
1<
b1101100000010010000110 >
b110011100010110010110110111101100101100 0
b11 -
16
04
1*
#1774000
b10 7
0'
b11010000000010110001001010100000 !
b11101000100000 #
1%
0&
0+
b11000001110010110110110 ,
b111111111111111111111111111111111111111111111111111111111111111111111111111111111111111110011101111000010111110000111011 (
#1775000
0*
#1800000
b10 =
b11100001011111000011101100000000 ;
b11111111111111111111111110011101 :
b11111111111111111111111111111111 9
b11111111111111111111111111111111 8
b1 5
b1 ?
0<
1*
#1824000
1'
1$
b1000111111000100111001110001111 !
b1001001111011 #
1+
b110111001111000000001101 ,
b1101110100010101111010111011101 (
#1825000
0*
#1850000
b0 5
1*
#1874000
b0 7
0'
b1111100000111100101101111111000 !
b1010101010010 #
0"
b111110010011110110110001 ,
b1110100100100100001100011101 (
#1875000
0*
#1900000
b1 7
b0 =
1*
#1924000
b0 7
0$
b11010101010110111011110010101010 !
b1011110000100 #
0%
1&
0+
b11010101111110101000110 ,
b1000010000110011110011110000100 (
#1925000
0*
#1950000
b0 ?
b11010101111110101000110 >
b101011111010101010110111011110010101010 0
06
b0 -
02
1*
#1974000
b1 7
1'
1$
b10001010011001001011000000010100 !
b11110001001001 #
0&
1+
b101000010110000010001011 ,
b1011101010010100100110110111010 (
#1975000
0*
#2000000
b1 =
1<
b101000010110000010001011 >
b111110010001010011001001011000000010100 0
b1 -
12
0/
11
1*
#2024000
0'
b1000110011111000100010110001100 !
b1000000101100 #
b100100000111010101000111 ,
b111111111111111111111111111111111111111111111111111111111111111111111111111111111111111110101110011010000011000001011100 (
#2025000
0*
#2050000
b1 ?
0<
1*
#2074000
b0 7
1'
b1100100111000010110010111001001 !
b10111110100100 #
1%
1"
b11010101111111111101000 ,
b1000100101011111100100010001 (
#2075000
0*
#2100000
b1 7
b0 =
b10010101111110010001000100000000 ;
b1000 :
b0 9
b0 8
b0 5
b10 ?
1*
#2124000
b0 7
0$
b10000000000001011011100100000 !
b1101011011001 #
0+
b100000110110010101100111 ,
b111111111111111111111111111111111111111111111111111111111111111111111111111111111111111111101010010110000001010011010100 (
#2125000
0*
#2150000
b0 ?
b100000110110010101100111 >
b101101000010000000000001011011100100000 0
14
1*
#2174000
b1 7
0'
b11100100011010111111100111001 !
b10100000101011 #
0%
1+
0"
b10010111000001000101010 ,
b1110001101101000110000111100011 (
#2175000
0*
#2200000
b1 =
1<
b10010111000001000101010 >
b110100000011100100011010111111100111001 0
b11 -
16
04
1*
#2224000
1'
1$
b10000000011110010111110000000000 !
b1001110111011 #
1&
b1010111001011011010000 ,
b101100100001001000100101011001 (
#2225000
0*
#2250000
b1 ?
0<
1*
#2274000
b0 7
0'
0$
b111011100000111100110101110111 !
b10010001101001 #
1%
0&
1"
b101010000001100101011001 ,
b111111111111111111111111111111111111111111111111111111111111111111111111111111111111111110000110010100110110001000001100 (
#2275000
0*
#2300000
b1 7
b1011 .
b0 =
b1010011011000100000110000000000 ;
b11111111111111111111111110000110 :
b11111111111111111111111111111111 9
b11111111111111111111111111111111 8
b1011 5
b10 ?
1*
#2324000
1'
b1011010110101101100011110110101 !
b1001101110111 #
0%
0"
b11101001101011000100 ,
b1001101110111010100110110011011 (
#2325000
0*
#2350000
b0 .
b1 =
b0 5
1<
b0 ?
b11101001101011000100 >
b101001101011010110101101100011110110101 0
1/
01
14
1*
#2374000
b11100010111011001101101011000101 !
b1111111000010 #
1&
1"
b101000011010110111101001 ,
b111011000010111001011101110110 (
#2375000
0*
#2400000
b1 ?
0<
1*
#2424000
b10 7
0'
b11001010101101000111110010010101 !
b11011111100001 #
1%
0&
0+
b111110111011100110101111 ,
b111111111111111111111111111111111111111111111111111111111111111111111111111111111111111110110011000000101101101001100110 (
#2425000
0*
#2450000
b10 =
b10110110100110011000000000 ;
b11111111111111111111111110110011 :
b10011 5
b10 ?
1*
#2474000
b0 7
1$
b1000000101010101111010110000001 !
b1010101101110 #
1&
1+
0"
b1000001110101000101000 ,
b111111111111111111111111111111111111111111111111111111111111111111111111111111111111111111110010100111000101111011100101 (
#2475000
0*
#2500000
b1 7
b10011 .
b0 =
1*
#2524000
1'
b11110011001100100110100111100 !
b1110011100010 #
0%
1"
b11110000000000010101010 ,
b1111000011000100111000111110000 (
#2525000
0*
#2550000
b0 .
b1 =
b0 5
1<
b0 ?
b11110000000000010101010 >
b101110000011110011001100100110100111100 0
0/
04
1*
#2574000
b0 7
b101000110001100010011101010001 !
b101100101 #
1%
0"
b101000100011110010101111 ,
b111111111111111111111111111111111111111111111111111111111111111111111111111111111111111110101101111001111101000001011011 (
#2575000
0*
#2600000
b1 7
b0 =
b11100111110100000101101100000000 ;
b11111111111111111111111110101101 :
b0 5
b1 ?
0<
1*
#2624000
b0 7
b1110010110000111010001111100101 !
b1111101011001 #
0&
0+
b111010100011101001110001 ,
b111111111111111111111111111111111111111111111111111111111111111111111111111111111111111110011101000100100000100000111010 (
#2625000
0*
#2650000
b0 ?
b111010100011101001110001 >
b101111101110010110000111010001111100101 0
b1 -
06
11
14
1*
#2674000
b1 7
0'
0$
b1011110100110000011110110111101 !
b10000010100010 #
0%
1+
1"
b110000011101000110101111 ,
b111111111111111111111111111111111111111111111111111111111111111111111111111111111111111110100000101011101100110001000001 (
#2675000
0*
#2700000
b1 =
1<
b110000011101000110101111 >
b110000001011110100110000011110110111101 0
b11 -
16
01
04
1*
#2724000
1'
b111100101100111010101101111001 !
b1101100100011 #
0+
b100001101111010001111011 ,
b111111111111111111111111111111111111111111111111111111111111111111111111111111111111111110101000011011000101111001010000 (
#2725000
0*
#2750000
b1 ?
0<
1*
#2774000
b0 7
b11011001101110001100000010110011 !
b10111110111001 #
1%
0"
b100001111001010001110011 ,
b111111111111111111111111111111111111111111111111111111111111111111111111111111111111111110000111000011001110111000001110 (
#2775000
0*
#2800000
b0 =
b1100111011100000111000000000 ;
b11111111111111111111111110000111 :
b0 5
b10 ?
1*
#2824000
b1 7
b1011100011110010101000110111000 !
b10100100000010 #
0%
1&
1+
b111111000111101000111001 ,
b110011011001111000100001100 (
#2825000
0*
#2850000
b1 =
1<
b0 ?
b111111000111101000111001 >
b110100101011100011110010101000110111000 0
1*
#2874000
b0 7
0'
1$
b10010101010010000001100100101 !
b10011001000000 #
1%
0&
b11100110011000111101000 ,
b111111111111111111111111111111111111111111111111111111111111111111111111111111111111111111010111101101001000111010101111 (
#2875000
0*
#2900000
b1 7
b1 .
b0 =
b10110100100011101010111100000000 ;
b11111111111111111111111111010111 :
b1 5
b1 ?
0<
1*
#2924000
b0 7
1'
b100110101111110011111101001101 !
b10101010100001 #
0%
0+
b110111101101100000101001 ,
b10110110010111111100100101101 (
#2925000
0*
#2950000
b0 .
b0 5
b0 ?
b110111101101100000101001 >
b110101000100110101111110011111101001101 0
b1 -
06
1*
#2974000
b100011010000000000101101000110 !
b11011111010 #
b10010000001001010010100 ,
b111111111111111111111111111111111111111111111111111111111111111111111111111111111111111110101110111010101100110001011101 (
#2975000
0*
#3000000
b10010000001001010010100 >
b100011000100011010000000000101101000110 0
b11 -
16
11
14
1*
#3024000
b1 7
0'
0$
b10001111011000111110010000011110 !
b11011001101000 #
1&
1+
1"
b110100111101101110110111 ,
b111111111111111111111111111111111111111111111111111111111111111111111111111111111111111110101010110110100111010001010101 (
#3025000
0*
#3050000
b1 =
1<
b110100111101101110110111 >
b111011010001111011000111110010000011110 0
06
b0 -
02
04
1*
#3074000
1$
b1000110110101101010011110001101 !
b100001000101 #
0+
b100110010110011110111001 ,
b1110010000111000010100011100 (
#3075000
0*
#3100000
b1 ?
0<
1*
#3124000
b0 7
0$
b1100010000001010110101111000100 !
b10110001011000 #
1%
0&
1+
b11111110000101010100100 ,
b1101110000111100001111111011100 (
#3125000
0*
#3150000
b1 7
b1011 .
b0 =
b1011 5
b10 ?
1*
#3174000
b0 7
1'
1$
b110001100110110001100001100 !
b10100110110010 #
0+
b101100001100100011000 ,
b111111111111111111111111111111111111111111111111111111111111111111111111111111111111111111001101000111010101000010011010 (
#3175000
0*
#3200000
b0 .
b0 5
b0 ?
b101100001100100011000 >
b110100100000110001100110110001100001100 0
16
b11 -
12
01
14
1*
#3224000
b1 7
b110100010011011100000101101000 !
b10100010101101 #
1&
1+
0"
b1011011011100111111000 ,
b1110101101011010111001111101011 (
#3225000
0*
#3250000
b10 7
b1 =
1<
b1011011011100111111000 >
b110100000110100010011011100000101101000 0
b1 -
06
1/
11
04
1*
#3274000
b1 7
0$
b11011001101101000101100110110 !
b10010101010111 #
0%
0&
b100101001101001000011011 ,
b1010101110111011000110110101011 (
#3275000
0*
#3300000
b1 ?
0<
1*
#3324000
0'
b1111101111111101000111111111011 !
b1001110001 #
0+
b10000101110110000010110 ,
b111111111111111111111111111111111111111111111111111111111111111111111111111111111111111111110010010010111010111011100100 (
#3325000
0*
#3350000
b10 ?
1*
#3374000
b10 7
1$
b11011000010001100010101010110000 !
b11011010111111 #
1%
1&
1+
1"
b111000000000010011000001 ,
b1011111011000101011100010111 (
#3375000
0*
#3400000
b10 =
b11101100010101110001011100000000 ;
b1011 :
b0 9
b0 8
b1 5
b11 ?
1*
#3424000
0$
b10101111010100001100000101 !
b1110111001101 #
0&
b11000110111010100011010 ,
b111111111111111111111111111111111111111111111111111111111111111111111111111111111111111111000001010001001100110010000010 (
#3425000
0*
#3450000
1*
#3474000
b10011111011110100000111000111110 !
b1110011111101 #
0%
1&
b10000011101011000101010 ,
b111111111111111111111111111111111111111111111111111111111111111111111111111111111111111111110110011100001000100011101100 (
#3475000
0*
#3500000
1*
#3524000
b0 7
1'
1$
b1111001100111110000100111110011 !
b110100110110 #
0+
0"
b11000011101110000000110 ,
b1011000000010011000100110110000 (
#3525000
0*
#3550000
b0 =
b0 5
1*
#3574000
0'
0$
b10110101100001111100001001101011 !
b1000011001011 #
0&
b110100000011011000001111 ,
b1011110010111011111100010111 (
#3575000
0*
#3600000
b0 ?
b110100000011011000001111 >
b101000010110101100001111100001001101011 0
b11 -
16
0/
1*
#3624000
b1 7
1$
b11110011101001100101100111100 !
b11001001000110 #
1&
1+
1"
b111010100111000011100001 ,
b1000110100010110110000110001101 (
#3625000
0*
#3650000
b1 =
1<
b111010100111000011100001 >
b111001000011110011101001100101100111100 0
1/
01
1*
#3674000
1'
b1111100011011101001000111111000 !
b111101000011 #
0&
0+
0"
b11110001101001000001110 ,
b111001110101100101011101110011 (
#3675000
0*
#3700000
b1 ?
0<
1*
#3724000
0'
0$
b10011000110101110011100000110001 !
b10100001101011 #
1&
1"
b111011110011110101011111 ,
b1001100010110001000111110011000 (
#3725000
0*
#3750000
b10 ?
1*
#3774000
1$
b11100001111000111000011011000011 !
b1010100010011 #
0&
0"
b110011010001001100010101 ,
b110110110110110101100001101 (
#3775000
0*
#3800000
b11 ?
1*
#3824000
b1100100111100101011110111001001 !
b110100100010 #
1&
1+
1"
b110101000000110100100111 ,
b111111111111111111111111111111111111111111111111111111111111111111111111111111111111111110111100011110000001000001111000 (
#3825000
0*
#3850000
b100 ?
1*
#3874000
b10 7
0$
b10001101011111010111001000011010 !
b1110110110101 #
1%
0&
0"
b100011100010001011000111 ,
b1100111010101001101011111001110 (
#3875000
0*
#3900000
b0 7
b10 =
b1010100110101111100111000000000 ;
b1100111 :
b1 5
b101 ?
1*
#3924000
b10 7
1$
b10101010000100111000000001010100 !
b11100100000110 #
0%
1&
0+
1"
b10110100110101001010000 ,
b111111111111111111111111111111111111111111111111111111111111111111111111111111111111111110101100000001011010000001011000 (
#3925000
0*
#3950000
1*
#3974000
b0 7
1'
0$
b11010101000001101110100110101 !
b10001110011011 #
1%
1+
0"
b111110001111001000110111 ,
b100100011001110011100101001000 (
#3975000
0*
#4000000
b1 7
b0 =
b0 5
1*
#4024000
1$
b101010111100010111001101010101 !
b100001011001 #
0&
b10011011010011000110000 ,
b100111100011011011101101001111 (
#4025000
0*
#4050000
b0 7
b1 =
1<
b0 ?
b10011011010011000110000 >
b100100000101010111100010111001101010101 0
b1 -
06
0/
11
14
1*
#4074000
0'
0$
b1101010001011000001001111010100 !
b10010111000011 #
b110100100010110011010011 ,
b111111111111111111111111111111111111111111111111111111111111111111111111111111111111111111101111000111011110101011011110 (
#4075000
0*
#4100000
b1 7
b11011 .
b0 =
b11101111010101101111000000000 ;
b11111111111111111111111111101111 :
b11111111111111111111111111111111 9
b11111111111111111111111111111111 8
b11011 5
b1 ?
0<
1*
#4124000
b0 7
1'
1$
b10111011101111000011111001110111 !
b1101101000101 #
0+
1"
b111011101100100000001111 ,
b1101011001010011001110111010110 (
#4125000
0*
#4150000
b0 .
b0 5
b0 ?
b111011101100100000001111 >
b101101110111011101111000011111001110111 0
1/
01
04
1*
#4174000
0$
b11010111111000110001111010101111 !
b1110010111100 #
0%
1&
0"
b1100100011101111000110 ,
b111111111111111111111111111111111111111111111111111111111111111111111111111111111111111111111100011001110000101011111000 (
#4175000
0*
#4200000
b1100100011101111000110 >
b101110011010111111000110001111010101111 0
b0 -
02
11
14
1*
#4224000
b1101001111001110101000111010011 !
b100110011010 #
0&
1"
b1000001001111011011110 ,
b111111111111111111111111111111111111111111111111111111111111111111111111111111111111111111011001010110110100000010110010 (
#4225000
0*
#4250000
b1000001001111011011110 >
b100100101101001111001110101000111010011 0
16
b11 -
12
0/
1*
#4274000
b1 7
0'
1$
b11011111100110111101000010111111 !
b100001111011 #
1%
1+
0"
b100010100110111000010 ,
b111111111111111111111111111111111111111111111111111111111111111111111111111111111111111111000101110011110111001010001011 (
#4275000
0*
#4300000
b0 7
b1 =
1<
b100010100110111000010 >
b100100011011111100110111101000010111111 0
1*
#4324000
1'
b1000001101101011101010110000011 !
b10111100100100 #
1&
b10100111011010001111110 ,
b101100101010010110001101011001 (
#4325000
0*
#4350000
b1 7
b0 =
b10101001011000110101100100000000 ;
b101100 :
b0 9
b0 8
b0 5
b1 ?
0<
1*
#4374000
b0 7
0'
b1111110001010011011001111111100 !
b10000000010010 #
0%
0+
1"
b100100110100101001110111 ,
b1001010111111101011111110010101 (
#4375000
0*
#4400000
b0 ?
b100100110100101001110111 >
b110000001111110001010011011001111111100 0
01
1*
#4424000
0$
b1011101100001101011011110111011 !
b10101101110100 #
0&
b1100100101011011000010 ,
b11111111110111000000100111111 (
#4425000
0*
#4450000
b1100100101011011000010 >
b110101101011101100001101011011110111011 0
06
b0 -
02
1/
1*
#4474000
1'
b1011010000010100000111110110100 !
b10011110101011 #
1%
b100111110001010011000 ,
b111111111111111111111111111111111111111111111111111111111111111111111111111111111111111111101111111100110100110011011111 (
#4475000
0*
#4500000
b100111110001010011000 >
b110011101011010000010100000111110110100 0
16
b11 -
12
0/
11
04
1*
#4524000
b1 7
0'
b10101010111000001010001001010101 !
b1100100110100 #
1&
1+
b11001001000110101100 ,
b111111111111111111111111111111111111111111111111111111111111111111111111111111111111111110001001101101011101010000010011 (
#4525000
0*
#4550000
b10 7
b1 =
1<
b11001001000110101100 >
b101100110101010111000001010001001010101 0
06
b0 -
02
1/
01
14
1*
#4574000
b1 7
1$
b1111111110011111111001111111111 !
b1000011001101 #
0%
0"
b111100101000000011000001 ,
b111111111111111111111111111111111111111111111111111111111111111111111111111111111111111111010011111111100011011010100111 (
#4575000
0*
#4600000
b1 ?
0<
1*
#4624000
0$
b10010001001111100000001000100010 !
b1000011011010 #
0&
0+
1"
b1000010111000010010 ,
b111111111111111111111111111111111111111111111111111111111111111111111111111111111111111110100101100101010101110001001011 (
#4625000
0*
#4650000
b10 ?
1*
#4674000
1'
1$
b111110010100000010110101111100 !
b1111001011110 #
1&
1+
b111100101000100011110 ,
b111101011111110101101101111010 (
#4675000
0*
#4700000
b11 ?
1*
#4724000
0'
0$
b1100110100110010000011111001101 !
b11001111010101 #
0&
b111110001011110100110111 ,
b1001010010111101001100010010 (
#4725000
0*
#4750000
b100 ?
1*
#4774000
b10 7
1'
b1101110100011010100010111011101 !
b110101011100 #
1%
1&
0+
b11000100011111100011010 ,
b1110110011000010101001111101100 (
#4775000
0*
#4800000
b10 =
b0 5
b101 ?
1*
#4824000
b1011101101101111001011110111011 !
b1101100001100 #
1+
b1100111000010101111000 ,
b1111111110110111011001111111111 (
#4825000
0*
#4850000
1*
#4874000
b0 7
b110011011000111000100101100110 !
b1010010111101 #
0%
0+
0"
b11100001111011000001010 ,
b110101010101010111101101101010 (
#4875000
0*
#4900000
b0 =
1*
#4924000
b1011010001101110110000110110100 !
b10000011001001 #
1%
1"
b110100111001010110010101 ,
b111111111111111111111111111111111111111111111111111111111111111111111111111111111111111111000111101101000011101010001111 (
#4925000
0*
#4950000
b0 ?
b110100111001010110010101 >
b110000001011010001101110110000110110100 0
b1 -
12
0/
11
04
1*
#4974000
b1 7
0'
b11111100111101010000010011111001 !
b11001010000000 #
0%
1+
0"
b101100001110001100001101 ,
b1101111110011111111000111011111 (
#4975000
0*
#5000000
b1 =
1<
b101100001110001100001101 >
b111001011111100111101010000010011111001 0
b0 -
02
01
1*
#5024000
1'
1$
b11010110010110011101000010101100 !
b10010111011110 #
0+
b111110011011101111001001 ,
b111111111111111111111111111111111111111111111111111111111111111111111111111111111111111111101111100011010110010011011111 (
#5025000
0*
#5050000
b1 ?
0<
1*
#5074000
b0 7
0$
b1011011110101011000001110110111 !
b10001101001110 #
1%
0&
1+
1"
b110010000011001000001101 ,
b110000110000111000111101100001 (
#5075000
0*
#5100000
b1 7
b0 =
b0 5
b10 ?
1*
#5124000
0'
b11000110100100000001001010001101 !
b1100101110 #
0"
b101101000111111100101111 ,
b111111111111111111111111111111111111111111111111111111111111111111111111111111111111111111001110000000111110110010011100 (
#5125000
0*
#5150000
b10 7
b1 =
1<
b0 ?
b101101000111111100101111 >
b100001111000110100100000001001010001101 0
16
b11 -
12
1/
11
1*
#5174000
1$
b11101111111101101001001011011111 !
b10001110111011 #
1&
0+
b111010001100111100110111 ,
b111111111111111111111111111111111111111111111111111111111111111111111111111111111111111111010000000111011111000010100000 (
#5175000
0*
#5200000
b0 7
b10 =
b11101111100001010000000000000 ;
b11111111111111111111111111010000 :
b11111111111111111111111111111111 9
b11111111111111111111111111111111 8
b1 5
b1 ?
0<
1*
#5224000
1'
b100110110001110001001101001101 !
b1010001011101 #
0&
1+
b101011000010111110010111 ,
b111111111111111111111111111111111111111111111111111111111111111111111111111111111111111111001111111101010101000010011111 (
#5225000
0*
#5250000
b1 7
b0 =
b0 5
1*
#5274000
b1111111010100110111110111111110 !
b10111110001111 #
1&
b110111000110010110111001 ,
b111111111111111111111111111111111111111111111111111111111111111111111111111111111111111110100111000000110111010001001110 (
#5275000
0*
#5300000
b10 7
b1 =
1<
b0 ?
b110111000110010110111001 >
b110111101111111010100110111110111111110 0
1*
#5324000
0'
0$
b10011101011100110111101000111010 !
b11011111010011 #
0&
0+
b100011101101010101101001 ,
b11001100110111100101100110011 (
#5325000
0*
#5350000
b0 7
b10 =
b10011011110010110011001100000000 ;
b11001 :
b0 9
b0 8
b1011 5
b1 ?
0<
1*
#5374000
b10 7
b10111010101000100000000 !
b11111100011010 #
1"
b110100000110000000100101 ,
b11100110010110011010100111001 (
