tests/testTemperature/sequence_detector.vcd
$date
	Mon Apr 20 22:50:19 2020
$end
$version
	Icarus Verilog
$end
$timescale
	1ps
$end
$scope module Sequence_Detector_MOORE_Verilog_bench $end
$scope module Sequence_Detector_MOORE_Verilog_ $end
$var wire 1 ! clock $end
$var wire 1 " reset $end
$var wire 1 # sequence_in $end
$var reg 3 $ current_state [2:0] $end
$var reg 1 % detector_out $end
$var reg 3 & next_state [2:0] $end
$upscope $end
$upscope $end
$enddefinitions $end
#0
$dumpvars
b0 &
0%
b0 $
x#
1"
1!
$end
#24000
0#
#25000
0!
#26000
0"
#50000
1!
#74000
b1 &
1#
#75000
0!
#100000
b1 $
1!
#125000
0!
#150000
1!
#175000
0!
#200000
1!
#225000
0!
#250000
1!
#275000
0!
#300000
1!
#325000
0!
#350000
1!
#374000
b11 &
0#
#375000
0!
#400000
b0 &
b11 $
1!
#424000
b10 &
1#
#425000
0!
#450000
b110 &
b10 $
1!
#475000
0!
#500000
1%
b1 &
b110 $
1!
#524000
b11 &
0#
#525000
0!
#550000
0%
b0 &
b11 $
1!
#574000
b10 &
1#
#575000
0!
#600000
b110 &
b10 $
1!
#625000
0!
#650000
1%
b1 &
b110 $
1!
#674000
b11 &
0#
#675000
0!
#700000
0%
b0 &
b11 $
1!
#724000
b10 &
1#
#725000
0!
#750000
b110 &
b10 $
1!
#774000
b11 &
0#
#775000
0!
#800000
b0 &
b11 $
1!
#824000
b10 &
1#
#825000
0!
#850000
b110 &
b10 $
1!
#874000
b11 &
0#
#875000
0!
#900000
b0 &
b11 $
1!
#924000
b10 &
1#
#925000
0!
#950000
b110 &
b10 $
1!
#975000
0!
#1000000
1%
b1 &
b110 $
1!
#1024000
b11 &
0#
#1025000
0!
#1050000
0%
b0 &
b11 $
1!
#1074000
b10 &
1#
#1075000
0!
#1100000
b110 &
b10 $
1!
#1124000
b11 &
0#
#1125000
0!
#1150000
b0 &
b11 $
1!
#1175000
0!
#1200000
b0 $
1!
#1225000
0!
#1250000
1!
#1274000
b1 &
1#
#1275000
0!
#1300000
b1 $
1!
#1324000
b11 &
0#
#1325000
0!
#1350000
b0 &
b11 $
1!
#1374000
b10 &
1#
#1375000
0!
#1400000
b110 &
b10 $
1!
#1425000
0!
#1450000
1%
b1 &
b110 $
1!
#1475000
0!
#1500000
0%
b1 $
1!
#1525000
0!
#1550000
1!
#1574000
b11 &
0#
#1575000
0!
#1600000
b0 &
b11 $
1!
#1625000
0!
#1650000
b0 $
1!
#1675000
0!
#1700000
1!
#1725000
0!
#1750000
1!
#1774000
b1 &
1#
#1775000
0!
#1800000
b1 $
1!
#1824000
b11 &
0#
#1825000
0!
#1850000
b0 &
b11 $
1!
#1874000
b10 &
1#
#1875000
0!
#1900000
b110 &
b10 $
1!
#1925000
0!
#1950000
1%
b1 &
b110 $
1!
#1975000
0!
#2000000
0%
b1 $
1!
#2025000
0!
#2050000
1!
#2075000
0!
#2100000
1!
#2124000
b11 &
0#
#2125000
0!
#2150000
b0 &
b11 $
1!
#2175000
0!
#2200000
b0 $
1!
#2224000
b1 &
1#
#2225000
0!
#2250000
b1 $
1!
#2275000
0!
#2300000
1!
#2325000
0!
#2350000
1!
#2374000
b11 &
0#
#2375000
0!
#2400000
b0 &
b11 $
1!
#2425000
0!
#2450000
b0 $
1!
#2475000
0!
#2500000
1!
#2525000
0!
#2550000
1!
#2575000
0!
#2600000
1!
#2624000
b1 &
1#
#2625000
0!
#2650000
b1 $
1!
#2674000
b11 &
0#
#2675000
0!
#2700000
b0 &
b11 $
1!
#2725000
0!
#2750000
b0 $
1!
#2774000
b1 &
1#
#2775000
0!
#2800000
b1 $
1!
#2825000
0!
#2850000
1!
#2874000
b11 &
0#
#2875000
0!
#2900000
b0 &
b11 $
1!
#2925000
0!
#2950000
b0 $
1!
#2975000
0!
#3000000
1!
#3025000
0!
#3050000
1!
#3075000
0!
#3100000
1!
#3124000
b1 &
1#
#3125000
0!
#3150000
b1 $
1!
#3175000
0!
#3200000
1!
#3225000
0!
#3250000
1!
#3275000
0!
#3300000
1!
#3325000
0!
#3350000
1!
#3374000
b11 &
0#
#3375000
0!
#3400000
b0 &
b11 $
1!
#3425000
0!
#3450000
b0 $
1!
#3474000
b1 &
1#
#3475000
0!
#3500000
b1 $
1!
#3525000
0!
#3550000
1!
#3575000
0!
#3600000
1!
#3624000
b11 &
0#
#3625000
0!
#3650000
b0 &
b11 $
1!
#3675000
0!
#3700000
b0 $
1!
#3724000
b1 &
1#
#3725000
0!
#3750000
b1 $
1!
#3775000
0!
#3800000
1!
#3824000
b11 &
0#
#3825000
0!
#3850000
b0 &
b11 $
1!
#3874000
b10 &
1#
#3875000
0!
#3900000
b110 &
b10 $
1!
#3925000
0!
#3950000
1%
b1 &
b110 $
1!
#3974000
b11 &
0#
#3975000
0!
#4000000
0%
b0 &
b11 $
1!
#4024000
b10 &
1#
#4025000
0!
#4050000
b110 &
b10 $
1!
#4075000
0!
#4100000
1%
b1 &
b110 $
1!
#4125000
0!
#4150000
0%
b1 $
1!
#4174000
b11 &
0#
#4175000
0!
#4200000
b0 &
b11 $
1!
#4224000
b10 &
1#
#4225000
0!
#4250000
b110 &
b10 $
1!
#4275000
0!
#4300000
1%
b1 &
b110 $
1!
#4324000
b11 &
0#
#4325000
0!
#4350000
0%
b0 &
b11 $
1!
#4375000
0!
#4400000
b0 $
1!
#4425000
0!
#4450000
1!
#4475000
0!
#4500000
1!
#4524000
b1 &
1#
#4525000
0!
#4550000
b1 $
1!
#4575000
0!
#4600000
1!
#4624000
b11 &
0#
#4625000
0!
#4650000
b0 &
b11 $
1!
#4675000
0!
#4700000
b0 $
1!
#4724000
b1 &
1#
#4725000
0!
#4750000
b1 $
1!
#4775000
0!
#4800000
1!
#4825000
0!
#4850000
1!
#4875000
0!
#4900000
1!
#4925000
0!
#4950000
1!
#4974000
b11 &
0#
#4975000
0!
#5000000
b0 &
b11 $
1!
#5024000
b10 &
1#
#5025000
0!
#5050000
b110 &
b10 $
1!
#5075000
0!
#5100000
1%
b1 &
b110 $
1!
#5125000
0!
#5150000
0%
b1 $
1!
#5174000
b11 &
0#
#5175000
0!
#5200000
b0 &
b11 $
1!
#5225000
0!
#5250000
b0 $
1!
#5275000
0!
#5300000
1!
#5325000
0!
#5350000
1!
#5375000
0!
#5400000
1!
#5425000
0!
#5450000
1!
#5475000
0!
#5500000
1!
#5524000
b1 &
1#
#5525000
0!
#5550000
b1 $
1!
#5575000
0!
#5600000
1!
#5625000
0!
#5650000
1!
#5675000
0!
#5700000
1!
#5725000
0!
#5750000
1!
#5774000
b11 &
0#
#5775000
0!
#5800000
b0 &
b11 $
1!
#5824000
b10 &
1#
#5825000
0!
#5850000
b110 &
b10 $
1!
#5875000
0!
#5900000
1%
b1 &
b110 $
1!
#5924000
b11 &
0#
#5925000
0!
#5950000
0%
b0 &
b11 $
1!
#5975000
0!
#6000000
b0 $
1!
#6024000
b1 &
1#
#6025000
0!
#6050000
b1 $
1!
#6075000
0!
#6100000
1!
#6124000
b11 &
0#
#6125000
0!
#6150000
b0 &
b11 $
1!
#6174000
b10 &
1#
#6175000
0!
#6200000
b110 &
b10 $
1!
#6225000
0!
#6250000
1%
b1 &
b110 $
1!
#6275000
0!
#6300000
0%
b1 $
1!
#6325000
0!
#6350000
1!
#6374000
b11 &
0#
#6375000
0!
#6400000
b0 &
b11 $
1!
#6425000
0!
#6450000
b0 $
1!
#6475000
0!
#6500000
1!
#6524000
b1 &
1#
#6525000
0!
#6550000
b1 $
1!
#6574000
b11 &
0#
#6575000
0!
#6600000
b0 &
b11 $
1!
#6625000
0!
#6650000
b0 $
1!
#6675000
0!
#6700000
1!
#6724000
b1 &
1#
#6725000
0!
#6750000
b1 $
1!
#6775000
0!
#6800000
1!
#6824000
b11 &
0#
#6825000
0!
#6850000
b0 &
b11 $
1!
#6875000
0!
#6900000
b0 $
1!
#6924000
b1 &
1#
#6925000
0!
#6950000
b1 $
1!
#6974000
b11 &
0#
#6975000
0!
#7000000
b0 &
b11 $
1!
#7025000
0!
#7050000
b0 $
1!
#7075000
0!
#7100000
1!
#7124000
b1 &
1#
#7125000
0!
#7150000
b1 $
1!
#7174000
b11 &
0#
#7175000
0!
#7200000
b0 &
b11 $
1!
#7225000
0!
#7250000
b0 $
1!
#7274000
b1 &
1#
#7275000
0!
#7300000
b1 $
1!
#7324000
b11 &
0#
#7325000
0!
#7350000
b0 &
b11 $
1!
#7374000
b10 &
1#
#7375000
0!
#7400000
b110 &
b10 $
1!
#7425000
0!
#7450000
1%
b1 &
b110 $
1!
#7475000
0!
#7500000
0%
b1 $
1!
#7525000
0!
#7550000
1!
#7575000
0!
#7600000
1!
#7624000
b11 &
0#
#7625000
0!
#7650000
b0 &
b11 $
1!
#7675000
0!
#7700000
b0 $
1!
#7725000
0!
#7750000
1!
#7774000
b1 &
1#
#7775000
0!
#7800000
b1 $
1!
#7824000
b11 &
0#
#7825000
0!
#7850000
b0 &
b11 $
1!
#7875000
0!
#7900000
b0 $
1!
#7924000
b1 &
1#
#7925000
0!
#7950000
b1 $
1!
#7975000
0!
#8000000
1!
#8024000
b11 &
0#
#8025000
0!
#8050000
b0 &
b11 $
1!
#8075000
0!
#8100000
b0 $
1!
#8125000
0!
#8150000
1!
#8174000
b1 &
1#
#8175000
0!
#8200000
b1 $
1!
#8225000
0!
#8250000
1!
#8274000
b11 &
0#
#8275000
0!
#8300000
b0 &
b11 $
1!
#8325000
0!
#8350000
b0 $
1!
#8375000
0!
#8400000
1!
#8424000
b1 &
1#
#8425000
0!
#8450000
b1 $
1!
#8475000
0!
#8500000
1!
#8524000
b11 &
0#
#8525000
0!
#8550000
b0 &
b11 $
1!
#8575000
0!
#8600000
b0 $
1!
#8625000
0!
#8650000
1!
#8674000
b1 &
1#
#8675000
0!
#8700000
b1 $
1!
#8724000
b11 &
0#
#8725000
0!
#8750000
b0 &
b11 $
1!
#8775000
0!
#8800000
b0 $
1!
#8824000
b1 &
1#
#8825000
0!
#8850000
b1 $
1!
#8874000
b11 &
0#
#8875000
0!
#8900000
b0 &
b11 $
1!
#8925000
0!
#8950000
b0 $
1!
#8975000
0!
#9000000
1!
#9024000
b1 &
1#
#9025000
0!
#9050000
b1 $
1!
#9074000
b11 &
0#
#9075000
0!
#9100000
b0 &
b11 $
1!
#9124000
b10 &
1#
#9125000
0!
#9150000
b110 &
b10 $
1!
#9175000
0!
#9200000
1%
b1 &
b110 $
1!
#9224000
b11 &
0#
#9225000
0!
#9250000
0%
b0 &
b11 $
1!
#9275000
0!
#9300000
b0 $
1!
#9325000
0!
#9350000
1!
#9375000
0!
#9400000
1!
#9424000
b1 &
1#
#9425000
0!
#9450000
b1 $
1!
#9474000
b11 &
0#
#9475000
0!
#9500000
b0 &
b11 $
1!
#9525000
0!
#9550000
b0 $
1!
#9575000
0!
#9600000
1!
#9625000
0!
#9650000
1!
#9674000
b1 &
1#
#9675000
0!
#9700000
b1 $
1!
#9725000
0!
#9750000
1!
#9775000
0!
#9800000
1!
#9824000
b11 &
0#
#9825000
0!
#9850000
b0 &
b11 $
1!
#9874000
b10 &
1#
#9875000
0!
#9900000
b110 &
b10 $
1!
#9925000
0!
#9950000
1%
b1 &
b110 $
1!
#9975000
0!
#10000000
0%
b1 $
1!
#10024000
b11 &
0#
#10025000
0!
#10050000
b0 &
b11 $
1!
#10075000
0!
#10100000
b0 $
1!
#10124000
b1 &
1#
#10125000
0!
#10150000
b1 $
1!
#10175000
0!
#10200000
1!
#10225000
0!
#10250000
1!
#10275000
0!
#10300000
1!
#10325000
0!
#10350000
1!
#10374000
b11 &
0#
#10375000
0!
#10400000
b0 &
b11 $
1!
#10424000
b10 &
1#
#10425000
0!
#10450000
b110 &
b10 $
1!
#10475000
0!
#10500000
1%
b1 &
b110 $
1!
#10524000
b11 &
0#
#10525000
0!
#10550000
0%
b0 &
b11 $
1!
#10575000
0!
#10600000
b0 $
1!
#10625000
0!
#10650000
1!
#10675000
0!
#10700000
1!
#10724000
b1 &
1#
#10725000
0!
#10750000
b1 $
1!
#10775000
0!
#10800000
1!
#10824000
b11 &
0#
#10825000
0!
#10850000
b0 &
b11 $
1!
#10875000
0!
#10900000
b0 $
1!
#10924000
b1 &
1#
#10925000
0!
#10950000
b1 $
1!
#10974000
b11 &
0#
#10975000
0!
#11000000
b0 &
b11 $
1!
#11025000
0!
#11050000
b0 $
1!
#11074000
b1 &
1#
#11075000
0!
#11100000
b1 $
1!
#11124000
b11 &
0#
#11125000
0!
#11150000
b0 &
b11 $
1!
#11175000
0!
#11200000
b0 $
1!
#11224000
b1 &
1#
#11225000
0!
#11250000
b1 $
1!
#11274000
b11 &
0#
#11275000
0!
#11300000
b0 &
b11 $
1!
#11325000
0!
#11350000
b0 $
1!
#11374000
b1 &
1#
#11375000
0!
#11400000
b1 $
1!
#11425000
0!
#11450000
1!
#11475000
0!
#11500000
1!
#11524000
b11 &
0#
#11525000
0!
#11550000
b0 &
b11 $
1!
#11575000
0!
#11600000
b0 $
1!
#11625000
0!
#11650000
1!
#11674000
b1 &
1#
#11675000
0!
#11700000
b1 $
1!
#11724000
b11 &
0#
#11725000
0!
#11750000
b0 &
b11 $
1!
#11775000
0!
#11800000
b0 $
1!
#11824000
b1 &
1#
#11825000
0!
#11850000
b1 $
1!
#11874000
b11 &
0#
#11875000
0!
#11900000
b0 &
b11 $
1!
#11925000
0!
#11950000
b0 $
1!
#11975000
0!
#12000000
1!
#12025000
0!
#12050000
1!
#12074000
b1 &
1#
#12075000
0!
#12100000
b1 $
1!
#12124000
b11 &
0#
#12125000
0!
#12150000
b0 &
b11 $
1!
#12175000
0!
#12200000
b0 $
1!
#12225000
0!
#12250000
1!
#12274000
b1 &
1#
#12275000
0!
#12300000
b1 $
1!
#12325000
0!
#12350000
1!
#12374000
b11 &
0#
#12375000
0!
#12400000
b0 &
b11 $
1!
#12424000
b10 &
1#
#12425000
0!
#12450000
b110 &
b10 $
1!
#12475000
0!
#12500000
1%
b1 &
b110 $
1!
#12525000
0!
#12550000
0%
b1 $
1!
#12575000
0!
#12600000
1!
#12624000
b11 &
0#
#12625000
0!
#12650000
b0 &
b11 $
1!
#12674000
b10 &
1#
#12675000
0!
#12700000
b110 &
b10 $
1!
#12725000
0!
#12750000
1%
b1 &
b110 $
1!
#12775000
0!
#12800000
0%
b1 $
1!
#12824000
b11 &
0#
#12825000
0!
#12850000
b0 &
b11 $
1!
#12875000
0!
#12900000
b0 $
1!
#12924000
b1 &
1#
#12925000
0!
#12950000
b1 $
1!
#12974000
b11 &
0#
#12975000
0!
#13000000
b0 &
b11 $
1!
#13025000
0!
#13050000
b0 $
1!
#13074000
b1 &
1#
#13075000
0!
#13100000
b1 $
1!
#13125000
0!
#13150000
1!
#13174000
b11 &
0#
#13175000
0!
#13200000
b0 &
b11 $
1!
#13225000
0!
#13250000
b0 $
1!
#13274000
b1 &
1#
#13275000
0!
#13300000
b1 $
1!
#13324000
b11 &
0#
#13325000
0!
#13350000
b0 &
b11 $
1!
#13375000
0!
#13400000
b0 $
1!
#13424000
b1 &
1#
#13425000
0!
#13450000
b1 $
1!
#13474000
b11 &
0#
#13475000
0!
#13500000
b0 &
b11 $
1!
#13524000
b10 &
1#
#13525000
0!
#13550000
b110 &
b10 $
1!
#13575000
0!
#13600000
1%
b1 &
b110 $
1!
#13624000
b11 &
0#
#13625000
0!
#13650000
0%
b0 &
b11 $
1!
#13674000
b10 &
1#
#13675000
0!
#13700000
b110 &
b10 $
1!
#13724000
b11 &
0#
#13725000
0!
#13750000
b0 &
b11 $
1!
#13774000
b10 &
1#
#13775000
0!
#13800000
b110 &
b10 $
1!
#13824000
b11 &
0#
#13825000
0!
#13850000
b0 &
b11 $
1!
#13875000
0!
#13900000
b0 $
1!
#13924000
b1 &
1#
#13925000
0!
#13950000
b1 $
1!
#13974000
b11 &
0#
#13975000
0!
#14000000
b0 &
b11 $
1!
#14025000
0!
#14050000
b0 $
1!
#14075000
0!
#14100000
1!
#14124000
b1 &
1#
#14125000
0!
#14150000
b1 $
1!
#14175000
0!
#14200000
1!
#14225000
0!
#14250000
1!
#14275000
0!
#14300000
1!
#14325000
0!
#14350000
1!
#14374000
b11 &
0#
#14375000
0!
#14400000
b0 &
b11 $
1!
#14424000
b10 &
1#
#14425000
0!
#14450000
b110 &
b10 $
1!
#14475000
0!
#14500000
1%
b1 &
b110 $
1!
#14525000
0!
#14550000
0%
b1 $
1!
#14574000
b11 &
0#
#14575000
0!
#14600000
b0 &
b11 $
1!
#14625000
0!
#14650000
b0 $
1!
#14675000
0!
#14700000
1!
#14725000
0!
#14750000
1!
#14775000
0!
#14800000
1!
#14825000
0!
#14850000
1!
#14874000
b1 &
1#
#14875000
0!
#14900000
b1 $
1!
#14925000
0!
#14950000
1!
#14975000
0!
#15000000
1!
#15025000
0!
#15050000
1!
#15075000
0!
#15100000
1!
#15125000
0!
#15150000
1!
#15175000
0!
#15200000
1!
#15224000
b11 &
0#
#15225000
0!
#15250000
b0 &
b11 $
1!
#15274000
b10 &
1#
#15275000
0!
#15300000
b110 &
b10 $
1!
#15325000
0!
#15350000
1%
b1 &
b110 $
1!
#15375000
0!
#15400000
0%
b1 $
1!
#15425000
0!
#15450000
1!
#15475000
0!
#15500000
1!
#15525000
0!
#15550000
1!
#15575000
0!
#15600000
1!
#15625000
0!
#15650000
1!
#15674000
b11 &
0#
#15675000
0!
#15700000
b0 &
b11 $
1!
#15725000
0!
#15750000
b0 $
1!
#15774000
b1 &
1#
#15775000
0!
#15800000
b1 $
1!
#15825000
0!
#15850000
1!
#15874000
b11 &
0#
#15875000
0!
#15900000
b0 &
b11 $
1!
#15925000
0!
#15950000
b0 $
1!
#15975000
0!
#16000000
1!
#16025000
0!
#16050000
1!
#16074000
b1 &
1#
#16075000
0!
#16100000
b1 $
1!
#16124000
b11 &
0#
#16125000
0!
#16150000
b0 &
b11 $
1!
#16175000
0!
#16200000
b0 $
1!
#16225000
0!
#16250000
1!
#16275000
0!
#16300000
1!
#16325000
0!
#16350000
1!
#16375000
0!
#16400000
1!
#16424000
b1 &
1#
#16425000
0!
#16450000
b1 $
1!
#16474000
b11 &
0#
#16475000
0!
#16500000
b0 &
b11 $
1!
#16525000
0!
#16550000
b0 $
1!
#16574000
b1 &
1#
#16575000
0!
#16600000
b1 $
1!
#16624000
b11 &
0#
#16625000
0!
#16650000
b0 &
b11 $
1!
#16675000
0!
#16700000
b0 $
1!
#16725000
0!
#16750000
1!
#16775000
0!
#16800000
1!
#16824000
b1 &
1#
#16825000
0!
#16850000
b1 $
1!
#16875000
0!
#16900000
1!
#16925000
0!
#16950000
1!
#16975000
0!
#17000000
1!
#17025000
0!
#17050000
1!
#17074000
b11 &
0#
#17075000
0!
#17100000
b0 &
b11 $
1!
#17124000
b10 &
1#
#17125000
0!
#17150000
b110 &
b10 $
1!
#17175000
0!
#17200000
1%
b1 &
b110 $
1!
#17225000
0!
#17250000
0%
b1 $
1!
#17274000
b11 &
0#
#17275000
0!
#17300000
b0 &
b11 $
1!
#17324000
b10 &
1#
#17325000
0!
#17350000
b110 &
b10 $
1!
#17374000
b11 &
0#
#17375000
0!
#17400000
b0 &
b11 $
1!
#17425000
0!
#17450000
b0 $
1!
#17474000
b1 &
1#
#17475000
0!
#17500000
b1 $
1!
#17525000
0!
#17550000
1!
#17574000
b11 &
0#
#17575000
0!
#17600000
b0 &
b11 $
1!
#17624000
b10 &
1#
#17625000
0!
#17650000
b110 &
b10 $
1!
#17674000
b11 &
0#
#17675000
0!
#17700000
b0 &
b11 $
1!
#17725000
0!
#17750000
b0 $
1!
#17774000
b1 &
1#
#17775000
0!
#17800000
b1 $
1!
#17824000
b11 &
0#
#17825000
0!
#17850000
b0 &
b11 $
1!
#17875000
0!
#17900000
b0 $
1!
#17925000
0!
#17950000
1!
#17975000
0!
#18000000
1!
#18024000
b1 &
1#
#18025000
0!
#18050000
b1 $
1!
#18075000
0!
#18100000
1!
#18125000
0!
#18150000
1!
#18175000
0!
#18200000
1!
#18224000
b11 &
0#
#18225000
0!
#18250000
b0 &
b11 $
1!
#18274000
b10 &
1#
#18275000
0!
#18300000
b110 &
b10 $
1!
#18325000
0!
#18350000
1%
b1 &
b110 $
1!
#18375000
0!
#18400000
0%
b1 $
1!
#18425000
0!
#18450000
1!
#18475000
0!
#18500000
1!
#18525000
0!
#18550000
1!
#18575000
0!
#18600000
1!
#18624000
b11 &
0#
#18625000
0!
#18650000
b0 &
b11 $
1!
#18674000
b10 &
1#
#18675000
0!
#18700000
b110 &
b10 $
1!
#18724000
b11 &
0#
#18725000
0!
#18750000
b0 &
b11 $
1!
#18774000
b10 &
1#
#18775000
0!
#18800000
b110 &
b10 $
1!
#18824000
b11 &
0#
#18825000
0!
#18850000
b0 &
b11 $
1!
#18875000
0!
#18900000
b0 $
1!
#18924000
b1 &
1#
#18925000
0!
#18950000
b1 $
1!
#18974000
b11 &
0#
#18975000
0!
#19000000
b0 &
b11 $
1!
#19025000
0!
#19050000
b0 $
1!
#19075000
0!
#19100000
1!
#19125000
0!
#19150000
1!
#19175000
0!
#19200000
1!
#19224000
b1 &
1#
#19225000
0!
#19250000
b1 $
1!
#19274000
b11 &
0#
#19275000
0!
#19300000
b0 &
b11 $
1!
#19325000
0!
#19350000
b0 $
1!
#19375000
0!
#19400000
1!
#19425000
0!
#19450000
1!
#19475000
0!
#19500000
1!
#19525000
0!
#19550000
1!
#19574000
b1 &
1#
#19575000
0!
#19600000
b1 $
1!
#19624000
b11 &
0#
#19625000
0!
#19650000
b0 &
b11 $
1!
#19674000
b10 &
1#
#19675000
0!
#19700000
b110 &
b10 $
1!
#19724000
b11 &
0#
#19725000
0!
#19750000
b0 &
b11 $
1!
#19775000
0!
#19800000
b0 $
1!
#19824000
b1 &
1#
#19825000
0!
#19850000
b1 $
1!
#19874000
b11 &
0#
#19875000
0!
#19900000
b0 &
b11 $
1!
#19924000
b10 &
1#
#19925000
0!
#19950000
b110 &
b10 $
1!
#19975000
0!
#20000000
1%
b1 &
b110 $
1!
#20024000
b11 &
0#
#20025000
0!
#20050000
0%
b0 &
b11 $
1!
#20074000
b10 &
1#
#20075000
0!
#20100000
b110 &
b10 $
1!
#20124000
b11 &
0#
#20125000
0!
#20150000
b0 &
b11 $
1!
#20174000
b10 &
1#
#20175000
0!
#20200000
b110 &
b10 $
1!
#20224000
b11 &
0#
#20225000
0!
#20250000
b0 &
b11 $
1!
#20275000
0!
#20300000
b0 $
1!
#20325000
0!
#20350000
1!
#20375000
0!
#20400000
1!
#20424000
b1 &
1#
#20425000
0!
#20450000
b1 $
1!
#20474000
b11 &
0#
#20475000
0!
#20500000
b0 &
b11 $
1!
#20524000
b10 &
1#
#20525000
0!
#20550000
b110 &
b10 $
1!
#20574000
b11 &
0#
#20575000
0!
#20600000
b0 &
b11 $
1!
#20624000
b10 &
1#
#20625000
0!
#20650000
b110 &
b10 $
1!
#20675000
0!
#20700000
1%
b1 &
b110 $
1!
#20724000
b11 &
0#
#20725000
0!
#20750000
0%
b0 &
b11 $
1!
#20774000
b10 &
1#
#20775000
0!
#20800000
b110 &
b10 $
1!
#20824000
b11 &
0#
#20825000
0!
#20850000
b0 &
b11 $
1!
#20874000
b10 &
1#
#20875000
0!
#20900000
b110 &
b10 $
1!
#20925000
0!
#20950000
1%
b1 &
b110 $
1!
#20975000
0!
#21000000
0%
b1 $
1!
#21024000
b11 &
0#
#21025000
0!
#21050000
b0 &
b11 $
1!
#21074000
b10 &
1#
#21075000
0!
#21100000
b110 &
b10 $
1!
#21125000
0!
#21150000
1%
b1 &
b110 $
1!
#21174000
b11 &
0#
#21175000
0!
#21200000
0%
b0 &
b11 $
1!
#21225000
0!
#21250000
b0 $
1!
#21274000
b1 &
1#
#21275000
0!
#21300000
b1 $
1!
#21325000
0!
#21350000
1!
#21374000
b11 &
0#
#21375000
0!
#21400000
b0 &
b11 $
1!
#21425000
0!
#21450000
b0 $
1!
#21474000
b1 &
1#
#21475000
0!
#21500000
b1 $
1!
#21525000
0!
#21550000
1!
#21574000
b11 &
0#
#21575000
0!
#21600000
b0 &
b11 $
1!
#21625000
0!
#21650000
b0 $
1!
#21674000
b1 &
1#
#21675000
0!
#21700000
b1 $
1!
#21724000
b11 &
0#
#21725000
0!
#21750000
b0 &
b11 $
1!
#21775000
0!
#21800000
b0 $
1!
#21824000
b1 &
1#
#21825000
0!
#21850000
b1 $
1!
#21875000
0!
#21900000
1!
#21924000
b11 &
0#
#21925000
0!
#21950000
b0 &
b11 $
1!
#21975000
0!
#22000000
b0 $
1!
#22024000
b1 &
1#
#22025000
0!
#22050000
b1 $
1!
#22074000
b11 &
0#
#22075000
0!
#22100000
b0 &
b11 $
1!
#22125000
0!
#22150000
b0 $
1!
#22174000
b1 &
1#
#22175000
0!
#22200000
b1 $
1!
#22225000
0!
#22250000
1!
#22274000
b11 &
0#
#22275000
0!
#22300000
b0 &
b11 $
1!
#22324000
b10 &
1#
#22325000
0!
#22350000
b110 &
b10 $
1!
#22374000
b11 &
0#
#22375000
0!
#22400000
b0 &
b11 $
1!
#22424000
b10 &
1#
#22425000
0!
#22450000
b110 &
b10 $
1!
#22475000
0!
#22500000
1%
b1 &
b110 $
1!
#22524000
b11 &
0#
#22525000
0!
#22550000
0%
b0 &
b11 $
1!
#22574000
b10 &
1#
#22575000
0!
#22600000
b110 &
b10 $
1!
#22625000
0!
#22650000
1%
b1 &
b110 $
1!
#22675000
0!
#22700000
0%
b1 $
1!
#22724000
b11 &
0#
#22725000
0!
#22750000
b0 &
b11 $
1!
#22774000
b10 &
1#
#22775000
0!
#22800000
b110 &
b10 $
1!
#22825000
0!
#22850000
1%
b1 &
b110 $
1!
#22875000
0!
#22900000
0%
b1 $
1!
#22924000
b11 &
0#
#22925000
0!
#22950000
b0 &
b11 $
1!
#22975000
0!
#23000000
b0 $
1!
#23024000
b1 &
1#
#23025000
0!
#23050000
b1 $
1!
#23074000
b11 &
0#
#23075000
0!
#23100000
b0 &
b11 $
1!
#23125000
0!
#23150000
b0 $
1!
#23174000
b1 &
1#
#23175000
0!
#23200000
b1 $
1!
#23224000
b11 &
0#
#23225000
0!
#23250000
b0 &
b11 $
1!
#23275000
0!
#23300000
b0 $
1!
#23324000
b1 &
1#
#23325000
0!
#23350000
b1 $
1!
#23375000
0!
#23400000
1!
#23424000
b11 &
0#
#23425000
0!
#23450000
b0 &
b11 $
1!
#23474000
b10 &
1#
#23475000
0!
#23500000
b110 &
b10 $
1!
#23524000
b11 &
0#
#23525000
0!
#23550000
b0 &
b11 $
1!
#23574000
b10 &
1#
#23575000
0!
#23600000
b110 &
b10 $
1!
#23625000
0!
#23650000
1%
b1 &
b110 $
1!
#23675000
0!
#23700000
0%
b1 $
1!
#23725000
0!
#23750000
1!
#23774000
b11 &
0#
#23775000
0!
#23800000
b0 &
b11 $
1!
#23825000
0!
#23850000
b0 $
1!
#23874000
b1 &
1#
#23875000
0!
#23900000
b1 $
1!
#23924000
b11 &
0#
#23925000
0!
#23950000
b0 &
b11 $
1!
#23974000
b10 &
1#
#23975000
0!
#24000000
b110 &
b10 $
1!
#24024000
b11 &
0#
#24025000
0!
#24050000
b0 &
b11 $
1!
#24074000
b10 &
1#
#24075000
0!
#24100000
b110 &
b10 $
1!
#24125000
0!
#24150000
1%
b1 &
b110 $
1!
#24174000
b11 &
0#
#24175000
0!
#24200000
0%
b0 &
b11 $
1!
#24225000
0!
#24250000
b0 $
1!
#24274000
b1 &
1#
#24275000
0!
#24300000
b1 $
1!
#24325000
0!
#24350000
1!
#24375000
0!
#24400000
1!
#24424000
b11 &
0#
#24425000
0!
#24450000
b0 &
b11 $
1!
#24475000
0!
#24500000
b0 $
1!
#24524000
b1 &
1#
#24525000
0!
#24550000
b1 $
1!
#24574000
b11 &
0#
#24575000
0!
#24600000
b0 &
b11 $
1!
#24625000
0!
#24650000
b0 $
1!
#24674000
b1 &
1#
#24675000
0!
#24700000
b1 $
1!
#24725000
0!
#24750000
1!
#24775000
0!
#24800000
1!
#24824000
b11 &
0#
#24825000
0!
#24850000
b0 &
b11 $
1!
#24874000
b10 &
1#
#24875000
0!
#24900000
b110 &
b10 $
1!
#24925000
0!
#24950000
1%
b1 &
b110 $
1!
#24974000
b11 &
0#
#24975000
0!
#25000000
0%
b0 &
b11 $
1!
#25025000
0!
#25050000
b0 $
1!
#25075000
0!
#25100000
1!
#25124000
b1 &
1#
#25125000
0!
#25150000
b1 $
1!
#25175000
0!
#25200000
1!
#25225000
0!
#25250000
1!
#25274000
b11 &
0#
#25275000
0!
#25300000
b0 &
b11 $
1!
#25325000
0!
#25350000
b0 $
1!
#25375000
0!
#25400000
1!
#25424000
b1 &
1#
#25425000
0!
#25450000
b1 $
1!
#25475000
0!
#25500000
1!
#25525000
0!
#25550000
1!
#25575000
0!
#25600000
1!
#25624000
b11 &
0#
#25625000
0!
#25650000
b0 &
b11 $
1!
#25674000
b10 &
1#
#25675000
0!
#25700000
b110 &
b10 $
1!
#25725000
0!
#25750000
1%
b1 &
b110 $
1!
#25775000
0!
#25800000
0%
b1 $
1!
#25825000
0!
#25850000
1!
#25875000
0!
#25900000
1!
#25925000
0!
#25950000
1!
#25975000
0!
#26000000
1!
#26024000
b11 &
0#
#26025000
0!
#26050000
b0 &
b11 $
1!
#26074000
b10 &
1#
#26075000
0!
#26100000
b110 &
b10 $
1!
#26124000
b11 &
0#
#26125000
0!
#26150000
b0 &
b11 $
1!
#26175000
0!
#26200000
b0 $
1!
#26225000
0!
#26250000
1!
#26274000
b1 &
1#
#26275000
0!
#26300000
b1 $
1!
#26325000
0!
#26350000
1!
#26375000
0!
#26400000
1!
#26425000
0!
