tests/usbf_idma/usbf_idma.vcd
$date
	Mon Apr 27 21:33:49 2020
$end
$version
	Icarus Verilog
$end
$timescale
	1ps
$end
$scope module usbf_idma_bench $end
$scope module usbf_idma_ $end
$var wire 1 ! abort $end
$var wire 17 " adr [16:0] $end
$var wire 1 # adr_incb $end
$var wire 1 $ adr_incw $end
$var wire 14 % buf_size [13:0] $end
$var wire 1 & clk $end
$var wire 1 ' dma_en $end
$var wire 1 ( fill_buf0 $end
$var wire 1 ) fill_buf1 $end
$var wire 1 * mack $end
$var wire 15 + madr [14:0] $end
$var wire 32 , mdin [31:0] $end
$var wire 32 - mdout [31:0] $end
$var wire 1 . mreq $end
$var wire 1 / rd_next $end
$var wire 1 0 rst $end
$var wire 1 1 rx_data_done $end
$var wire 8 2 rx_data_st [7:0] $end
$var wire 1 3 rx_data_valid $end
$var wire 1 4 rx_dma_en $end
$var wire 1 5 send_data $end
$var wire 1 6 send_zero_length $end
$var wire 1 7 siz_dec $end
$var wire 1 8 siz_inc $end
$var wire 14 9 size [13:0] $end
$var wire 1 : tx_dma_en $end
$var wire 1 ; sizd_is_zero_d $end
$var wire 1 < adrb_is_3 $end
$var reg 3 = adr_cb [2:0] $end
$var reg 15 > adr_cw [14:0] $end
$var reg 3 ? adrb_next [2:0] $end
$var reg 15 @ adrw_next [14:0] $end
$var reg 15 A adrw_next1 [14:0] $end
$var reg 32 B dout_r [31:0] $end
$var reg 32 C dtmp_r [31:0] $end
$var reg 1 D dtmp_sel $end
$var reg 1 E dtmp_sel_r $end
$var reg 1 F idma_done $end
$var reg 15 G last_buf_adr [14:0] $end
$var reg 1 H mack_r $end
$var reg 1 I mreq_d $end
$var reg 1 J mwe $end
$var reg 1 K mwe_d $end
$var reg 8 L next_state [7:0] $end
$var reg 32 M rd_buf0 [31:0] $end
$var reg 32 N rd_buf1 [31:0] $end
$var reg 1 O rd_first $end
$var reg 1 P rx_data_done_r $end
$var reg 1 Q rx_data_done_r2 $end
$var reg 8 R rx_data_st_r [7:0] $end
$var reg 1 S rx_data_valid_r $end
$var reg 1 T rx_dma_en_r $end
$var reg 1 U send_data_r $end
$var reg 1 V send_zero_length_r $end
$var reg 14 W sizd_c [13:0] $end
$var reg 1 X sizd_is_zero $end
$var reg 11 Y sizu_c [10:0] $end
$var reg 8 Z state [7:0] $end
$var reg 8 [ tx_data_st [7:0] $end
$var reg 1 \ tx_dma_en_r $end
$var reg 1 ] word_done $end
$var reg 1 ^ word_done_r $end
$var reg 1 _ wr_done $end
$var reg 1 ` wr_done_r $end
$var reg 1 a wr_last $end
$var reg 1 b wr_last_en $end
$upscope $end
$upscope $end
$enddefinitions $end
#0
$dumpvars
0b
xa
x`
x_
x^
x]
x\
bx [
b1 Z
b0 Y
xX
b11111111111111 W
xV
0U
xT
xS
bx R
xQ
xP
0O
bx N
bx M
b1 L
0K
xJ
0I
xH
bx G
xF
xE
0D
bx C
bx B
bx A
bx @
b0 ?
bx >
b0 =
0<
0;
x:
bx 9
x8
x7
x6
x5
x4
x3
bx 2
x1
00
x/
x.
bx -
bx ,
bx +
x*
x)
x(
x'
1&
bx %
x$
x#
bx "
x!
$end
#24000
b1 ?
17
1#
b11011110001100 9
1:
1*
b11111000101110110 "
13
1/
b10010 2
16
1!
b110101110010111101100001101 ,
14
b1011000001001 %
11
0'
#25000
0&
#26000
10
#50000
b10 ?
15
0a
0E
0X
b11011110001100 W
b1 =
b11101111111 G
1V
1T
1\
1P
b10010 R
18
1S
0J
1&
#74000
07
b10100010111101 9
0:
b111101011101000 "
03
0/
b10001111 2
06
b1110010101011111111011111100101 ,
04
b10011000101 %
01
1'
#75000
0&
#100000
b1111010111010 A
0)
0#
05
b1111010111010 @
b0 ?
08
0S
b10001111 R
0P
1Q
0\
0T
0V
b1111010111010 +
b1111010111010 >
b111111110101101 G
b0 =
b10100010111101 W
1F
bx00010010xxxxxxxx C
0]
1`
1&
#124000
b10101011010101 9
1:
b11100000001101 "
13
b10011101 2
0!
b11000000001110110010001010000000 ,
b10001001100011 %
11
#125000
0&
#150000
b1 ?
0.
b100000 L
1#
1_
0`
0^
0F
b10101011010101 W
b101101001110000 G
1\
0Q
1P
b10011101 R
18
1S
1&
#174000
b1001010001001 9
0:
0*
b1011001101000001 "
03
b111100 2
b10001100001000100100100100011 ,
14
b10100100011101 %
01
0'
#175000
0&
#200000
1.
b10110011010000 A
0(
0$
0#
b10110011010000 @
b1 ?
1I
0H
08
0S
b111100 R
0P
1Q
0\
1T
b10110011010000 +
b10110011010000 >
b101110001011110 G
b1 =
b1001010001001 W
b1 Y
1F
bx0001001010011101 C
1`
0_
b100000 Z
1&
#224000
b10 ?
17
1#
1I
b101100010101 9
b110000000111011 "
13
1/
b1110001 2
16
b11011110011101010000001010111100 ,
04
b11100111000110 %
1'
#225000
0&
#250000
b100 ?
1<
b1100000001110 A
b1100000001110 @
15
1I
1_
0`
0F
b0 Y
b1001010001000 W
b11 =
b1101000000001 G
b1100000001110 +
b1100000001110 >
1V
0T
0Q
b1110001 R
18
1S
1&
#274000
b1 L
1I
b11111011010000 9
1:
1*
b11100000001011011 "
03
b10110111 2
06
1!
b1001111101000010101010110011111 ,
b11101100010 %
11
#275000
0&
#300000
b1100000001111 A
0.
b1100000001111 @
1(
1$
05
b101 ?
0<
0I
1H
08
0S
b10110111 R
1P
1\
0V
b100011110111101 G
b100 =
b11111011010000 W
b1 Y
b1110001xxxxxxxx0001001010011101 C
1]
0_
b1 Z
1&
#324000
b100 ?
07
0#
b100000 L
b11011011010011 9
b11000000101101101 "
0/
b111101 2
16
0!
b11100001001011001100111011000010 ,
b10111110010110 %
#325000
0&
#350000
1.
b101 ?
b110000001011011 A
b110000001011011 @
15
1I
0(
0$
b100000 Z
b11100001001011001100111011000010 M
1`
b1110001xxxxxxxx0001001010011101 -
b1110001xxxxxxxx0001001010011101 B
1^
0]
1F
b11011011010011 W
b101 =
b11000100000011 G
b110000001011011 +
b110000001011011 >
1V
1Q
b111101 R
0H
1&
#374000
b11010010100011 9
0*
b11001100111111010 "
b10000110 2
06
b10011111111100101010111000111111 ,
14
b1100101011011 %
01
#375000
0&
#400000
b110011001111110 A
b101100 [
05
b110011001111110 @
b10 ?
1I
b10000110 R
0P
1T
0V
b110011001111110 +
b110011001111110 >
b11001101010101 G
b10 =
b11010010100011 W
0^
1_
1&
#424000
b11100001 [
b11 ?
17
1#
b1 L
1I
b1010011011111 9
1*
b10110110011011010 "
13
1/
b1011010 2
1!
b1111011111110001111110111110111 ,
04
b1011001011111 %
11
#425000
0&
#450000
0.
b101101100110111 A
b101101100110111 @
0I
1(
1$
b1 Z
0`
0F
b0 Y
b1010011011111 W
b1100111001 G
b101101100110110 +
b101101100110110 >
0T
0Q
1P
b1011010 R
18
1S
1H
1&
#474000
b100000 L
b11010000001010 9
0*
b1110110101010110 "
b10011010 2
0!
b1010101111101101010110110101011 ,
b110011010000 %
01
#475000
0&
#500000
1.
b11101101010101 A
0(
0$
b11101101010101 @
b111 ?
bx [
1I
0H
b10011010 R
0P
1Q
b11101101010101 +
b11101101010101 >
b111101000100110 G
b110 =
b11010000001010 W
b1 Y
1F
b1110001010110100001001010011101 C
1`
0_
b1010101111101101010110110101011 M
b100000 Z
1&
#524000
b1 L
1I
b100111001010 9
0:
1*
b1011011111011001 "
b1011001 2
1!
b1001010011101001011111110010100 ,
b11101111001 %
0'
#525000
0&
#550000
b11110110 [
1(
0.
b10 ?
b10110111110111 A
b10110111110111 @
0I
0)
1$
b1 Z
1_
0`
b1110001100110100001001010011101 C
0F
b10 Y
b100111001010 W
b1 =
b11111101010010 G
b10110111110110 +
b10110111110110 >
0\
0Q
b1011001 R
1H
1&
#574000
07
b10100011100 9
0*
b10011000011000111 "
0/
b10001000 2
b1111011110100100110000111110111 ,
b1101001000110 %
11
#575000
0&
#600000
b10110111110111 A
0(
0$
b10110111110111 @
b11 ?
b1111011 [
0H
b10001000 R
1P
b10110111110111 +
b10110111110111 >
b100101100001101 G
b10 =
b11 Y
b1110001100110100101100110011101 C
0_
b1111011110100100110000111110111 M
1&
#624000
17
b11011000011010 9
1:
b1011001101011110 "
03
1/
b1110000 2
b11101101001101000000100011011010 ,
b1000000011100 %
1'
#625000
0&
#650000
bx [
b100 ?
1<
1`
b1110001100010000101100110011101 C
1F
b100 Y
b11011000011010 W
b11 =
b100001101111010 G
1\
1Q
b1110000 R
08
0S
1&
#674000
b1111011 [
b11 ?
07
0#
b100000 L
b10101101111001 9
1*
b1001101101111110 "
0/
b11011100 2
16
0!
b10011001001011001111100100110 ,
b11011110010110 %
#675000
0&
#700000
1.
b10011011011111 A
bx [
15
b10011011011111 @
b110 ?
0<
1I
b11011100 R
1V
b10011011011111 +
b10011011011111 >
b101001100010100 G
b110 =
b10101101111001 W
1_
b100000 Z
1&
#724000
b111 ?
17
1#
1I
b1001110011 9
0*
b10111010011000101 "
13
1/
b110101 2
b1000011011101111001000110000110 ,
14
b100100010111 %
0'
#725000
0&
#750000
b110 ?
b101110100110001 A
b101110100110001 @
1I
b1001110011 W
b101 =
b111110111011100 G
b101110100110001 +
b101110100110001 >
1T
b110101 R
18
1S
1&
#774000
b1 L
1I
b10011000111000 9
0:
1*
b1110100101010 "
03
b11100110 2
06
1!
b1010100100111101111110110101001 ,
04
b1000101001110 %
01
#775000
0&
#800000
0.
b11101001011 A
b1111011 [
1(
1$
05
b11101001011 @
b11 ?
0I
1H
08
0S
b11100110 R
0P
0\
0T
0V
b11101001010 +
b11101001010 >
b10111001111000 G
b10 =
b10011000111000 W
b0 Y
b1110001100010000011010110011101 C
b1 Z
1&
#824000
b11010010 [
b10 ?
07
0#
b1000010000110 9
1:
0*
b11101001110010010 "
13
0/
b10111010 2
b110101101000001100100101101011 ,
14
b10111001010 %
1'
#825000
0&
#850000
b11 ?
b110101 [
1#
0(
0$
b110101101000001100100101101011 M
0`
0F
b1000010000110 W
b101100101011100 G
b11101001011 +
b11101001011 >
1T
1\
0Q
b10111010 R
18
1S
0H
1&
#874000
17
b100000 L
b11110111001001 9
1*
b10110101011111011 "
03
1/
b10101001 2
0!
b1000010010011111100110110000100 ,
b10000100110010 %
0'
#875000
0&
#900000
1.
b101101010111110 A
bx [
b101101010111110 @
b100 ?
1<
1I
08
0S
b10101001 R
b101101010111110 +
b101101010111110 >
b110000101101 G
b11 =
b11110111001001 W
b1110001101110100011010110011101 C
0_
b100000 Z
1&
#924000
b110101 [
b11 ?
07
0#
1I
b10100001101 9
0:
0*
b10101111101001011 "
13
0/
b10010010 2
16
b1000100011001011110011110001000 ,
b1011010001111 %
11
#925000
0&
#950000
bx [
b100 ?
b101011111010010 A
b101011111010010 @
15
1I
1#
b10100001101 W
b111010111011010 G
b101011111010010 +
b101011111010010 >
1V
0\
1P
b10010010 R
18
1S
1&
#974000
b1 L
1I
b11010011011000 9
1:
b1111101011100010 "
b1010011 2
06
1!
b10100000110000000010010001000001 ,
04
b1101111010001 %
01
#975000
0&
#1000000
0.
b11111010111000 A
b110101 [
05
b11111010111000 @
b11 ?
0<
0I
b1010011 R
0P
1Q
1\
0T
0V
b11111010111000 +
b11111010111000 >
b1011010110011 G
b10 =
b11010011011000 W
1F
b10010010101110100011010110011101 C
1]
1`
b1 Z
1&
#1024000
17
b10010110 9
0:
b110111000011111 "
1/
b11001000 2
16
b11010000110001011101110010100001 ,
14
b1001000111001 %
#1025000
0&
#1050000
b1101011 [
1.
b0 ?
1<
b1101110000111 A
b1101110000111 @
15
1_
0`
b10010010101110100011010110011101 -
b10010010101110100011010110011101 B
1^
0]
b10010010010100110011010110011101 C
0F
b1 Y
b10010110 W
b111 =
b1011000 G
b1101110000111 +
b1101110000111 >
1V
1T
0\
0Q
b11001000 R
1&
#1074000
b1000010111001 9
1:
1*
b11111111110000100 "
b11110101 2
b101010110000101101010101010101 ,
b11000010010110 %
#1075000
0&
#1100000
b111111111100010 A
bx [
1)
1$
b111111111100010 @
b101 ?
0<
0.
1H
b11110101 R
1\
b111111111100001 +
b111111111100001 >
b11000000011010 G
b100 =
b1000010111001 W
b0 Y
b11001000010100110011010110011101 C
1]
0^
0_
1&
#1124000
b10 L
b10101001101111 9
0:
0*
b1010001110010 "
03
b1000101 2
06
0!
b11010000101111000101111010100001 ,
b111111001001 %
11
1'
#1125000
0&
#1150000
b110101 [
1.
b11 ?
b10100011100 A
b10100011100 @
05
1I
1D
0)
0$
b10 Z
b11010000101111000101111010100001 N
b11001000010100110011010110011101 -
b11001000010100110011010110011101 B
1^
0]
b11001000010100110011010111110101 C
b10101001101111 W
b10 =
b10010000111011 G
b10100011100 +
b10100011100 >
0V
0\
1P
b1000101 R
08
0S
0H
1&
#1174000
b10100000 [
b10 ?
07
0#
1D
1I
b1001101100010 9
b110101010110000 "
13
0/
b11000000 2
16
b10010100000010010111011000101000 ,
04
b1011100111000 %
01
0'
#1175000
0&
#1200000
b1101010101100 A
b11001001 [
1#
1D
1I
15
b1101010101100 @
b1 ?
18
1S
b11000000 R
0P
1Q
0T
1V
b1101010101100 +
b1101010101100 >
b111101000 G
b0 =
1F
1E
0^
1`
1&
#1224000
17
1D
1I
b10011001110001 9
b10011100000111 "
03
1/
b11000001 2
b1100100101101011110001111001001 ,
14
b1110100010111 %
11
1'
#1225000
0&
#1250000
b10100000 [
b10 ?
1D
1I
1_
0`
b1100100101101011110001111001001 C
0F
b1 Y
b10101001101110 W
b1 =
b100010000011110 G
1T
0Q
1P
b11000001 R
08
0S
1&
#1274000
b11001001 [
0.
b1 ?
07
0#
b1 L
0D
0I
b1001111001 9
1:
1*
b1111010111011101 "
0/
b10100000 2
06
1!
b10101110011110000101100001011100 ,
04
b1011110111 %
01
#1275000
0&
#1300000
b11110101110111 A
b1011110 [
05
b11110101110111 @
b101 ?
b10100000 R
0P
1Q
1\
0T
0V
b11110101110111 +
b11110101110111 >
b111100011010100 G
b101 =
b1001111001 W
b0 Y
1F
0E
b10101110011110000101100001011100 C
1`
0_
b1 Z
1&
#1324000
b1101111111000 9
0:
b10011010011100000 "
13
b10110001 2
16
b10000001110000111001101000000011 ,
14
b1001001111011 %
11
0'
#1325000
0&
#1350000
b11001001 [
b1 ?
b100110100111000 A
b100110100111000 @
15
1#
1_
0`
0F
b1101111111000 W
b0 =
b100011101011011 G
b100110100111000 +
b100110100111000 >
1V
1T
0\
0Q
1P
b10110001 R
18
1S
1&
#1374000
b10 L
b10000010001011 9
0*
b10000111101111100 "
03
b1101010 2
0!
b11000110001110101001001010001100 ,
04
b10011110000100 %
01
1'
#1375000
0&
#1400000
1.
b100001111011111 A
b10100001 [
0#
b100001111011111 @
b100 ?
1I
1D
08
0S
b1101010 R
0P
1Q
0T
b100001111011111 +
b100001111011111 >
b11011100000000 G
b100 =
1F
b10101110011110000101100010110001 C
1`
0_
b10 Z
1&
#1424000
b10010111010000 9
1*
b1001011110000110 "
13
b1001011 2
b10100100100011110111110001001001 ,
b1100110010 %
11
0'
#1425000
0&
#1450000
b1011110 [
b101 ?
0.
1#
b100 L
0D
0I
1)
1_
0`
1E
0F
b1101010111000 G
0Q
1P
b1001011 R
18
1S
1H
1&
#1474000
b11001011011111 9
1:
b1110111110100100 "
b1110011 2
b1000100101011111100100010001 ,
b11011100000111 %
01
#1475000
0&
#1500000
0)
b110 ?
b10010101 [
b1000 L
1b
1K
0H
b1110011 R
0P
1Q
1\
b10011010101011 G
b101 =
b11001011011111 W
b1 Y
1F
0E
b1000100101011111100100010001 C
1`
0_
b1000100101011111100100010001 N
b100 Z
1&
#1524000
0b
1K
b1 L
b10111001011101 9
0:
0*
b110000111100011 "
b100000 2
1!
b1000001000100000011100110000010 ,
b110011101 %
11
#1525000
0&
#1550000
b10001 [
b100 ?
1<
b1100001111000 A
b1100001111000 @
0K
b1 Z
1_
0`
b1000100101010111001100010001 C
0F
b10 Y
b10111001011101 W
b11 =
b110001110000000 G
b1100001111000 +
b1100001111000 >
0\
0Q
1P
b100000 R
1J
1&
#1574000
b11110000000000 9
1:
b11000011111011011 "
b11010000 2
0!
b10001001011111110001110000010010 ,
14
b10100000101011 %
01
#1575000
0&
#1600000
b11111001 [
b101 ?
0<
b10 L
0J
b11010000 R
0P
1Q
1\
1T
b11000000000110 G
b100 =
b11110000000000 W
b11 Y
1F
b100000100101010111001100010001 C
1]
1`
0_
1&
#1624000
17
b1 L
b1101011000100 9
b10110010101001010 "
1/
b1010001 2
06
1!
b1100010111111010100100111000101 ,
b10001000001100 %
11
1'
#1625000
0&
#1650000
b110101 [
1.
b11 ?
b101100101010010 A
b101100101010010 @
05
1_
0`
b100000100101010111001100010001 -
b100000100101010111001100010001 B
1^
0]
b100000100101010111001111010000 C
0F
b0 Y
b1101011000100 W
b10 =
b11101010110 G
b101100101010010 +
b101100101010010 >
0V
0Q
1P
b1010001 R
1&
#1674000
07
b1010000000 9
1*
b1000101110001011 "
0/
b111 2
b111011111011010101001101110111 ,
04
b10111010000110 %
0'
#1675000
0&
#1700000
b10001011100011 A
b10001 [
1(
1$
b10001011100011 @
b100 ?
1<
0.
1H
b111 R
1Q
0T
b10001011100010 +
b10001011100010 >
b11101000010001 G
b11 =
b1010000000 W
1F
b100000010100010111001111010000 C
0^
1`
0_
1&
#1724000
b110101100000 9
0:
b10011011111100001 "
b11111000 2
16
b10110011000000101101101001100110 ,
14
b11101000110000 %
#1725000
0&
#1750000
b10 [
b10 ?
0<
b100110111111000 A
b100110111111000 @
15
0(
0$
b10110011000000101101101001100110 M
1_
1]
b111010100010111001111010000 C
b1 Y
b110101100000 W
b1 =
b111001000010001 G
b100110111111000 +
b100110111111000 >
1V
1T
0\
b11111000 R
0H
1&
#1774000
17
b100011110001 9
1:
0*
b111000111110000 "
03
1/
b10000001 2
06
b11110000111011101010111011100001 ,
b11110101100100 %
01
1'
#1775000
0&
#1800000
b1110001111100 A
b11011010 [
05
b1110001111100 @
b1 ?
1.
08
0S
b10000001 R
0P
1\
0V
b1110001111100 +
b1110001111100 >
b10111101010100 G
b0 =
b100011110001 W
b0 Y
b111010100011111100011010000 C
0]
1^
b111010100010111001111010000 -
b111010100010111001111010000 B
1&
#1824000
b1100110 [
b0 ?
07
0#
b10011101010001 9
1*
b10110100010011 "
13
0/
b10101111 2
16
b11010100101101011110011010101001 ,
04
b1110011100010 %
#1825000
0&
#1850000
b10001 [
0.
b100 ?
1<
b101101000101 A
b101101000101 @
15
1#
1(
1$
0`
0^
0F
b10011101010001 W
b11 =
b100100111110101 G
b101101000100 +
b101101000100 >
1V
0T
0Q
b10101111 R
18
1S
1H
1&
#1874000
17
b1000110101111 9
b110101111101101 "
1/
b1111101 2
06
0!
b110001011111000000011101100010 ,
14
b100000111010 %
11
#1875000
0&
#1900000
b1101011111011 A
b10010101 [
0(
0$
05
b1101011111011 @
b110 ?
0<
b100000 L
0H
b1111101 R
1P
1T
0V
b1101011111011 +
b1101011111011 >
b111010000100111 G
b101 =
b1000110101111 W
b1 Y
b10101111010100011111100011010000 C
1]
0_
b110001011111000000011101100010 M
1&
#1924000
07
b1 L
b111001011100 9
0:
0*
b10101100000100101 "
0/
b11011100 2
1!
b11010001010010000010000010100010 ,
04
b1111101110000 %
#1925000
0&
#1950000
1.
b101011000001001 A
b101011000001001 @
1`
b10101111010100011111100011010000 -
b10101111010100011111100011010000 B
1^
0]
b10101111010100010111110111010000 C
1F
b0 Y
b111001011100 W
b111011110010101 G
b101011000001001 +
b101011000001001 >
0T
0\
1Q
b11011100 R
1&
#1974000
b10001001110101 9
1*
b110111110111001 "
b11001110 2
b10000111000011001110111000001110 ,
14
b10111001000 %
#1975000
0&
#2000000
b101011000001010 A
b101011000001010 @
b1000 [
1)
1$
b111 ?
0.
1H
b11001110 R
1T
b111010110000001 G
b110 =
b1 Y
b10101111010100011101110011010000 C
0^
1_
1&
#2024000
b10 L
b10101111110101 9
0*
b1000111010101111 "
b10111000 2
0!
b10111110111111100100000101 ,
b1001100000010 %
0'
#2025000
0&
#2050000
1.
b1100010 [
b0 ?
1<
b10001110101011 A
b10001110101011 @
1I
1D
0)
0$
b10 Z
b10111110111111100100000101 N
b10101111110011101101110011010000 C
b0 Y
b111 =
b10000110110001 G
b10001110101011 +
b10001110101011 >
b10111000 R
0H
1&
#2074000
b11111101001101 9
1:
b10010110111000000 "
03
b101001 2
16
b10000110111010111011011000001101 ,
b10011001000000 %
#2075000
0&
#2100000
b100101101110000 A
b1100010 [
0#
1D
1I
15
b100101101110000 @
b0 ?
0<
08
0S
b101001 R
1\
1V
b100101101110000 +
b100101101110000 >
b101010000000000 G
b0 =
b11111101001101 W
1E
b10111000110011101101110011010000 C
1]
1&
#2124000
b1101110110111 9
1*
b110010000000111 "
b10011110 2
06
b10110101010110001010011001101010 ,
04
b110001011101 %
1'
#2125000
0&
#2150000
b10 [
1)
b111 ?
1<
b1100100000001 A
b1100100000001 @
05
b100 L
0D
0I
0(
b10111000110011101101110011010000 -
b10111000110011101101110011010000 B
1^
0]
b10110101010110001010011001101010 C
b1101110110111 W
b111 =
b111000001100100 G
b1100100000001 +
b1100100000001 >
0V
0T
b10011110 R
1H
1&
#2174000
b10110111011000 9
0*
b1111110101011 "
13
b1011010 2
b10110100010010010111011001101000 ,
b10000001011001 %
#2175000
0&
#2200000
b11111101010 A
0)
1#
b11111101010 @
b100 ?
0.
b1101000 [
b1000 L
1b
1K
0H
18
1S
b1011010 R
b11111101010 +
b11111101010 >
b100000000000100 G
b11 =
b10110111011000 W
0E
b10110100010010010111011001101000 C
0^
b10110100010010010111011001101000 N
b100 Z
1&
#2224000
b10100000110 9
0:
b10110001011000 "
b10100101 2
16
b1101110000111100001111111011100 ,
b10001110001011 %
#2225000
0&
#2250000
b111 [
b1 ?
0<
b101100010110 A
b101100010110 @
15
b1 L
1b
1K
b1000 Z
1]
b1011010010010010111011001101000 C
b1 Y
b10100000110 W
b0 =
b100111111100011 G
b101100010110 +
b101100010110 >
1V
0\
b10100101 R
1J
1&
#2274000
17
1b
1K
b1 L
b10110110001001 9
b10111001111101011 "
1/
b1100 2
06
1!
b1101000100100000001100011010 ,
b10011011000101 %
01
0'
#2275000
0&
#2300000
b1111100 [
05
b10 ?
1.
0b
0K
b1100 R
0P
0V
b1101010110000 G
b1 =
b10100000101 W
b10 Y
b1011010010010010111011010100101 C
0]
1^
b1011010010010010111011001101000 -
b1011010010010010111011001101000 B
b1 Z
1&
#2324000
07
b101100110110 9
1:
b11111110110000010 "
0/
b11011 2
16
b10010010111110010001001000100101 ,
b10100010101101 %
11
1'
#2325000
0&
#2350000
b110001 [
0.
b11 ?
15
0`
0^
b1011010010010010000110010100101 C
0F
b11 Y
b101100110110 W
b10 =
b10011000101111 G
1V
1\
0Q
1P
b11011 R
0J
1&
#2374000
17
b10011000001 9
b10000110111100 "
1/
b10001100 2
06
0!
b11010101011111111110110010101010 ,
b10111011100100 %
0'
#2375000
0&
#2400000
b100001101111 A
b1110110 [
05
b100001101111 @
b101 ?
b100000 L
b10001100 R
1Q
0V
b100001101111 +
b100001101111 >
b101000010100000 G
b100 =
b10011000001 W
b100 Y
1F
b1011010000110110000110010100101 C
1`
0_
1&
#2424000
07
b100000 L
b1010011110001 9
0:
1*
b1010011101110001 "
03
0/
b11010110 2
16
b11011111111101101111011010111111 ,
14
b10111010001001 %
1'
#2425000
0&
#2450000
1.
b111 [
b1 ?
b10100111011100 A
b10100111011100 @
15
1I
0#
b100000 Z
1_
b1011010000110110000110010001100 C
b101 Y
b1010011110001 W
b1 =
b101010111111010 G
b10100111011100 +
b10100111011100 >
1V
1T
0\
b11010110 R
08
0S
1&
#2474000
b1111100 [
b10 ?
17
1#
1I
b11100001110100 9
0*
b11101110011111101 "
1/
b110111 2
b11110110011100001000100011101100 ,
04
b10101100011100 %
#2475000
0&
#2500000
b111011100111111 A
b1001001 [
1I
b111011100111111 @
b110 ?
b110111 R
0T
b111011100111111 +
b111011100111111 >
b100000011001 G
b101 =
b1010011110000 W
b0 Y
1&
#2524000
b10100101010 9
1*
b11011111100010111 "
13
b11110011 2
06
b11100010101110100000000011000101 ,
b110100010010 %
01
0'
#2525000
0&
#2550000
b111011101000000 A
b10110100 [
0.
b111011101000000 @
b111 ?
05
b1000000 L
1O
1I
1)
1$
b1010011101111 W
b110 =
b100110000101001 G
0V
0P
b11110011 R
18
1S
1H
1&
#2574000
b101100111100 9
0*
b10001011011001001 "
b11100001 2
16
b10011101111110101100000100 ,
14
b1000011001011 %
#2575000
0&
#2600000
1.
b111011101000000 A
0)
0$
b111011101000000 @
b0 ?
1<
b1100010 [
15
0O
1I
0H
b11100001 R
0Q
1T
1V
b111011101000000 +
b111011101000000 >
b10011110010100 G
b111 =
b1010011101110 W
b1 Y
0F
b1011010111100110000110010001100 C
0`
b10011101111110101100000100 N
1U
b1000000 Z
1&
#2624000
b11110101011111 9
1*
b11001101010100001 "
03
b0 2
06
b1101110011011010010001111011100 ,
04
b1011101110011 %
1'
#2625000
0&
#2650000
b1111100 [
0.
b10 ?
0<
b110011010101001 A
b110011010101001 @
b10000000 L
1I
1(
1$
0_
1]
b11100001111100110000110010001100 C
b0 Y
b1010011101101 W
b1 =
b11001000010100 G
b110011010101000 +
b110011010101000 >
0V
0T
b0 R
08
0S
1H
1&
#2674000
1I
b1 L
b1010000000 9
0*
b10000011101000000 "
13
b1100 2
1!
b10110101101101001110100001101011 ,
b1000100101101 %
#2675000
0&
#2700000
b110011010101001 A
0(
0$
b110011010101001 @
b11 ?
1.
b10110101 [
0I
0H
18
1S
b1100 R
b110011010101001 +
b110011010101001 >
b1100001101101 G
b10 =
b1010011101100 W
0]
1^
b11100001111100110000110010001100 -
b11100001111100110000110010001100 B
b10110101101101001110100001101011 M
b1 Z
1&
#2724000
b10001010000010 9
1:
1*
b10100110100100010 "
03
b100011 2
16
b10111100011110000001000001111000 ,
b1111011101101 %
11
#2725000
0&
#2750000
b110011010101010 A
b100 [
b110011010101010 @
0.
b100 ?
1<
1)
1$
0^
b11100001000011000000110010001100 C
b1 Y
b10001010000010 W
b11 =
b110110000001111 G
1V
1\
1P
b100011 R
08
0S
1H
1&
#2774000
b10110101 [
b11 ?
07
0#
b10001110100100 9
0*
b11010000001011000 "
0/
b11010 2
b10000100011001010001010000001000 ,
14
b10010000100100 %
0'
#2775000
0&
#2800000
b110100000010110 A
b1101011 [
0)
0$
b110100000010110 @
b0 ?
0<
0H
b11010 R
1Q
1T
b110100000010110 +
b110100000010110 >
b100010001111100 G
b0 =
b10001110100100 W
1F
1`
b10000100011001010001010000001000 N
1&
#2824000
b10 L
b1110100110101 9
1*
b1010100101010001 "
13
b110111 2
06
0!
b10101101111100110100000001011011 ,
04
b11100100000110 %
01
1'
#2825000
0&
#2850000
1.
b10110100 [
b10 ?
b10101001010100 A
b10101001010100 @
1I
1D
1#
b10 Z
1_
b0 Y
b1110100110101 W
b1 =
b110001001010111 G
b10101001010100 +
b10101001010100 >
0V
0T
0P
b110111 R
18
1S
1&
#2874000
0.
17
b1 L
0D
0I
b10110011010011 9
0:
b11001011100101111 "
1/
b1100001 2
1!
b10001100001110001100010000011000 ,
b11101101001111 %
11
0'
#2875000
0&
#2900000
b110010111001011 A
b1101011 [
b110010111001011 @
b0 ?
1<
b1100001 R
1P
0Q
0\
b110010111001011 +
b110010111001011 >
b101001001111110 G
b111 =
b10110011010011 W
b1 Y
0F
b11100001000011000011011110001100 C
0`
b1 Z
1&
#2924000
07
b101110111111 9
0*
b100010010000011 "
0/
b1111110 2
0!
b1100001110110111110010111000011 ,
14
b11100101011000 %
#2925000
0&
#2950000
b11101000 [
b1 ?
0<
b10 L
0_
1`
1]
b1100001000011000011011110001100 C
1F
b10 Y
b0 =
b111110111011011 G
1T
1Q
b1111110 R
1&
#2974000
17
b10 L
b10011001101001 9
1*
b101110010111100 "
03
1/
b1010000 2
b11111100011001110000101011111000 ,
b101101000101 %
1'
#2975000
0&
#3000000
b1011100101111 A
b10100 [
b1011100101111 @
b101 ?
1.
1I
1D
08
0S
b1010000 R
b1011100101111 +
b1011100101111 >
b110100000000001 G
b100 =
b10110011010010 W
b0 Y
b1100001000011000011011101111110 C
0]
1^
b1100001000011000011011110001100 -
b1100001000011000011011110001100 B
1_
b10 Z
1&
#3024000
b1000 [
b100 ?
07
0#
1D
1I
b1001101110001 9
0*
b10111001010001011 "
13
0/
b11010011 2
b10100000001111111000100101000 ,
04
b11010010000101 %
01
0'
#3025000
0&
#3050000
1<
b101110010100010 A
b101110010100010 @
1D
1I
1#
0^
1E
b11 =
b10011100010000 G
b101110010100010 +
b101110010100010 >
0T
0P
b11010011 R
18
1S
1&
#3074000
b1010110000011 9
1*
b10100001001001 "
b1111110 2
16
b11001000100000011011110010010001 ,
14
b100001111011 %
11
#3075000
0&
#3100000
0.
b10100 [
1(
b100 L
0D
0I
b101 ?
0<
1H
b1111110 R
1P
0Q
1T
1V
b11000011000100 G
b100 =
b1 Y
0F
b11001000100000011011110010010001 C
1]
0`
1&
#3124000
b1011011000010 9
1:
0*
b100100010101011 "
03
b100 2
b11111000110110100001101011110001 ,
b11111110010101 %
1'
#3125000
0&
#3150000
b11111000 [
1.
b11 ?
1<
b1001000101010 A
b1001000101010 @
0#
b1000 L
1b
1K
0(
b100 Z
b11111000110110100001101011110001 M
0_
1`
b11001000100000011011110010010001 -
b11001000100000011011110010010001 B
1^
0]
b11111000110110100001101011110001 C
0E
1F
b0 Y
b1011011000010 W
b11 =
b100001000000 G
b1001000101010 +
b1001000101010 >
1\
1Q
b100 R
08
0S
0H
1&
#3174000
b1000 [
b100 ?
17
1#
0b
1K
b1 L
b11101110111101 9
0:
b11110110110011111 "
1/
b11100010 2
06
1!
b111010000010010110101101110100 ,
04
b10010010100000 %
01
#3175000
0&
